air_wt_real_ug,air_wt_SMAP_ug,air_wt_PreMAP_ug,air_wt_PostMAP_ug,SMAP,PreMAP,PostMAP,RPM,CHT_K,MAT_K,TPS
48.507622714845695,67.72166943369751,103.90902185179574,50.30256463040897,62.67057425009608,96.15885319533348,46.55069253315926,2979.5898173255914,403.0,327.0,0.13
48.77417099519398,67.73071884432582,103.19894900615144,50.461287410082434,62.67894870048166,95.5017419137001,46.697576799774176,2963.5483627129033,403.0,327.0,0.13
49.13650975878936,67.54484701706434,103.62499401866306,49.66767351171519,62.50694032784702,95.89600989046097,45.963155466699604,2983.145236985305,403.0,327.0,0.13
49.14067569401438,67.80103000783109,103.19059620600419,50.561530800287315,62.7440156285405,95.49401211633683,46.790343426489834,2998.80048737932,403.0,327.0,0.13
49.14484000255637,67.50864774314486,103.92573397771541,49.86816355493754,62.47344101657868,96.17431882896423,46.148691739583015,3005.108692351269,403.0,327.0,0.13
49.19898252033443,67.75717400044331,102.68936946654206,50.59494526368894,62.7034306696892,95.03016992440224,46.82126563539505,3008.272757657831,403.0,327.0,0.13
49.14484000255637,67.3506213020514,103.86725785105942,49.61755018520647,62.32720115136504,96.12020420851708,45.91677064361573,3005.108692351269,403.0,327.0,0.13
49.398893730595645,67.62768955599888,103.3242540596107,49.75956410177282,62.583603964918844,95.6177009519577,46.04819229605198,3013.863780966719,403.0,327.0,0.13
49.42388283521367,67.50516550644285,103.62499401866306,50.08536246126698,62.47021850633026,95.89600989046097,46.34969062664509,3011.443492847091,403.0,327.0,0.13
49.43637738752269,67.6945198423074,103.24907233266016,49.93499574455336,62.64544964083435,95.54812673678398,46.21053917684555,3003.45397965087,403.0,327.0,0.13
49.432211452297665,67.62908114555468,103.47462403913688,50.25244130390025,62.584891761237394,95.75685542120934,46.50430771007538,2992.6679710452113,403.0,327.0,0.13
49.827869564278096,67.62351206832108,103.2991956591689,49.90158128115173,62.57973805975319,95.59451155986787,46.17961696794033,3003.75470095046,403.0,327.0,0.13
49.79455184257608,67.56016157160518,103.31590125946343,49.97676300810226,62.52111262949705,95.60997115459442,46.24919118311406,3012.804426386414,403.0,327.0,0.13
49.811210703427086,67.50934353792275,103.48297683928415,49.425412942131395,62.47408491473795,95.76458521857262,45.73896416809559,3008.423593636454,403.0,327.0,0.13
49.432211452297665,67.58940099443839,103.41614791248091,50.21902357768607,62.548171197825674,95.70274080076219,46.47338248171807,3020.539677380459,403.0,327.0,0.13
49.41138828290466,67.48428187466838,103.34096618553035,49.72614963837119,62.450892503196,95.63316658558846,46.01727008714676,3035.976327049812,403.0,327.0,0.13
49.16566317194938,67.47244792542328,103.35767178582489,49.450474605385764,62.439941202068326,95.64862618031502,45.762156579637534,3024.3459928164443,403.0,327.0,0.13
48.745017582033945,67.59775433838776,103.38273671189182,49.909934081299,62.555901498430956,95.67182161130906,46.187346765303616,3012.501890419513,403.0,327.0,0.13
49.157334554865386,67.5002943991955,103.43286003840055,49.74285850147829,62.46571071597338,95.71820643439294,46.03273270132542,3018.2604834994436,403.0,327.0,0.13
49.42388283521367,67.39865670042435,103.41614791248091,49.233275699056314,62.37165377672911,95.70274080076219,45.561157692575456,3034.134015245787,403.0,327.0,0.13
49.42388283521367,67.56294692592512,102.93997957346055,50.67848631641186,62.52369023510218,95.26208800091744,46.898575686836246,3024.4984449785984,403.0,327.0,0.13
49.40305803913764,67.33460877752428,103.7837167983365,49.60084132209938,62.31238293858767,96.04289415707589,45.90130802943707,3004.8076998941024,403.0,327.0,0.13
49.41138828290466,67.63604289994828,103.27413725872711,49.918286881446264,62.59133426552418,95.57132216777802,46.1950765626669,3007.368059319605,403.0,327.0,0.13
49.41971689998866,67.60750090329921,103.89231625150123,50.0937185242268,62.564921105080856,96.14339360060693,46.35742344346047,3007.9711310716116,403.0,327.0,0.13
49.852858668896125,67.61515899627275,103.19059620600419,49.79297856517445,62.57200801076889,95.49401211633683,46.079114504957204,2992.8172461834315,403.0,327.0,0.13
49.83203387282009,67.63604344375037,103.77536399818923,50.07700966111971,62.59133476876618,96.03516435971261,46.34196082928181,3001.8010882272083,403.0,327.0,0.13
49.81537501196908,67.59984226652354,103.53310016579287,50.08536246126698,62.55783369615077,95.8109700416565,46.34969062664509,3018.1086595314605,403.0,327.0,0.13
49.807046394885084,67.72723823903007,103.4662712389896,50.21902357768607,62.67572769995928,95.74912562384606,46.47338248171807,3014.9238807841534,403.0,327.0,0.13
49.78205729026706,67.38403549355196,103.4412128385478,49.50895073204176,62.358123108649245,95.72593623175621,45.81627120008469,3001.9512759036093,403.0,327.0,0.13
49.432211452297665,67.58383164530375,103.35767178582489,49.73450243851846,62.54301724472046,95.64862618031502,46.024999884510045,3016.439603412872,403.0,327.0,0.13
49.14900431109837,67.55389669959368,103.4662712389896,50.026886334610985,62.51531502985359,95.74912562384606,46.29557600619793,3024.9558936972744,403.0,327.0,0.13
49.16149886340738,67.62908168935677,103.28249005887437,50.16054745103007,62.584892264479386,95.5790519651413,46.41926786127091,3014.620919031575,403.0,327.0,0.13
48.73668733826693,67.63673869472616,103.42450071262817,49.81804022842881,62.59197816368343,95.71047059812547,46.10230691649914,3019.47562535783,403.0,327.0,0.13
48.745017582033945,67.5907931277963,103.48297683928415,49.88487241804463,62.54945949738623,95.76458521857262,46.164154353761674,3034.594383546704,403.0,327.0,0.13
49.14067569401438,67.65692680362376,103.64169961895759,49.90158128115173,62.61066052027942,95.91146948518754,46.17961696794033,3030.7622443544697,403.0,327.0,0.13
48.74085327349195,67.63116988939362,103.16553780556238,50.31927023070351,62.58682471382024,95.47082272424699,46.56615212788582,3011.2923539014023,403.0,327.0,0.13
48.73668733826693,67.61167920668015,103.34931898567761,50.07700966111971,62.56878776510954,95.64089638295174,46.34196082928181,3006.3132654316782,403.0,327.0,0.13
48.49929247107867,67.61724665250748,103.33261338538307,50.118780187481164,62.57393995686769,95.62543678822517,46.380615855002404,2997.1527124973995,403.0,327.0,0.13
48.09114143347225,67.5525051100379,103.95079237815722,49.47553626864011,62.51402723353505,96.19750822105408,45.78534899117947,3014.166590549856,403.0,327.0,0.13
48.46181044083465,67.64996668063645,103.37437738611943,50.24408524094042,62.60421952571868,95.66408577504158,46.496574893260004,3025.871206388897,403.0,327.0,0.13
48.728358721182936,67.60262734894246,103.72524067168051,49.985119071062094,62.56041105013492,95.98877953662873,46.256923999929434,3014.620919031575,403.0,327.0,0.13
49.12818114170536,67.63395388420828,103.50804176535107,49.73450243851846,62.589401061320295,95.78778064956666,46.024999884510045,3019.6275868890507,403.0,327.0,0.13
49.124015206480344,67.55180822765583,102.89821557272421,50.16054745103007,62.513382328891765,95.22343901410103,46.41926786127091,3024.3459928164443,403.0,327.0,0.13
49.14484000255637,67.50168680445442,103.9591451783045,49.60084132209938,62.46699926715493,96.20523801841736,45.90130802943707,3010.687949796048,403.0,327.0,0.13
49.14900431109837,67.68546907217385,103.49133616505652,50.23573244079315,62.63707393234372,95.77232105484009,46.48884509589672,3007.8203404594665,403.0,327.0,0.13
49.39472942205364,67.71122734590925,103.0736439526922,50.21902357768607,62.660910996907944,95.38578287544252,46.47338248171807,3018.7160470660815,403.0,327.0,0.13
49.40305803913764,67.59288187163519,103.53310016579287,49.70108797511682,62.55139244996906,95.8109700416565,45.99407767560482,3028.773354441466,403.0,327.0,0.13
49.40722397436266,67.60262707704138,103.3910895120391,49.82639629138863,62.56041079851388,95.67955140867234,46.110039733314515,3015.0753844967558,403.0,327.0,0.13
49.415552591446655,67.6485740034765,103.34096618553035,50.03524239757081,62.60293072291614,95.63316658558846,46.30330882301331,2991.9218186638795,403.0,327.0,0.13
49.13234545024736,67.65135827019223,103.82548732469796,50.05194799786535,62.60550732203723,96.08154918279648,46.31876841773987,2984.1838332580046,403.0,327.0,0.13
49.41971689998866,67.73628982486674,103.34931898567761,49.767920164732644,62.68410416331292,95.64089638295174,46.05592511286736,3009.63082621817,403.0,327.0,0.13
49.42388283521367,67.60402029800346,103.36602458597216,50.03524239757081,62.561700104558476,95.6563559776783,46.30330882301331,3032.140698983497,403.0,327.0,0.13
49.398893730595645,67.60958937523706,103.54145949156528,49.80968742828154,62.566853806042666,95.81870587792397,46.094577119135856,3008.7253109761027,403.0,327.0,0.13
49.398893730595645,67.6826848054581,103.44956563869506,50.127132987628436,62.63449733322263,95.73366602911949,46.388345652365686,2999.400127548762,403.0,327.0,0.13
49.13650975878936,67.52396392909196,103.63334681881032,49.45882740553302,62.487614827954765,95.90373968782426,45.76988637700081,3004.6572262749983,403.0,327.0,0.13
49.14067569401438,67.55946632062938,103.29084285902164,49.776272964879915,62.5204692345798,95.58678176250459,46.06365491023064,3010.990121517812,403.0,327.0,0.13
49.13650975878936,67.53858214505283,103.54981229171254,50.08536246126698,62.50114272820354,95.82643567528726,46.34969062664509,3022.2132751465992,403.0,327.0,0.13
49.42388283521367,67.74742825123502,103.50804176535107,50.528116336885674,62.69441181790234,95.78778064956666,46.75942121758461,2988.7920374338946,403.0,327.0,0.13
49.40305803913764,67.55250429433475,103.4662712389896,49.69273517496955,62.51402647867203,95.74912562384606,45.98634787824154,2975.8952560006664,403.0,327.0,0.13
49.12818114170536,67.71888571078385,103.06529115254492,50.19396517724426,62.66799815421701,95.37805307807923,46.45019308962822,2998.80048737932,403.0,327.0,0.13
49.42388283521367,67.55877052585147,103.89231625150123,49.400351278877025,62.51982533642053,96.14339360060693,45.71577175655365,3013.863780966719,403.0,327.0,0.13
49.83619980804511,67.87273493610053,102.99010289996929,50.47799301037696,62.81037236588597,95.30847282400131,46.71303639450073,3008.423593636454,403.0,327.0,0.13
49.415552591446655,67.54415149418747,103.62499401866306,50.01018073431645,62.50629668130873,95.89600989046097,46.28011641147137,2995.357203908214,403.0,327.0,0.13
49.41138828290466,67.59775406648676,103.14882567964274,49.96841020795499,62.55590124680998,95.45535709061623,46.241461385750775,3006.7652293402875,403.0,327.0,0.13
49.39472942205364,67.58313530672378,103.68347014531905,49.86816355493754,62.542372843319185,95.95012451090813,46.148691739583015,3009.4798691621327,403.0,327.0,0.13
48.720028477415916,67.66528041947416,103.92573397771541,49.90158128115173,62.618391072505716,96.17431882896423,46.17961696794033,3000.1500150750257,403.0,327.0,0.13
49.1781577242584,67.83235790260221,103.40779511233363,50.24408524094042,62.773006897830975,95.6950110033989,46.496574893260004,2991.1760382614007,403.0,327.0,0.13
48.75334619911794,67.61933512444536,103.5832234923016,49.96005740780772,62.575872657829535,95.85735486474037,46.23373158838749,2996.105070981995,403.0,327.0,0.13
48.761676442884955,67.75787006712224,103.3242540596107,50.47799301037696,62.70407481946946,95.6177009519577,46.71303639450073,2992.6679710452113,403.0,327.0,0.13
48.745017582033945,67.69800099140522,103.54981229171254,50.026886334610985,62.64867114459873,95.82643567528726,46.29557600619793,2980.329830691707,403.0,327.0,0.13
48.73668733826693,67.56990840841765,103.2407195325129,50.16054745103007,62.530132487767936,95.5403969394207,46.41926786127091,2968.82732070685,403.0,327.0,0.13
49.15316861964037,67.34853255821248,103.79206959848375,49.550717995590645,62.325268198782204,96.05062395443916,45.85492320635319,2969.5619971039564,403.0,327.0,0.13
49.157334554865386,67.80868918840885,103.35767178582489,50.461287410082434,62.7511035407126,95.64862618031502,46.697576799774176,2953.046567156484,403.0,327.0,0.13
49.42388283521367,67.63465131039246,103.65005894472998,50.31091743055624,62.59004646920561,95.91920532145501,46.55842233052254,2952.3200389453054,403.0,327.0,0.13
49.42388283521367,67.76065487764009,103.55816509185979,50.29420856744915,62.70665192183257,95.83416547265053,46.54295971634388,2957.9964578724826,403.0,327.0,0.13
49.40305803913764,67.79755049013954,103.3910895120391,50.66177745330476,62.74079563450218,95.67955140867234,46.883113072657586,2965.1593848028388,403.0,327.0,0.13
49.81953932051108,67.64857427537754,103.6166412185158,49.943348544700626,62.602930974537145,95.88828009309769,46.21826897420883,2985.223152967085,403.0,327.0,0.13
49.807046394885084,67.71401297213023,103.57487069215433,50.20231797739152,62.66348885413407,95.84962506737709,46.457922886991504,2981.070211729788,403.0,327.0,0.13
49.83619980804511,67.76761581633052,103.24907233266016,50.74531524321512,62.7130936712563,95.54812673678398,46.96042010464669,2981.959154688407,403.0,327.0,0.13
49.40305803913764,67.64091618240396,103.42450071262817,49.8932252181919,62.59584406884908,95.71047059812547,46.17188415112496,2994.1613928581983,403.0,327.0,0.13
49.13234545024736,67.684076938816,103.5247473656456,50.14384185073553,62.635785632783204,95.80324024429322,46.403808266544345,2981.218332082154,403.0,327.0,0.13
49.13234545024736,67.61376659101383,103.39944231218637,50.068656860972446,62.57071945958734,95.68728120603562,46.33423103191853,2977.8152837106277,403.0,327.0,0.13
48.74085327349195,67.5469360328043,103.57487069215433,49.684379112009736,62.50887353205085,95.84962506737709,45.97861506142617,3000.600127599792,403.0,327.0,0.13
49.15316861964037,67.86368443786805,103.60828841836852,50.64506859019767,62.80199690901636,95.88055029573441,46.86765045847893,2997.601926033445,403.0,327.0,0.13
49.15316861964037,67.66597784565832,103.66676454502452,49.85981075479028,62.619036480391024,95.93466491618157,46.14096194221974,2975.8952560006664,403.0,327.0,0.13
48.71586416887392,67.69521590898631,103.54981229171254,50.210670777538795,62.6460937906146,95.82643567528726,46.46565268435479,2991.4743058027343,403.0,327.0,0.13
48.745017582033945,67.5664272593198,103.75029907212232,49.58413572180484,62.526910984003536,96.01196892871857,45.8858484347105,3008.121936803642,403.0,327.0,0.13
49.18232365948342,67.65901581936369,103.49133616505652,49.801334628134285,62.61259372448324,95.77232105484009,46.08684732177258,3005.7108582048613,403.0,327.0,0.13
49.14484000255637,67.70983657205659,103.37437738611943,50.653424653157494,62.65962395545244,95.66408577504158,46.875383275294304,3001.5007579532485,403.0,327.0,0.13
48.745017582033945,67.58383164530375,103.54981229171254,49.985119071062094,62.54301724472045,95.82643567528726,46.256923999929434,2986.857833108594,403.0,327.0,0.13
49.14484000255637,67.6618003579805,103.3910895120391,50.28585576730189,62.61517057522534,95.67955140867234,46.535229918980605,2999.400127548762,403.0,327.0,0.13
49.415552591446655,67.49890145013448,103.92573397771541,49.650964648608095,62.46442166154981,96.17431882896423,45.947692852520944,3011.897000727144,403.0,327.0,0.13
49.41138828290466,67.67850813348342,103.38273671189182,49.82639629138863,62.63063218291998,95.67182161130906,46.110039733314515,3017.0463192781936,403.0,327.0,0.13
49.14067569401438,67.64439760340284,103.22401393221834,50.16890351398989,62.599065824234486,95.52493734469414,46.42700067808628,3011.141230125737,403.0,327.0,0.13
49.42804714375567,67.4828902851126,103.7837167983365,49.55907405855047,62.449604706877466,96.04289415707589,45.86265602316857,3030.30303795381,403.0,327.0,0.13
49.40722397436266,67.60262843654664,103.62499401866306,49.46718020568029,62.56041205661894,95.89600989046097,45.77761617436409,3033.82718063839,403.0,327.0,0.13
49.14484000255637,67.6325622946525,103.14047287949546,50.068656860972446,62.588113265001766,95.44762729325295,46.33423103191853,3012.3506452196725,403.0,327.0,0.13
49.157334554865386,67.59566613835095,103.92573397771541,49.90158128115173,62.55396904909015,96.17431882896423,46.17961696794033,3010.234805914381,403.0,327.0,0.13
48.77833530373597,67.7404656811383,103.40779511233363,50.42786968386823,62.687968558752544,95.6950110033989,46.66665157141686,3007.8203404594665,403.0,327.0,0.13
49.16149886340738,67.59149082588152,103.36602458597216,49.834749091535905,62.550105156892556,95.6563559776783,46.1177695306778,3019.323679120644,403.0,327.0,0.13
49.42804714375567,67.62211830355693,103.60828841836852,49.72614963837119,62.5784482504666,95.88055029573441,46.01727008714676,3024.0411345942966,403.0,327.0,0.13
49.43637738752269,67.60750063139812,103.5832234923016,49.88487241804463,62.564920853459824,95.85735486474037,46.164154353761674,3016.59125950153,403.0,327.0,0.13
49.24479479434547,67.63952432094713,103.7001822712387,49.96005740780772,62.59455602090954,95.96559014453888,46.23373158838749,3020.539677380459,403.0,327.0,0.13
49.14900431109837,67.80660044456995,103.31590125946343,50.67848631641186,62.749170588129765,95.60997115459442,46.898575686836246,3016.742930840436,403.0,327.0,0.13
49.440541696064685,67.48219367463156,103.55816509185979,49.62590298535374,62.44896005385518,95.83416547265053,45.92450044097901,2996.254689212756,403.0,327.0,0.13
49.41138828290466,67.56225058734515,103.83384012484524,49.60084132209938,62.5230458337009,96.08927898015976,45.90130802943707,3018.7160470660815,403.0,327.0,0.13
49.43637738752269,67.74882011269185,103.4412128385478,49.9517013448479,62.695699865841874,95.72593623175621,46.225998771572115,3029.538003104541,403.0,327.0,0.13
49.16566317194938,67.50795113266382,103.4996889652038,49.776272964879915,62.47279636355638,95.78005085220337,46.06365491023064,3029.690979170139,403.0,327.0,0.13
49.16566317194938,67.60262816464558,103.28249005887437,50.25244130390025,62.56041180499792,95.5790519651413,46.50430771007538,3006.012031637547,403.0,327.0,0.13
48.77417099519398,67.56294719782618,103.12376727920093,49.84310189168317,62.52369048672319,95.43216769852638,46.12549932804108,3014.3180181605344,403.0,327.0,0.13
48.74918189057594,67.50516686594807,103.60828841836852,49.684379112009736,62.47021976443529,95.88055029573441,45.97861506142617,3024.6509125112384,403.0,327.0,0.13
48.470139057918644,67.73489633200364,103.35767178582489,50.60330132664877,62.68281460564733,95.64862618031502,46.82899845221043,3007.368059319605,403.0,327.0,0.13
48.72419278595792,67.62281600164212,103.27413725872711,50.026886334610985,62.579093909972904,95.57132216777802,46.29557600619793,3014.9238807841534,403.0,327.0,0.13
48.745017582033945,67.60680483662024,103.3910895120391,49.72614963837119,62.56427695530056,95.67955140867234,46.01727008714676,3023.4316024935974,403.0,327.0,0.13
48.74085327349195,67.63465212609559,103.34931898567761,50.35268469410514,62.590047224068634,95.64089638295174,46.59707433679104,3016.8946174318903,403.0,327.0,0.13
49.14900431109837,67.60262789274454,103.6166412185158,49.85981075479028,62.560411553376916,95.88828009309769,46.14096194221974,3006.7652293402875,403.0,327.0,0.13
49.14067569401438,67.57060529079975,103.45791843884234,50.14384185073553,62.530777392411245,95.74139582648277,46.403808266544345,3008.121936803642,403.0,327.0,0.13
49.19065227656741,67.63604317184931,103.3910895120391,49.918286881446264,62.59133451714516,95.67955140867234,46.1950765626669,2995.207675293802,403.0,327.0,0.13
49.16149886340738,67.57547802945336,103.69182294546633,50.07700966111971,62.53528669249416,95.95785430827141,46.34196082928181,2975.8952560006664,403.0,327.0,0.13
49.173993415716396,67.66945736334989,103.2407195325129,50.61165412679604,62.62225647442938,95.5403969394207,46.83672824957371,3005.40974511548,403.0,327.0,0.13
49.40722397436266,67.68825497029589,103.24907233266016,50.026886334610985,62.639652041190864,95.54812673678398,46.29557600619793,2994.0119836070576,403.0,327.0,0.13
49.807046394885084,67.40770502344847,103.5247473656456,49.834749091535905,62.38002722063066,95.80324024429322,46.1177695306778,3003.6043327736,403.0,327.0,0.13
49.83203387282009,67.774577026922,103.53310016579287,50.05194799786535,62.719535672301056,95.8109700416565,46.31876841773987,3009.7817984191342,403.0,327.0,0.13
49.390563486828626,67.56364272070303,103.33261338538307,49.851457954642996,62.52433413326145,95.62543678822517,46.13323214485646,3007.066614117448,403.0,327.0,0.13
49.448871939831704,67.76343914435584,103.10705515328125,50.31091743055624,62.709228520953666,95.41670206489563,46.55842233052254,3003.6043327736,403.0,327.0,0.13
49.40722397436266,67.44808232884785,103.43286003840055,49.909934081299,62.417392940306655,95.71820643439294,46.187346765303616,3004.2058958284315,403.0,327.0,0.13
49.42804714375567,67.6221204787653,103.34096618553035,49.97676300810226,62.578450263434654,95.63316658558846,46.24919118311406,3004.6572262749983,403.0,327.0,0.13
49.13650975878936,67.5434546118054,103.86725785105942,50.24408524094042,62.505651776665445,96.12020420851708,46.496574893260004,3000.30003757803,403.0,327.0,0.13
49.16149886340738,67.68407829832123,103.36602458597216,50.17725631413715,62.63578689088823,95.6563559776783,46.43473047544956,3008.574444741786,403.0,327.0,0.13
49.14067569401438,67.65901609126476,103.2991956591689,50.55317800014005,62.61259397610427,95.59451155986787,46.78261362912655,2999.400127548762,403.0,327.0,0.13
49.16566317194938,67.71818882840178,103.35767178582489,50.24408524094042,62.667353249573715,95.64862618031502,46.496574893260004,2980.0337812399644,403.0,327.0,0.13
49.432211452297665,67.58452744008164,103.74194627197505,49.676026311862465,62.543661142879735,96.00423913135529,45.970885264062886,2983.293563618011,403.0,327.0,0.13
49.827869564278096,67.65623073694482,103.69182294546633,49.99347187120935,62.610016370499146,95.95785430827141,46.26465379729271,3000.900277657569,403.0,327.0,0.13
49.42388283521367,67.699392580961,103.71688787153325,50.118780187481164,62.64995894091725,95.98104973926544,46.380615855002404,3008.7253109761027,403.0,327.0,0.13
49.42804714375567,67.56225167494932,103.50804176535107,49.550717995590645,62.523046840184925,95.78778064956666,45.85492320635319,3018.1086595314605,403.0,327.0,0.13
49.41971689998866,67.72097363891963,103.51639456549833,50.14384185073553,62.669930351936834,95.79551044692994,46.403808266544345,2994.7591790110027,403.0,327.0,0.13
49.14067569401438,67.42580601991345,103.50804176535107,49.22491963609648,62.39677813436986,95.78778064956666,45.55342487576008,3002.251696346532,403.0,327.0,0.13
48.76584075142696,67.74464289691508,103.50804176535107,50.23573244079315,62.691834212297216,95.78778064956666,46.48884509589672,3012.048200375775,403.0,327.0,0.13
48.74918189057594,67.5754777575523,103.8171345245507,49.66767351171519,62.53528644087316,96.0738193854332,45.963155466699604,3007.8203404594665,403.0,327.0,0.13
49.18648796802542,67.81008132176673,103.02352062618347,50.07700966111971,62.75239184027314,95.33939805235863,46.34196082928181,2998.2010869221185,403.0,327.0,0.13
49.390563486828626,67.53788526267077,103.75865839789469,49.65932071156792,62.500497823560245,96.01970476498605,45.95542566933632,3013.107023124865,403.0,327.0,0.13
49.432211452297665,67.7648312777137,103.2991956591689,50.19396517724426,62.71051682051419,95.59451155986787,46.45019308962822,3018.1086595314605,403.0,327.0,0.13
49.43637738752269,67.4724468378191,103.76701119804196,49.65932071156792,62.43994019558431,96.02743456234933,45.95542566933632,3004.2058958284315,403.0,327.0,0.13
49.42804714375567,67.77736156553881,103.27413725872711,50.269146904194784,62.722112523043165,95.57132216777802,46.519767304801945,2994.460256100486,403.0,327.0,0.13
49.465530800682714,67.56503566976403,103.66676454502452,49.985119071062094,62.52562318768501,95.93466491618157,46.256923999929434,2994.6097100960988,403.0,327.0,0.13
49.448871939831704,67.56503648546716,103.36602458597216,49.96841020795499,62.52562394254803,95.6563559776783,46.241461385750775,3016.2879625721616,403.0,327.0,0.13
49.42388283521367,67.68407721071702,103.53310016579287,50.01018073431645,62.635785884404186,95.8109700416565,46.28011641147137,3009.932785767304,403.0,327.0,0.13
49.40722397436266,67.44668965168789,103.5832234923016,49.63425904831356,62.4161041375041,95.85735486474037,45.93223325779438,2990.281592398975,403.0,327.0,0.13
49.16566317194938,67.75717318474014,103.29084285902164,49.909934081299,62.70342991482616,95.58678176250459,46.187346765303616,2998.051274246012,403.0,327.0,0.13
48.75751213434297,67.47940886411371,103.38273671189182,49.65932071156792,62.44638295149206,95.67182161130906,45.95542566933632,3005.7108582048613,403.0,327.0,0.13
49.1781577242584,67.62420813500002,103.02352062618347,50.001824671356616,62.58038220953345,95.33939805235863,46.27238359465599,3015.9847266253864,403.0,327.0,0.13
49.13234545024736,67.40422387435062,103.8171345245507,49.79297856517445,62.37680571686625,96.0738193854332,46.079114504957204,3003.1533185587587,403.0,327.0,0.13
49.157334554865386,67.6938235037274,103.37437738611943,49.64261184846083,62.644805239433055,95.66408577504158,45.93996305515766,2993.5638453068623,403.0,327.0,0.13
49.14484000255637,67.62629687883891,103.95079237815722,50.16890351398989,62.58231516211628,96.19750822105408,46.42700067808628,2988.940926147526,403.0,327.0,0.13
49.432211452297665,67.75369203564233,103.35767178582489,50.14384185073553,62.70020841106177,95.64862618031502,46.403808266544345,2999.1002774910244,403.0,327.0,0.13
49.41138828290466,67.52048250809311,103.14047287949546,49.90158128115173,62.48439307256938,95.44762729325295,46.17961696794033,2997.1527124973995,403.0,327.0,0.13
49.827869564278096,67.6499653211312,103.4996889652038,50.44457854697532,62.604218267613646,95.78005085220337,46.682114185595516,2973.2408400141444,403.0,327.0,0.13
49.807046394885084,67.65205406497012,103.80042239863103,50.64506859019767,62.60615122019647,96.05835375180244,46.86765045847893,2967.212311531845,403.0,327.0,0.13
49.44470600460668,67.7042661353178,103.85889852528705,50.43622574682805,62.65446899586322,96.11246837224961,46.674384388232234,2963.401992961201,403.0,327.0,0.13
49.14484000255637,67.78432304803133,103.40779511233363,50.49470187348405,62.72855477570891,95.6950110033989,46.72849900867939,2957.121742310766,403.0,327.0,0.13
49.157334554865386,67.60541297516343,103.53310016579287,49.851457954642996,62.56298890736104,95.8109700416565,46.13323214485646,2961.3543335218124,403.0,327.0,0.13
49.16982910717441,67.80729596744679,103.28249005887437,50.42786968386823,62.74981423466803,95.5790519651413,46.66665157141686,2969.41503273708,403.0,327.0,0.13
49.124015206480344,67.57686907520706,103.79206959848375,50.32762303085077,62.536573985570676,96.05062395443916,46.573881925249104,2981.810960713917,403.0,327.0,0.13
49.14484000255637,67.68895022127167,103.34931898567761,49.8932252181919,62.6402954361081,95.64089638295174,46.17188415112496,2996.853311597095,403.0,327.0,0.13
49.16566317194938,67.47592825881799,103.67511734517178,49.75956410177282,62.4431619509697,95.94239471354484,46.04819229605198,3003.1533185587587,403.0,327.0,0.13
49.18232365948342,67.87412734135945,103.3910895120391,50.32762303085077,62.81166091706752,95.67955140867234,46.573881925249104,3005.40974511548,403.0,327.0,0.13
49.16566317194938,67.6179438067906,103.25742513280744,50.10207132437407,62.574585113131995,95.55585653414727,46.36515324082375,2989.089829695882,403.0,327.0,0.13
49.41971689998866,67.58313585052585,103.1321200793482,50.28585576730189,62.542373346561185,95.43989749588967,46.535229918980605,2987.4527062081975,403.0,327.0,0.13
49.23230024203645,67.50586293262702,104.10951515783067,50.018533534463714,62.47086391421558,96.344392487669,46.28784620883465,3007.6695649649323,403.0,327.0,0.13
49.19065227656741,67.71958177746279,103.42450071262817,49.97676300810226,62.668642303997274,95.71047059812547,46.24919118311406,3000.4500750855345,403.0,327.0,0.13
49.44470600460668,67.65692843503003,103.65841174487726,50.32762303085077,62.61066203000545,95.92693511881829,46.573881925249104,3001.65091557784,403.0,327.0,0.13
49.440541696064685,67.57617545563751,103.09870235313397,49.96005740780772,62.535932100379455,95.40897226753235,46.23373158838749,3002.251696346532,403.0,327.0,0.13
49.16982910717441,67.56781966457874,103.41614791248091,50.20231797739152,62.5281995351851,95.70274080076219,46.457922886991504,2984.1838332580046,403.0,327.0,0.13
49.13650975878936,67.48567427992732,104.11786795797795,49.69273517496955,62.45218105437757,96.35212228503228,45.98634787824154,2981.6627814682424,403.0,327.0,0.13
49.157334554865386,67.79058927954806,103.2991956591689,50.07700966111971,62.73435363345743,95.59451155986787,46.34196082928181,3001.65091557784,403.0,327.0,0.13
48.728358721182936,67.50864719934276,103.69182294546633,50.068656860972446,62.47344051333666,95.95785430827141,46.33423103191853,2997.9014765406932,403.0,327.0,0.13
49.1781577242584,67.7989423515964,103.35767178582489,50.43622574682805,62.74208368244172,95.64862618031502,46.674384388232234,3000.7501951230524,403.0,327.0,0.13
49.40722397436266,67.56294719782616,103.65005894472998,49.8932252181919,62.523690486723176,95.91920532145501,46.17188415112496,3020.539677380459,403.0,327.0,0.13
49.40722397436266,67.70426722292196,103.26577793295472,50.16054745103007,62.65447000234724,95.56358633151055,46.41926786127091,3005.259211193861,403.0,327.0,0.13
49.38639917828663,67.56224977164199,104.05939183132192,49.97676300810226,62.52304507883786,96.29800766458511,46.24919118311406,2982.403825006732,403.0,327.0,0.13
49.42388283521367,67.81495324471722,102.88150344680457,50.73696244306785,62.75690038549305,95.20797338047028,46.952690307283405,2997.601926033445,403.0,327.0,0.13
49.415552591446655,67.4745361254601,103.4662712389896,50.26079410404752,62.44187365140916,95.74912562384606,46.51203750743866,3002.251696346532,403.0,327.0,0.13
49.42388283521367,67.56225085924619,103.43286003840055,50.38610242031933,62.52304608532191,95.71820643439294,46.62799956514836,2985.3716863113464,403.0,327.0,0.13
49.38639917828663,67.60889303665708,103.66676454502452,50.31091743055624,62.5662094046414,95.93466491618157,46.55842233052254,2976.042862530898,403.0,327.0,0.13
49.40305803913764,67.53927929933594,103.66676454502452,49.78462576502718,62.50178788446784,95.93466491618157,46.07138470759392,2995.8058793431915,403.0,327.0,0.13
49.43637738752269,67.65135881399432,103.7001822712387,50.29420856744915,62.60550782527923,95.96559014453888,46.54295971634388,2995.207675293802,403.0,327.0,0.13
49.18232365948342,67.66040849652367,103.64169961895759,50.30256463040897,62.61388252728582,95.91146948518754,46.55069253315926,2962.0853155354184,403.0,327.0,0.13
49.173993415716396,67.62977748413465,103.04857902662528,49.943348544700626,62.585536162638654,95.36258744444848,46.21826897420883,2966.332137810127,403.0,327.0,0.13
49.390563486828626,67.5782622961691,103.4412128385478,49.909934081299,62.53786329161525,95.72593623175621,46.187346765303616,2985.520234437251,403.0,327.0,0.13
49.41971689998866,67.54832870996427,103.54981229171254,49.851457954642996,62.51016233485341,95.82643567528726,46.13323214485646,2984.035418087504,403.0,327.0,0.13
49.42804714375567,67.6959122475663,103.4662712389896,49.9266429444061,62.64673819201588,95.74912562384606,46.202809379482275,2992.6679710452113,403.0,327.0,0.13
49.440541696064685,67.77805817601983,103.03187342633075,50.16054745103007,62.72275717606544,95.34712784972191,46.41926786127091,2989.8345700361488,403.0,327.0,0.13
48.74085327349195,67.31581334578667,103.40779511233363,49.43376574227866,62.29498938479424,95.6950110033989,45.746693965458874,3005.560294118391,403.0,327.0,0.13
49.16149886340738,67.72584664947428,103.11541447905365,50.29420856744915,62.67443990364074,95.4244379011631,46.54295971634388,3015.378437606063,403.0,327.0,0.13
48.78250123896099,67.51909010283417,104.08445675738886,49.96005740780772,62.483104521387816,96.32120309557915,46.23373158838749,3010.8390280753433,403.0,327.0,0.13
49.16566317194938,67.72514949519116,103.09034955298671,50.344331893957886,62.67379474737644,95.40124247016907,46.58934453942776,2997.3024353824276,403.0,327.0,0.13
49.15316861964037,67.51769769757524,103.89231625150123,49.90158128115173,62.48181597020627,96.14339360060693,46.17961696794033,3000.900277657569,403.0,327.0,0.13
49.42388283521367,67.60541188755924,103.16553780556238,49.63425904831356,62.562987900877005,95.47082272424699,45.93223325779438,3009.932785767304,403.0,327.0,0.13
49.41138828290466,67.4891551571241,103.59993561822125,49.66767351171519,62.455402306520945,95.87282049837113,45.963155466699604,2993.7132098336215,403.0,327.0,0.13
49.40305803913764,67.53997427841072,103.77536399818923,49.96005740780772,62.50243102776409,96.03516435971261,46.23373158838749,2978.4065600141694,403.0,327.0,0.13
