air_wt_real_ug,air_wt_SMAP_ug,air_wt_PreMAP_ug,air_wt_PostMAP_ug,SMAP,PreMAP,PostMAP,RPM,CHT_K,MAT_K,TPS
39.91880404748875,69.95335314635088,113.35567744962829,46.299844043602405,58.792319525355104,95.26981779828073,38.91271972754002,2921.1295772019243,366.0,312.0,0.09
39.91212594001919,69.77245284919948,114.19273123980476,46.04228986031573,58.640281808877006,95.97331994190216,38.696258226299285,2939.735498075822,366.0,312.0,0.09
39.604955165493145,69.99627884356535,112.81297745633897,46.401024119540175,58.82839644222857,94.81370540370942,38.9977565568924,2973.240907617816,366.0,312.0,0.09
39.87205990332815,69.81537794763729,112.96935156368788,46.41942213001055,58.67635822250844,94.94513007559777,39.01321917107106,2971.768277153419,366.0,312.0,0.09
39.665054220529704,69.89663103700184,113.13492287994208,46.54819742532402,58.74464740919472,95.0842845448494,39.121448411965375,2946.954887805871,366.0,312.0,0.09
39.52816279787742,69.51873143506661,114.33990095292891,43.779499834806515,58.42704155977963,96.09700877752304,36.794495577120784,2976.1905513753736,366.0,312.0,0.09
39.64502120218418,70.56887455600993,113.22690215431481,48.93056553724138,59.309634704166655,95.16158855738641,41.12371050467491,2944.062881046493,366.0,312.0,0.09
39.89543132337687,69.80771330749452,112.91416112493646,46.28144603313202,58.669916473084676,94.89874525251389,38.89725711336136,2954.2098235217886,366.0,312.0,0.09
39.671731023936104,69.59001908512053,113.56724199572861,45.95950420218861,58.486955289596324,95.44762729325295,38.626680991673474,2998.5008253736896,366.0,312.0,0.09
39.371238356879616,70.04380374400907,114.22952007542608,46.401024119540175,58.868338761025676,96.00423913135529,38.9977565568924,3018.108728155308,366.0,312.0,0.09
39.06072918065037,69.96255155280946,113.69601729104207,45.99629663046964,58.80005032920241,95.55585653414727,38.65760320057869,3000.0000757863763,366.0,312.0,0.09
39.09411710987185,69.8107784450197,114.10994198901793,46.33663647188344,58.67249256896377,95.90373968782426,38.94364193644524,2980.6260067425496,366.0,312.0,0.09
39.02066314395933,69.94951977842044,113.76960214760413,46.465411767196905,58.78909776996971,95.6177009519577,39.05187117733956,2997.0030727136627,366.0,312.0,0.09
39.44135392108894,69.94338830581687,113.39247347056904,46.03309265141041,58.78394457172751,95.30074302663803,38.68852842893601,2952.7559801047014,366.0,312.0,0.09
39.39127137522514,69.90659527875921,113.6132352255747,45.92271177390757,58.75302185958028,95.48628231897355,38.59575878276825,2957.121809547931,366.0,312.0,0.09
39.4046262861011,70.14805165196678,113.24530375744492,46.207861176569956,58.9559539508462,95.17705419101715,38.83541269555092,2967.3591254069006,366.0,312.0,0.09
39.63834309471462,69.86213581522895,113.30969140510166,46.207861176569956,58.715655888283244,95.23116881146431,38.83541269555092,2977.667569018736,366.0,312.0,0.09
39.62832658554186,69.75482276974607,113.88918741933175,45.950306993283284,58.62546460258364,95.71820643439294,38.61895119431019,2997.0030727136627,366.0,312.0,0.09
39.57824534374122,70.03460443938557,113.83399698058035,46.143473528913226,58.86060720231534,95.67182161130906,38.78129807510376,2949.8525818941753,366.0,312.0,0.09
39.4046262861011,69.81384597765134,113.6132352255747,45.94110978437796,58.67507067781091,95.48628231897355,38.61122139694691,2949.8525818941753,366.0,312.0,0.09
39.371238356879616,69.78471729134813,113.32808582291231,46.03309265141041,58.65058946346641,95.24662840619088,38.68852842893601,2974.7149983008194,366.0,312.0,0.09
39.621649782135464,70.03000583493288,113.1717117155634,46.71376874157826,58.85674230363369,95.11520373430253,39.260602881217004,2957.121809547931,366.0,312.0,0.09
39.90878753831599,69.6643715733113,113.68682008213675,46.088283090161816,58.54944486367108,95.54812673678398,38.734913252019886,3003.0030788652416,366.0,312.0,0.09
39.91880404748875,69.97021649234053,113.16251450665807,46.31823846141305,58.80649233024718,95.10747393693924,38.92817932226658,2967.3591254069006,366.0,312.0,0.09
39.604955165493145,69.81691171395312,113.29128980197156,46.244653604850996,58.677647276932014,95.21570317783356,38.86633490445614,2971.768277153419,366.0,312.0,0.09
39.604955165493145,69.68890135577352,113.36488184385306,46.345833680788765,58.570060927712916,95.2775536345482,38.95137173380852,3001.5008261994763,366.0,312.0,0.09
39.39127137522514,69.73029358606047,113.56724199572861,45.83992611578047,58.60484904178381,95.44762729325295,38.52618154814244,2986.560553296542,366.0,312.0,0.09
39.6183100763691,69.8138453788747,113.66842566432608,46.45621455829158,58.675070174568894,95.53266714205742,39.044141379976274,2974.7149983008194,366.0,312.0,0.09
39.39127137522514,69.9610192834352,113.19931052759883,46.55739822688909,58.79876253288389,95.13839916529656,39.12918122878075,2941.1765448886044,366.0,312.0,0.09
39.611633272962706,69.83377535933104,113.02454200243928,46.39182691063485,58.69182033344507,94.99151489868164,38.990026759529115,2957.121809547931,366.0,312.0,0.09
39.62832658554186,69.80924527748047,113.15331729775276,46.309041252507726,58.67120401778221,95.09974413957596,38.9204495249033,2932.551393730573,366.0,312.0,0.09
39.60829487125951,70.07982973821467,113.40167067947436,46.95292491439456,58.89861682015063,95.30847282400131,39.46160176827908,2919.708102955111,366.0,312.0,0.09
39.604955165493145,70.50831907873044,112.85897068618503,50.01596911647975,59.258740832620866,94.85236042943001,42.03593831326962,2944.062881046493,366.0,312.0,0.09
39.87873801079771,69.494970182398,113.29128980197156,46.22625559438062,58.40707140686513,95.21570317783356,38.850872290277486,2931.118784354056,366.0,312.0,0.09
40.24600653629715,70.00087744801799,113.2360993632201,46.64938109392152,58.8322613409102,95.16931835474968,39.206488260769845,2945.5081745570706,366.0,312.0,0.09
40.04901736267147,69.64750882609827,113.15331729775276,46.824149619081076,58.535272562021014,95.09974413957596,39.353372527384764,2936.8576365994873,366.0,312.0,0.09
39.621649782135464,70.1258220698958,113.57643920463394,46.26305161532137,58.93727109100819,95.45535709061623,38.8817975186348,2946.954887805871,366.0,312.0,0.09
39.87539830503135,69.67127127632014,114.01796271464524,45.104059586861204,58.55524372141957,95.82643567528726,37.90772227277756,2968.82738821017,366.0,312.0,0.09
39.98224020016534,70.01620822524505,113.96277227589381,46.520602205948315,58.84514609786274,95.78005085220337,39.09825600042343,2935.420817794889,366.0,312.0,0.09
39.60829487125951,69.9548869126667,113.56724199572861,46.15267073781855,58.79360857977867,95.44762729325295,38.789027872467045,2919.708102955111,366.0,312.0,0.09
39.32449551678218,69.88513243015201,113.53044597478782,46.198660375004906,58.73498340114356,95.41670206489563,38.827679878735545,2939.735498075822,366.0,312.0,0.09
39.43801551938574,69.99091320626061,113.27289538416089,46.410224921105225,58.823886890524626,95.200243583107,39.005489373707775,2942.6190051852636,366.0,312.0,0.09
39.6183100763691,69.93725623443669,113.29128980197156,46.49300698657262,58.778790870243306,95.21570317783356,39.0750635888815,2931.118784354056,366.0,312.0,0.09
40.15251955203911,69.78241709095686,113.86158860729633,46.03309265141041,58.648656259262566,95.6950110033989,38.68852842893601,2945.5081745570706,366.0,312.0,0.09
40.132487837756756,69.94798720965784,113.65922845542075,46.18946316609958,58.787809722030154,95.52493734469414,38.81995008137226,2945.5081745570706,366.0,312.0,0.09
40.155859257805474,70.04840234846174,112.96935156368788,47.64279821346773,58.87220365970732,94.94513007559777,40.04140601792336,2980.6260067425496,366.0,312.0,0.09
39.958868780116624,69.85217187285987,113.18090892446872,46.12507551844284,58.70728168951869,95.12293353166581,38.7658354609251,2945.5081745570706,366.0,312.0,0.09
39.915464341722384,69.96101838527025,113.24530375744492,46.70457153267293,58.79876177802086,95.17705419101715,39.25287308385372,2932.551393730573,366.0,312.0,0.09
39.915464341722384,70.03537117284931,113.07053523228537,46.58498985360505,58.8612516037166,95.03016992440224,39.15237062087059,2939.735498075822,366.0,312.0,0.09
39.611633272962706,69.73336051991548,113.15331729775276,45.97790221265899,58.607426647388934,95.09974413957596,38.64214360585213,2979.146053412489,366.0,312.0,0.09
39.60161676378994,69.85677077670086,113.79720095963955,46.198660375004906,58.711146839821346,95.64089638295174,38.827679878735545,2971.768277153419,366.0,312.0,0.09
39.598278362086745,69.94875334434495,113.27289538416089,46.35503448235381,58.788453620189415,95.200243583107,38.9591045506239,2973.240907617816,366.0,312.0,0.09
39.611633272962706,69.94568760804323,113.21770494540948,46.26305161532137,58.78587702106835,95.15385876002313,38.8817975186348,2949.8525818941753,366.0,312.0,0.09
39.604955165493145,69.65977266947031,113.46605832713112,45.950306993283284,58.54557971336842,95.36258744444848,38.61895119431019,2995.506815563032,366.0,312.0,0.09
39.63166629130823,69.83607436216907,113.1441200888474,46.09748029906715,58.69375253116488,95.09201434221268,38.74264304938317,2985.0747022750015,366.0,312.0,0.09
39.60829487125951,69.87669926021564,112.8957667071258,46.28144603313202,58.727895740592494,94.88328565778733,38.89725711336136,2986.560553296542,366.0,312.0,0.09
39.9388357617711,69.62527894463899,113.32808582291231,45.57317472358847,58.51658945056201,95.24662840619088,38.30199024953843,3018.108728155308,366.0,312.0,0.09
39.92882055666151,69.92959159429395,112.90496391603114,46.38262970172952,58.77234912081957,94.89101545515061,38.98229696216583,3001.5008261994763,366.0,312.0,0.09
39.91212594001919,69.68660235293552,113.53044597478782,45.92271177390757,58.56812872999313,95.41670206489563,38.59575878276825,3018.108728155308,366.0,312.0,0.09
39.64502120218418,70.07139836460814,113.81559537745022,46.410224921105225,58.89153066932559,95.6563559776783,39.005489373707775,2970.2971047389865,366.0,312.0,0.09
39.604955165493145,69.90506091366677,113.81559537745022,45.95950420218861,58.75173230191469,95.6563559776783,38.626680991673474,2976.1905513753736,366.0,312.0,0.09
39.62498818383867,69.92345922352546,113.46605832713112,46.33663647188344,58.767195167714355,95.36258744444848,38.94364193644524,2997.0030727136627,366.0,312.0,0.09
39.604955165493145,69.8728670898384,113.37407905275839,45.729545238277645,58.7246749916911,95.28528343191147,38.43341190197468,2992.518778839278,366.0,312.0,0.09
39.6149716746659,69.95641978081757,113.88918741933175,46.36423169125915,58.79489687933921,95.71820643439294,38.96683434798718,3007.5188729687984,366.0,312.0,0.09
39.60161676378994,69.89586340537312,112.52782805367659,45.96870500375367,58.74400225293039,94.57405149092675,38.63441380848885,3000.0000757863763,366.0,312.0,0.09
39.60161676378994,69.3684920935927,115.17694755778594,43.1632113922954,58.30077285396458,96.8005048822403,36.27653574528694,2992.518778839278,366.0,312.0,0.09
39.635004693011425,70.66009068957862,113.5212487658825,46.06988507969143,59.38629733475447,95.40897226753235,38.71945063784123,2971.768277153419,366.0,312.0,0.09
39.32449551678218,69.61148133495114,113.6132352255747,46.16186794672388,58.50499324479103,95.48628231897355,38.79675766983033,3000.0000757863763,366.0,312.0,0.09
39.47140344860722,69.79698173349679,113.35567744962829,46.02389184984535,58.66089711805583,95.26981779828073,38.68079561212063,2960.0395419697843,366.0,312.0,0.09
39.5648891288021,69.5930842226457,114.76302285981008,46.36423169125915,58.4895313854754,96.45262172856332,38.96683434798718,3010.5369551293293,366.0,312.0,0.09
39.60161676378994,70.07369766683449,113.21770494540948,46.35503448235381,58.893463118666425,95.15385876002313,38.9591045506239,2992.518778839278,366.0,312.0,0.09
39.598278362086745,69.59231898612347,114.39509139168032,45.92271177390757,58.48888824217915,96.14339360060693,38.59575878276825,2976.1905513753736,366.0,312.0,0.09
39.62498818383867,70.08519567490768,113.32808582291231,46.207861176569956,58.90312662347554,95.24662840619088,38.83541269555092,2988.047884249379,366.0,312.0,0.09
39.59493865632038,69.80387993956408,113.18090892446872,46.38262970172952,58.66669471769929,95.12293353166581,38.98229696216583,3015.0754530516347,366.0,312.0,0.09
39.60161676378994,69.72109458082528,113.05213362915525,45.95950420218861,58.5971177346945,95.01470429077149,38.626680991673474,3007.5188729687984,366.0,312.0,0.09
39.37791646434918,69.76861948126898,113.43846670041513,46.244653604850996,58.63706005349159,95.33939805235863,38.86633490445614,3003.0030788652416,366.0,312.0,0.09
39.401287884397895,69.9403225695151,113.77880654182891,46.32743926297811,58.78136797260644,95.62543678822517,38.93591213908196,2949.8525818941753,366.0,312.0,0.09
39.401287884397895,69.82610952163506,113.35567744962829,46.29064324203736,58.68537757753731,95.26981779828073,38.904986910724645,2976.1905513753736,366.0,312.0,0.09
39.35788344600366,69.97251519579022,113.13492287994208,46.41942213001055,58.80842427634597,95.0842845448494,39.01321917107106,2952.7559801047014,366.0,312.0,0.09
39.4046262861011,70.02080832663927,113.30969140510166,46.59419065517011,58.8490122546494,95.23116881146431,39.16010343768597,2919.708102955111,366.0,312.0,0.09
39.591600254617184,70.05836718899572,112.84977347727971,46.79655439970537,58.88057861333488,94.84463063206672,39.33018011584282,2932.551393730573,366.0,312.0,0.09
39.92548085089515,69.81154517848346,113.32808582291231,46.38262970172952,58.67313697036506,95.24662840619088,38.98229696216583,2964.4269523580797,366.0,312.0,0.09
39.92214244919195,70.07446440029821,113.74201052088817,46.051487069221054,58.89410752006768,95.59451155986787,38.70398802366257,2968.82738821017,366.0,312.0,0.09
40.14250434692952,70.18331181087353,113.36488184385306,46.299844043602405,58.98558836343289,95.2775536345482,38.91271972754002,2911.2082249261293,366.0,312.0,0.09
40.14918115033591,69.97941430002246,113.4108678883797,46.39182691063485,58.81422263085247,95.3162026213646,38.990026759529115,2941.1765448886044,366.0,312.0,0.09
39.611633272962706,69.89126360336724,113.50285434807185,46.17106515562921,58.74013634776474,95.39351267280578,38.8044874671936,2957.121809547931,366.0,312.0,0.09
39.4046262861011,69.91732655336868,113.2360993632201,46.26305161532137,58.762040962988145,95.16931835474968,38.8817975186348,2974.7149983008194,366.0,312.0,0.09
39.06740728811994,70.10819109227748,113.65002406119598,46.676976313297224,58.92245312985182,95.51720150842667,39.22968067231179,2964.4269523580797,366.0,312.0,0.09
39.06072918065037,69.96331828627319,113.79720095963955,45.950306993283284,58.80069473060368,95.64089638295174,38.61895119431019,2968.82738821017,366.0,312.0,0.09
39.4046262861011,70.01697495870879,113.44766390932047,46.106677507972464,58.845790499264005,95.34712784972191,38.750372846746444,2976.1905513753736,366.0,312.0,0.09
39.38125486605238,69.79391659597162,113.75120772979349,46.09748029906715,58.65832102217675,95.60224135723115,38.74264304938317,2985.0747022750015,366.0,312.0,0.09
39.401287884397895,69.79468213188213,113.28209259306624,45.913514565002245,58.65896441709399,95.20797338047028,38.58802898540497,3015.0754530516347,366.0,312.0,0.09
39.3946110809915,69.86750205131031,113.83399698058035,46.106677507972464,58.720165943229205,95.67182161130906,38.750372846746444,3006.0120999863493,366.0,312.0,0.09
39.05405237724398,70.0085438844906,113.09812685900135,46.345833680788765,58.83870460005999,95.05335931649209,38.95137173380852,2951.3035669319984,366.0,312.0,0.09
38.84036858697597,69.6873675894577,112.8221746652443,45.950306993283284,58.56877187328934,94.8214352010727,38.61895119431019,3003.0030788652416,366.0,312.0,0.09
38.87375651619746,69.30410414654764,113.96277227589381,45.729545238277645,58.2466579818964,95.78005085220337,38.43341190197468,3022.670101547986,366.0,312.0,0.09
39.05739077894717,70.49375473557882,113.05213362915525,48.13950856957071,59.246500225448614,95.01470429077149,40.458866406226164,3004.506836040437,366.0,312.0,0.09
39.003969831380175,69.92115872374589,113.36488184385306,45.98709942156432,58.76526171188951,95.2775536345482,38.64987340321541,2976.1905513753736,366.0,312.0,0.09
39.16757107578438,69.63447794987418,113.65922845542075,46.09748029906715,58.52432075765133,95.52493734469414,38.74264304938317,2992.518778839278,366.0,312.0,0.09
38.997291723910614,70.15801679188908,116.17956547889722,46.52980300751338,58.964329156094784,97.64315545620919,39.10598881723881,2983.590328977003,366.0,312.0,0.09
39.01398634055293,70.51828421865272,113.39247347056904,46.511404997042995,59.26711603786944,95.30074302663803,39.09052620306015,2985.0747022750015,366.0,312.0,0.09
39.42132090274342,69.06724697656938,114.95619298809973,43.01603808651155,58.04759129255415,96.61497162880897,36.152843890213965,2968.82738821017,366.0,312.0,0.09
39.494774868655945,70.37877525362332,114.22032286652076,46.95292491439456,59.14986568059921,95.99650933399201,39.46160176827908,2957.121809547931,366.0,312.0,0.09
39.43133741191618,69.82994109323566,113.4108678883797,46.42861933891589,58.68859782319665,95.3162026213646,39.02094896843434,3004.506836040437,366.0,312.0,0.09
39.58492214714762,69.80158033794943,112.86816789509035,46.35503448235381,58.664762016737455,94.86009022679329,38.9591045506239,3000.0000757863763,366.0,312.0,0.09
39.66171451476334,69.80847884340508,112.99694319040383,46.09748029906715,58.67055986800196,94.9683194676876,38.74264304938317,2932.551393730573,366.0,312.0,0.09
39.598278362086745,69.75405573689402,112.73939259977688,46.25385081375632,58.624819949561356,94.75186098589897,38.87406470181942,2957.121809547931,366.0,312.0,0.09
39.93215895836471,69.53252994291942,112.8957667071258,45.70195001890194,58.43863852041364,94.88328565778733,38.410219490432745,3007.5188729687984,366.0,312.0,0.09
40.12247132858399,69.71496250944513,113.27289538416089,46.07908228859675,58.5919640332103,95.200243583107,38.72718043520451,2991.0269948019704,366.0,312.0,0.09
40.155859257805474,70.52748202633468,113.22690215431481,46.68617352220255,59.27484633847475,95.16158855738641,39.23741046967507,2904.162706472775,366.0,312.0,0.09
39.91880404748875,69.83300832647897,113.54884757791795,45.83072890687513,58.69117568042278,95.43216769852638,38.51845175077916,2936.8576365994873,366.0,312.0,0.09
39.94217546753747,69.9564197808176,113.66842566432608,46.38262970172952,58.79489687933923,95.53266714205742,38.98229696216583,2974.7149983008194,366.0,312.0,0.09
39.91880404748875,69.98401410202837,113.62243243448002,46.520602205948315,58.818088536018145,95.49401211633683,39.09825600042343,2964.4269523580797,366.0,312.0,0.09
39.885414814204104,70.08442864205564,113.09812685900135,46.64018029235646,58.90248197045327,95.05335931649209,39.19875544395447,2949.8525818941753,366.0,312.0,0.09
39.95553037841343,69.79238193149088,113.56724199572861,46.09748029906715,58.65703121289015,95.44762729325295,38.74264304938317,2965.8923141733826,366.0,312.0,0.09
39.915464341722384,70.09056131221242,113.54884757791795,46.32743926297811,58.90763617517948,95.43216769852638,38.93591213908196,2928.2577606504406,366.0,312.0,0.09
39.91880404748875,69.92499149289975,113.59484080776404,46.16186794672388,58.7684829640329,95.47082272424699,38.79675766983033,2958.5799563968208,366.0,312.0,0.09
39.90878753831599,69.89662983944858,114.11913919792326,46.32743926297811,58.74464640271068,95.91146948518754,38.93591213908196,2964.4269523580797,366.0,312.0,0.09
40.125809730287195,70.06756619423092,113.22690215431481,46.115878309537514,58.88830992042423,95.16158855738641,38.75810566356182,2935.420817794889,366.0,312.0,0.09
39.92214244919195,69.75712147319578,113.54884757791795,46.12507551844284,58.62739654868245,95.43216769852638,38.7658354609251,2976.1905513753736,366.0,312.0,0.09
39.93215895836471,69.8690352188495,113.5212487658825,45.90431376343721,58.72145449441075,95.40897226753235,38.5802961685896,2977.667569018736,366.0,312.0,0.09
39.9388357617711,69.66973840816925,113.16251450665807,46.115878309537514,58.55395542185903,95.10747393693924,38.75810566356182,2989.5366973456667,366.0,312.0,0.09
39.604955165493145,69.80004717041024,113.25450096635024,46.088283090161816,58.66347346555591,95.18478398838043,38.734913252019886,2976.1905513753736,366.0,312.0,0.09
39.6149716746659,69.68966838862558,113.37407905275839,46.07908228859675,58.5707055807352,95.28528343191147,38.72718043520451,2989.5366973456667,366.0,312.0,0.09
39.62832658554186,69.87363352391387,113.10732406790666,46.36423169125915,58.725319141471395,95.06108911385536,38.96683434798718,2988.047884249379,366.0,312.0,0.09
39.611633272962706,69.72416091590365,113.50285434807185,46.088283090161816,58.59969483705758,95.39351267280578,38.734913252019886,2985.0747022750015,366.0,312.0,0.09
39.37457806264598,69.90429447959134,114.1007447801126,48.08431813081929,58.75108815213443,95.89600989046097,40.41248158314228,2957.121809547931,366.0,312.0,0.09
39.39127137522514,70.2316025466161,112.4542431971145,46.36423169125915,59.02617432876826,94.5122070731163,38.96683434798718,2952.7559801047014,366.0,312.0,0.09
39.35120533853409,69.48347097677156,113.19931052759883,45.913514565002245,58.39740689557195,95.13839916529656,38.58802898540497,2992.518778839278,366.0,312.0,0.09
39.39127137522514,69.7831838244206,113.12572567103676,46.29064324203736,58.64930066066384,95.07655474748611,38.904986910724645,2989.5366973456667,366.0,312.0,0.09
39.42132090274342,70.06909816421688,113.00614758462861,48.90297031786567,58.889597465121746,94.97605530395508,41.100518093132976,2988.047884249379,366.0,312.0,0.09
39.3979494826947,69.46047585879005,113.09812685900135,42.620511399006084,58.378080640816684,95.05335931649209,35.82042335071564,2939.735498075822,366.0,312.0,0.09
39.59493865632038,69.86520185091905,113.12572567103676,47.52322012705958,58.71823273902536,95.07655474748611,39.94090657439232,2991.0269948019704,366.0,312.0,0.09
39.49811327035914,69.71419697353461,112.83137905946907,45.83992611578047,58.59132063829304,94.82917103734017,38.52618154814244,3015.0754530516347,366.0,312.0,0.09
40.002273218510865,69.77168611573573,113.37407905275839,46.21705838547528,58.63963740747573,95.28528343191147,38.843142492914204,3024.193624784654,366.0,312.0,0.09
39.905447832549626,69.70423153422396,112.96015435478255,46.235456395945675,58.58294518142343,94.93740027823449,38.85860510709286,3044.140107342848,366.0,312.0,0.09
39.38125486605238,69.73719328906932,113.01534479353396,46.01469464094002,58.61064789953232,94.98378510131836,38.67306581475735,3027.245283336404,366.0,312.0,0.09
39.09745681563822,69.63371151579871,115.756443572016,45.8215316979698,58.523676607871046,97.28754250516891,38.510721953415874,3033.3671140408255,366.0,312.0,0.09
39.06740728811994,70.74287664709404,112.95095714587723,46.17106515562921,59.45587482100129,94.92967048087121,38.8044874671936,2979.146053412489,366.0,312.0,0.09
38.86040160532149,69.44437834809928,112.84977347727971,46.207861176569956,58.3645514824629,94.84463063206672,38.83541269555092,2994.01205168301,366.0,312.0,0.09
39.06072918065037,69.83377535933107,113.72361610307752,45.895116554531874,58.69182033344509,95.5790519651413,38.572566371226316,3009.027157258151,366.0,312.0,0.09
39.08076219899589,70.24463462039344,113.09812685900135,46.54819742532402,59.03712713962198,95.05335931649209,39.121448411965375,2982.1074311991815,366.0,312.0,0.09
39.0740853955895,69.60994936496519,113.09812685900135,46.33663647188344,58.50370570009352,95.05335931649209,38.94364193644524,3012.0482688618235,366.0,312.0,0.09
39.41798250104022,69.62374637587641,113.30049419619634,46.06988507969143,58.51530140262246,95.22343901410103,38.71945063784123,3033.3671140408255,366.0,312.0,0.09
39.407965991867464,69.66513860616335,112.51863084477127,45.92271177390757,58.550089516693355,94.56632169356347,38.59575878276825,3027.245283336404,366.0,312.0,0.09
39.42799901021298,69.75788940421279,113.02454200243928,46.31823846141305,58.62804195656776,94.99151489868164,38.92817932226658,2988.047884249379,366.0,312.0,0.09
39.3979494826947,69.8368410956328,113.43846670041513,46.088283090161816,58.69439693256616,95.33939805235863,38.734913252019886,2992.518778839278,366.0,312.0,0.09
39.90210943084643,69.83377535933103,112.90496391603114,46.106677507972464,58.691820333445065,94.89101545515061,38.750372846746444,3006.0120999863493,366.0,312.0,0.09
39.93215895836471,69.78931649457739,113.95357506698848,46.02389184984535,58.65445486539005,95.77232105484009,38.68079561212063,3022.670101547986,366.0,312.0,0.09
39.892092921673665,70.16951360240908,113.20850773650416,46.75056116985928,58.973991654419905,95.14612896265984,39.29152509012223,2976.1905513753736,366.0,312.0,0.09
39.611633272962706,69.75558950320983,113.1901133186935,46.06988507969143,58.626109003984936,95.13066936793328,38.71945063784123,3009.027157258151,366.0,312.0,0.09
39.36789995517642,69.81307894479926,113.39247347056904,45.98709942156432,58.67442602478861,95.30074302663803,38.64987340321541,2991.0269948019704,366.0,312.0,0.09
39.070745689823134,69.8544705763096,112.9877459814985,45.950306993283284,58.70921363561751,94.96058967032432,38.61895119431019,2980.6260067425496,366.0,312.0,0.09
38.857061899555134,69.72339478121653,113.64082685229064,46.02389184984535,58.59905093889833,95.50947171106338,38.68079561212063,2997.0030727136627,366.0,312.0,0.09
38.84704539038238,70.0713971670549,113.852391398391,46.28144603313202,58.89152966284155,95.68728120603562,38.89725711336136,2961.5005683972126,366.0,312.0,0.09
39.06740728811994,69.86366988093307,112.99694319040383,46.106677507972464,58.71694519432783,94.9683194676876,38.750372846746444,2989.5366973456667,366.0,312.0,0.09
39.064068886416734,69.66360573801246,114.46867624824237,43.9358703494957,58.54880121713281,96.20523801841736,36.92591722955704,2983.590328977003,366.0,312.0,0.09
39.064068886416734,70.36037933887111,113.65922845542075,49.988373897104054,59.13440482776761,95.52493734469414,42.012745901727676,2998.5008253736896,366.0,312.0,0.09
39.064068886416734,69.81767754925194,113.86158860729633,44.754522536542076,58.678290923470264,95.6950110033989,37.61395373954773,2962.963037813705,366.0,312.0,0.09
39.06072918065037,69.83530792809361,114.10994198901793,45.64676317281025,58.69310838138461,95.90373968782426,38.363837686800956,2946.954887805871,366.0,312.0,0.09
38.98727521473785,69.92652525921558,115.96800811811636,45.88591934562655,58.76977201845648,97.46535200014115,38.56483657386303,2944.062881046493,366.0,312.0,0.09
39.09411710987185,70.51981678741532,109.85111692285123,46.36423169125915,59.268404085809,92.32440870752335,38.96683434798718,2971.768277153419,366.0,312.0,0.09
39.42799901021298,68.66098691873626,113.22690215431481,45.90431376343721,57.70614988830089,95.16158855738641,38.5802961685896,2961.5005683972126,366.0,312.0,0.09
39.36789995517642,70.11125802613252,113.54884757791795,47.49562490768388,58.92503073545695,95.43216769852638,39.91771416285038,2944.062881046493,366.0,312.0,0.09
39.6183100763691,69.74869039897762,113.57643920463394,45.92271177390757,58.62031064947845,95.45535709061623,38.59575878276825,2948.4030228858737,366.0,312.0,0.09
39.41798250104022,69.67740424586526,113.19931052759883,45.849126917345515,58.560398177766814,95.13839916529656,38.53391436495781,2926.829342230611,366.0,312.0,0.09
39.6183100763691,69.9081278475218,112.88656949822048,46.575792644699725,58.754309907519826,94.87555586042404,39.14464082350731,2935.420817794889,366.0,312.0,0.09
39.611633272962706,69.65364029870184,113.39247347056904,46.17106515562921,58.54042576026321,95.30074302663803,38.8044874671936,2960.0395419697843,366.0,312.0,0.09
39.94551386924067,69.93955613543967,113.1717117155634,46.65857830282684,58.78072382282616,95.11520373430253,39.21421805813313,2944.062881046493,366.0,312.0,0.09
39.598278362086745,69.69120035861154,113.4108678883797,46.26305161532137,58.57199312543273,95.3162026213646,38.8817975186348,2967.3591254069006,366.0,312.0,0.09
39.60829487125951,69.94492147335606,112.97854877259317,46.566595435794405,58.78523312290906,94.95285987296104,39.13691102614403,2964.4269523580797,366.0,312.0,0.09
39.92882055666151,69.82304318655666,113.46605832713112,45.92271177390757,58.6828004751742,95.36258744444848,38.59575878276825,2971.768277153419,366.0,312.0,0.09
39.9388357617711,69.81767695047532,113.42007228260448,46.04228986031573,58.678290420228244,95.32393845763207,38.696258226299285,2954.2098235217886,366.0,312.0,0.09
39.91212594001919,70.13272147351636,113.54884757791795,46.42861933891589,58.943069697135705,95.43216769852638,39.02094896843434,2957.121809547931,366.0,312.0,0.09
39.905447832549626,69.95258671227543,113.04293642024993,46.27224882422669,58.79167537557482,95.00697449340821,38.88952731599808,2955.6650992969226,366.0,312.0,0.09
40.14250434692952,69.8590703783155,113.63162964338532,46.051487069221054,58.71307954078318,95.5017419137001,38.70398802366257,2970.2971047389865,366.0,312.0,0.09
40.14250434692952,70.08136350453047,113.46605832713112,46.299844043602405,58.899905874574195,95.36258744444848,38.91271972754002,2921.1295772019243,366.0,312.0,0.09
39.94551386924067,69.89586370476145,113.69601729104207,46.38262970172952,58.74400250455142,95.55585653414727,38.98229696216583,2932.551393730573,366.0,312.0,0.09
39.92214244919195,69.79698203288508,113.73281331198284,45.86752133515617,58.66089736967683,95.58678176250459,38.549373959684374,2968.82738821017,366.0,312.0,0.09
39.60161676378994,69.92422565760093,113.5212487658825,46.15267073781855,58.76783931749464,95.40897226753235,38.789027872467045,2952.7559801047014,366.0,312.0,0.09
39.60161676378994,69.89586280659654,113.50285434807185,46.309041252507726,58.7440017496884,95.39351267280578,38.9204495249033,2925.4023167102646,366.0,312.0,0.09
39.598278362086745,69.75022266835185,113.44766390932047,46.17106515562921,58.62159844579696,95.34712784972191,38.8044874671936,2960.0395419697843,366.0,312.0,0.09
39.604955165493145,69.72032904491476,112.99694319040383,46.32743926297811,58.59647433977724,94.9683194676876,38.93591213908196,3009.027157258151,366.0,312.0,0.09
39.6183100763691,69.68736788884601,113.1901133186935,45.95950420218861,58.568772124910346,95.13066936793328,38.626680991673474,2985.0747022750015,366.0,312.0,0.09
39.621649782135464,69.66283960332534,113.71441889417218,46.244653604850996,58.54815731897355,95.57132216777802,38.86633490445614,2983.590328977003,366.0,312.0,0.09
39.3946110809915,70.04533601338335,113.09812685900135,46.45621455829158,58.86962655734421,95.05335931649209,39.044141379976274,2941.1765448886044,366.0,312.0,0.09
39.47474185031042,69.57928721173444,113.24530375744492,45.95950420218861,58.47793568294643,95.17705419101715,38.626680991673474,2977.667569018736,366.0,312.0,0.09
39.38125486605238,69.46737556179892,113.81559537745022,45.232838474834395,58.3838794985652,95.6563559776783,38.015954533123974,2982.1074311991815,366.0,312.0,0.09
39.665054220529704,70.29215802389561,113.08892965009602,46.18946316609958,59.077068200314045,95.04562951912881,38.81995008137226,2976.1905513753736,366.0,312.0,0.09
39.531501199580624,69.85600344446047,113.1717117155634,46.39182691063485,58.71050193517805,95.11520373430253,38.990026759529115,2923.9766820529985,366.0,312.0,0.09
39.65169930965375,69.89203093560762,113.73281331198284,46.87933646517276,58.740781252408034,95.58678176250459,39.399754331016545,2960.0395419697843,366.0,312.0,0.09
39.972224995055754,69.89433023783394,115.46209696044832,46.511404997042995,58.74271370174885,97.04015879502298,39.09052620306015,2995.506815563032,366.0,312.0,0.09
40.155859257805474,69.94492147335606,111.9207404127305,45.3984061984289,58.78523312290907,94.06382447590828,38.15510598292351,2997.0030727136627,366.0,312.0,0.09
40.14250434692952,69.68046878461377,113.87078581620165,46.41942213001055,58.56297377040386,95.70274080076219,39.01321917107106,2952.7559801047014,366.0,312.0,0.09
39.604955165493145,70.08366220798018,112.88656949822048,46.93452690392417,58.901837820672995,94.87555586042404,39.44613915410042,2971.768277153419,366.0,312.0,0.09
39.6149716746659,69.93265673181911,113.21770494540948,46.02389184984535,58.77492521669865,95.15385876002313,38.68079561212063,2964.4269523580797,366.0,312.0,0.09
39.4046262861011,69.66283930393703,113.05213362915525,45.849126917345515,58.54815706735254,95.01470429077149,38.53391436495781,2994.01205168301,366.0,312.0,0.09
39.3946110809915,70.10512505658741,113.26369817525557,46.824149619081076,58.91987627910972,95.19251378574371,39.353372527384764,2992.518778839278,366.0,312.0,0.09
39.41130439357066,69.73949199251904,113.18090892446872,46.49300698657262,58.612579845631124,95.12293353166581,39.0750635888815,3013.561100739705,366.0,312.0,0.09
39.38793297352194,70.3120886031286,112.81297745633897,46.0054974320347,59.093818862432265,94.81370540370942,38.66533601739407,3001.5008261994763,366.0,312.0,0.09
