'SMAP', 'RPM', 'CHT_K', 'MAT_K', 'TPS'
train_repeat10

LR
[ 43.938126  -23.82615   -22.7916  -4.6923995  37.588722 ]
42.54194

ridge
[ 43.8521   -22.241913 -22.513199  -4.979149  36.57999 ]
42.36567

train

LR
[ 55.207336 -22.914988 -13.41908  -14.021437  31.943802]
36.964367

ridge
[ 53.538    -21.761576 -13.694485 -13.674923  32.091656]
37.387688

const    41.797908
SMAP     38.928090
CHT_K   -26.408858
TPS      23.325803

const    32.338073
SMAP     60.588547
MAT_K   -30.616256
TPS      16.111347


12 tooth computation

0.9 multi threshold. removed rpm and mat
const         40.0963    
SMAP          45.3399     
CHT_K        -23.9446      
TPS           16.5821 

smap, rpm, cht
[ 62.859158    -0.23686314 -18.494648  ]
34.03125