air_wt_real_ug,air_wt_SMAP_ug,air_wt_PreMAP_ug,air_wt_PostMAP_ug,SMAP,PreMAP,PostMAP,SMAP_controller,RPM,inj_dwell_ms,t_zero,TPS,MAT_K,CHT_K,wideband_event,filename
36.76881778792967,70.96143349124868,110.62086081356176,45.38848071707142,54.61256521191598,85.13482151856421,34.93138795366288,47.00534439086914,1608.4725651118774,3.139999920676928,60.354588475314806,0.0,286.15,335.15,14.343791961669922,afternoon/12/12 1
36.7938533958531,70.8224779564322,111.36418808221156,45.50902197073703,54.50562376734018,85.70689295139313,35.02415759983063,47.0137825012207,1565.6017092533798,3.139999920676928,60.429208473429746,0.0,286.15,335.15,14.353558540344238,afternoon/12/12 1
38.45828323710565,71.9592399003421,112.16779382441031,46.19208253591209,55.38048610787987,86.32535524621012,35.54984722902775,47.395530700683594,1558.2472598335785,3.259999917645473,60.50590847149215,0.0,286.15,335.15,14.32425832748413,afternoon/12/12 1
39.18785346746786,71.80019350268833,111.90662372370684,46.171991019181796,55.25808255236745,86.12435635914801,35.534384614849095,47.631736755371094,1576.0358090335485,3.299999916634988,60.58300846954444,0.0,286.15,335.15,14.379196643829346,afternoon/12/12 1
39.63727057631978,71.86548668175719,110.0583375786942,45.66974233450517,55.30833277737497,84.70189851608276,35.14784945490361,47.99042510986328,1637.2487416215438,3.3099999163823663,60.65926846761795,0.0,286.15,335.15,14.490293979644775,afternoon/12/12 1
38.33392596720594,71.15898601373014,109.07392780271324,44.866140515664505,54.76460343163611,83.94428779091834,34.52939017953873,47.99042510986328,1669.233391942717,3.1899999194138218,60.73274846576169,0.0,286.15,335.15,14.664875984191895,afternoon/12/12 1
36.65019734821745,70.53619444065538,108.61185038142295,44.825957482203904,54.28529736741782,83.58866880097389,34.49846495118141,47.60658264160156,1689.9546214981979,3.099999921687413,60.804698463944085,0.0,286.15,335.15,14.526919841766356,afternoon/12/12 1
36.638165124323955,70.1511354810041,107.18545862424006,44.8460489989342,53.98895248668791,82.49090471949576,34.51392756536007,46.92518997192383,1690.9996378310173,3.0899999219400343,60.87579846214794,0.0,286.15,335.15,14.580636978149414,afternoon/12/12 1
37.38760215202199,69.93349307652484,107.98906436643878,44.52460827139793,53.821452910894145,83.10936701431275,34.266543855214124,46.92518997192383,1700.4598209659953,3.1799999196664435,60.94679846035433,0.0,286.15,335.15,14.358442306518555,afternoon/12/12 1
36.23629070038878,69.4350127139176,107.54762909786085,44.21187969778363,53.59726236715317,83.01659736814499,34.12738938596249,46.61301803588867,1693.203918849555,3.0899999219400343,61.01744845856957,0.0,286.15,336.15,14.420705795288086,afternoon/12/12 1
36.288442114526454,69.60526952643725,106.74641397217917,42.44921502699442,53.72868452283145,82.39813507332802,32.766778980159756,47.0792236328125,1703.890383251741,3.0899999219400343,61.088348456778476,0.0,286.15,336.15,14.441460132598875,afternoon/12/12 1
35.85606121426907,69.20800156605678,106.56613998214777,43.671061639376106,53.4220312326491,82.25898060407637,33.709928997659695,47.55594253540039,1683.8601832438349,3.059999922697898,61.158868454997,0.0,286.15,336.15,14.443902015686035,afternoon/12/12 1
36.512702938301295,69.4984400606757,108.86962271134449,45.614000300196714,53.64622227963209,84.03705139818193,35.20969387271405,47.71838760375977,1653.0201144379791,3.109999921434792,61.230148453196314,0.0,286.15,336.15,14.41460132598877,afternoon/12/12 1
36.81071437068434,69.88569214743998,108.94974970027395,44.532364183381674,53.945144262725115,84.09890185489654,34.37477309610844,47.71838760375977,1614.6542841801547,3.1199999211821705,61.30278845136127,0.0,286.15,336.15,14.474422931671144,afternoon/12/12 1
37.77752954000081,70.41482632385751,109.57068301255102,44.532364183381674,54.35358579924107,84.57820364155768,34.37477309610844,46.868186950683594,1606.4791698867114,3.1999999191612005,61.37712844948328,0.0,286.15,336.15,14.39628839492798,afternoon/12/12 1
38.26128159172816,70.48326356326704,110.1115049826452,44.59245551339213,54.40641287499072,84.99566704931259,34.42115791919232,47.26481628417969,1591.8987350632574,3.1999999191612005,61.451918447593926,0.0,286.15,336.15,14.580636978149414,afternoon/12/12 1
38.661820404571756,70.76201850186979,111.19314109946022,45.53388113464051,54.62158532180786,85.8305878259182,35.14784945490361,47.61282348632812,1547.8480195155462,3.2299999184033372,61.527338445688656,0.0,286.15,336.15,14.56476593017578,afternoon/12/12 1
38.81897514432881,71.51816089238321,111.3934429250373,47.61703029102778,55.20525572823883,85.98520188989642,36.75584357085229,47.61282348632812,1546.747511506086,3.2399999181507155,61.604898443729326,0.0,286.15,336.15,14.56842851638794,afternoon/12/12 1
38.53702457458965,71.45807021432049,110.33183464376805,46.0346356985833,55.15887140839696,85.16574070801734,35.534384614849095,48.03689956665039,1590.635764190391,3.219999918655958,61.6826284417657,0.0,286.15,336.15,14.573312282562256,afternoon/12/12 1
37.611128065526465,70.85215321506833,108.78950354578829,44.95299958176825,54.69116079508661,83.97520698037148,34.69946383824349,47.7057991027832,1613.3732614055825,3.159999920171685,61.75821843985614,0.0,286.15,336.15,14.557441234588625,afternoon/12/12 1
39.14178109765056,70.43485578927267,108.18859806905695,44.8528486689797,54.36904665207266,83.51136478843691,34.622156806254395,47.1741943359375,1629.1591093757038,3.2899999168876093,61.83266843797537,0.0,286.15,336.15,14.41582202911377,afternoon/12/12 1
37.84854914844317,70.05595091580298,107.04687062223145,44.392153687815025,54.076567928129435,82.63005918874741,34.266543855214124,47.1741943359375,1654.3462367960526,3.1799999196664435,61.90641843611229,0.0,286.15,336.15,14.535465717315676,afternoon/12/12 1
39.05203633029707,69.59859162541204,106.96675145667528,44.41218543504738,53.72352981486321,82.56821477093699,34.28200646939277,45.95268630981445,1661.942997275738,3.2799999171402305,61.979048434277495,0.0,286.15,336.15,14.43657684326172,afternoon/12/12 1
39.05203633029707,69.54017091156648,107.4875377678504,44.292002775026454,53.67843454944492,82.97021254506112,34.18923682322502,46.65314102172852,1644.470894023365,3.2799999171402305,62.05130843245206,0.0,286.15,336.15,14.43657684326172,afternoon/12/12 1
38.72827031051697,69.46004979016696,107.56765693340658,43.931458706650325,53.61658862190843,83.03205696287155,33.91093090417385,46.65314102172852,1645.1924387984916,3.2699999173928522,62.12431843060767,0.0,286.15,336.15,14.37065076828003,afternoon/12/12 1
36.7893358677873,69.90071595786425,107.54762909786085,44.292002775026454,53.956741223359096,83.01659736814499,34.18923682322502,46.07080459594727,1635.0151489949628,3.1899999194138218,62.197338428763025,0.0,286.15,336.15,14.073983669281006,afternoon/12/12 1
35.9103181003061,69.62696863009565,107.98829624347981,44.83282083343397,53.74543417846561,83.35675072445868,34.606697211527816,46.46746063232422,1641.6881068332032,3.1199999211821705,62.270768426908035,0.0,286.15,336.15,14.120376110076904,afternoon/12/12 1
37.107965508207386,69.57856248597075,107.50756560339615,43.3906406482428,53.708069213652614,82.98567213978768,33.49347051587105,46.85142517089844,1634.9954901245178,3.1999999191612005,62.3439584250591,0.0,286.15,336.15,14.141130447387695,afternoon/12/12 1
36.987196155500506,69.45003424252468,109.53062734145956,44.47227676505784,53.608857566440115,84.54728445210458,34.32839129247666,46.85142517089844,1571.239433106944,3.1899999194138218,62.417388423204095,0.0,286.15,336.15,14.149676322937012,afternoon/12/12 1
37.252074341080494,70.49995473011734,110.25171547821184,45.393666727387235,54.419296877080214,85.10389629020692,35.039617194557195,47.38086318969727,1567.844091548882,3.1899999194138218,62.493768421274574,0.0,286.15,336.15,14.251007080078125,afternoon/12/12 1
37.17229154481778,70.86550738724935,110.27174331375755,45.87439345578429,54.70146895291807,85.11935588493347,35.41069275977612,47.06854629516602,1563.2480781031945,3.1899999194138218,62.570478419336716,0.0,286.15,336.15,14.22048568725586,afternoon/12/12 1
37.72306775309207,70.98735805564405,109.6307743425615,45.31354756183104,54.79552614378332,84.62458846464158,34.977772776746754,47.59596633911133,1574.7047749082458,3.1999999191612005,62.64727841739659,0.0,286.15,336.15,14.375534057617188,afternoon/12/12 1
37.03074776201496,70.86884535984032,108.32880856462359,45.31354756183104,54.704045552039155,83.61959402933121,34.977772776746754,47.59596633911133,1633.6373910881446,3.159999920171685,62.72362841546782,0.0,286.15,336.15,14.332804203033447,afternoon/12/12 1
35.64046633167006,70.1995006878561,107.80802225344844,44.69260642618069,54.18737477462887,83.21759625520706,34.49846495118141,47.49894714355469,1648.7136466122238,3.0499999229505192,62.79723841360829,0.0,286.15,336.15,14.41582202911377,afternoon/12/12 1
35.50660300558065,69.69206724496644,107.54762909786085,44.372121940582645,53.79568415185212,83.01659736814499,34.251081241035465,46.482139587402344,1635.386572035578,3.0399999232031405,62.870068411768436,0.0,286.15,336.15,14.420705795288086,afternoon/12/12 1
36.05674312045426,69.53349496638457,109.35035335142818,44.231911445016,53.673281351202725,84.40812998285294,34.14285200014115,47.12569046020508,1572.7782380163821,3.0799999221926555,62.94349840991345,0.0,286.15,336.15,14.407276153564453,afternoon/12/12 1
37.45656958436685,70.09601147650271,109.95125882815954,45.15330531903202,54.10749089189767,84.87197217478753,34.85408092167378,47.12569046020508,1562.1875647496818,3.159999920171685,63.01979840798594,0.0,286.15,336.15,14.497619152069092,afternoon/12/12 1
37.50840231142026,70.91224519702655,109.73092916703665,45.47378980463006,54.73754612141251,84.70189851608276,35.10146463181973,47.02862548828125,1582.99538674695,3.1799999196664435,63.09676840604153,0.0,286.15,336.15,14.404834747314453,afternoon/12/12 1
37.619664309155716,70.60845220425269,108.80953920470729,44.95299958176825,54.50304666497706,83.99067261400224,34.69946383824349,46.69316482543945,1596.6945890969337,3.1799999196664435,63.172658404124384,0.0,286.15,336.15,14.447564125061035,afternoon/12/12 1
38.260526243366385,70.41482599788364,109.10998803138635,44.8528486689797,54.35358554762006,84.22259069051744,34.622156806254395,46.91265487670898,1609.5810442702716,3.1899999194138218,63.247908402223395,0.0,286.15,336.15,14.636796474456787,afternoon/12/12 1
38.53702457458965,70.28796804462856,108.40892773017978,44.632515096170216,54.255663206452134,83.68143844714164,34.45208012809753,46.91265487670898,1628.974304815385,3.219999918655958,63.32254840033784,0.0,286.15,336.15,14.573312282562256,afternoon/12/12 1
38.80765284225396,69.64013109061864,106.7293654446481,44.200571738324186,53.91550985013843,82.63005918874741,34.22015903213023,46.08556365966797,1630.84506536781,3.2299999184033372,63.39631839847426,0.0,286.15,337.15,14.619704246520994,afternoon/12/12 1
37.5890474025225,69.4537369562053,106.76931010923157,44.71981337706519,53.77120318912865,82.66098441710473,34.622156806254395,46.84925079345703,1633.8606185055341,3.159999920171685,63.4699483966142,0.0,286.15,337.15,14.548894882202148,afternoon/12/12 1
37.27993290415046,69.58687673795322,108.54671118024156,44.580018751276285,53.8742802382648,84.03705139818193,34.51392756536007,46.739501953125,1639.411079922031,3.159999920171685,63.54347839475668,0.0,286.15,337.15,14.429251670837402,afternoon/12/12 1
36.90651729847573,69.33724045969343,107.34846484476336,44.080745544742605,53.681011400187,83.10936701431275,34.12738938596249,46.739501953125,1640.4318231598597,3.139999920676928,63.616728392906225,0.0,286.15,337.15,14.397509574890135,afternoon/12/12 1
38.23080501137317,69.16083119139782,106.86916007043699,44.699844944857865,53.54443503978254,82.73828842964173,34.606697211527816,47.27320861816406,1635.0883917298393,3.2299999184033372,63.689948391056525,0.0,286.15,337.15,14.402392864227295,afternoon/12/12 1
36.87627406322106,69.3438979037907,107.34846484476336,44.99940652872743,53.68616560491324,83.10936701431275,34.838618307495125,47.494834899902344,1641.437742637078,3.1499999204243068,63.76339838920103,0.0,286.15,337.15,14.329141616821287,afternoon/12/12 1
37.53290958449319,69.46871555541004,107.50822790275959,43.92097858666195,53.782799646520616,83.23305584993362,34.00369753088951,47.494834899902344,1641.7043737021293,3.1899999194138218,63.8365883873521,0.0,286.15,337.15,14.358442306518555,afternoon/12/12 1
35.965081650596105,69.36386861104724,107.56814099955038,44.16063097382513,53.70162696098685,83.2794406730175,34.18923682322502,47.3872184753418,1640.4830663305527,3.0799999221926555,63.90973838550417,0.0,286.15,337.15,14.37065076828003,afternoon/12/12 1
35.777047334541784,69.43709464599033,106.17017914132364,44.06077711253528,53.75831868379712,82.19713618626595,34.11192979123592,46.55183792114258,1672.6756318758137,3.0699999224452768,63.98294838365473,0.0,286.15,337.15,14.353558540344238,afternoon/12/12 1
35.70705758627832,68.89455260292304,106.50968928986107,43.34182385113017,53.338281696373215,82.45998553004266,33.55531493368149,46.62770080566406,1667.9140457219446,3.0699999224452768,64.0548083818394,0.0,286.15,337.15,14.32547903060913,afternoon/12/12 1
35.4404713614679,68.99107839217831,107.64802252854851,43.84109705766385,53.41301212924122,83.34128509082795,33.94185311307908,47.36819839477539,1638.7129394344042,3.0399999232031405,64.12677838002129,0.0,286.15,337.15,14.39384698867798,afternoon/12/12 1
36.56543463461816,69.23905030941384,107.1886939865983,43.98089168345276,53.604992416137456,82.98567213978768,34.050082353973394,47.36819839477539,1653.2468556614149,3.1199999211821705,64.20004837817032,0.0,286.15,337.15,14.377975940704346,afternoon/12/12 1
35.45850737114106,69.31560539141256,106.68942078006461,43.10217536405139,53.66426149293184,82.59913396039009,33.369778660798076,47.21208953857422,1628.4654095502453,3.0399999232031405,64.27273837633402,0.0,286.15,337.15,14.401172161102295,afternoon/12/12 1
35.190877208602906,69.12588155992947,108.22717726408028,43.761211628581314,53.51737697469592,83.78966768803596,33.88000567581654,46.94839096069336,1605.8141997215446,3.0199999237083834,64.3464383744722,0.0,286.15,337.15,14.410938739776613,afternoon/12/12 1
36.217884037000296,69.80988421484517,109.22572367714764,44.65990418035881,54.04693301230074,84.56274404683113,34.575775002622606,46.94636535644531,1579.0226217264005,3.0899999219400343,64.42124837258234,0.0,286.15,337.15,14.41338062286377,afternoon/12/12 1
36.90732076925614,70.27587117591372,110.32412005142044,44.83963957064678,54.40770092293024,85.4131244181633,34.71492645242215,46.94636535644531,1541.076795114613,3.1299999209295493,64.49726837066191,0.0,286.15,337.15,14.454889297485352,afternoon/12/12 1
37.85344667696445,70.94988863970464,110.52382777400013,45.8182136514224,54.92952640830875,85.56773848214151,35.47254019703865,46.14251708984375,1526.4745089504015,3.1699999199190643,64.57518836869349,0.0,286.15,337.15,14.594066619873047,afternoon/12/12 1
40.0415760257795,70.79844186171039,110.26420695462966,46.377396054662455,54.8122760510385,85.36673959507942,35.905460180068026,46.52653503417969,1530.809679015093,3.3299999158771243,64.6538983667051,0.0,286.15,337.15,14.530582427978516,afternoon/12/12 1
38.196700504936366,70.80509963081465,110.224270090215,45.179145819099816,54.81743050738573,85.33582040562632,34.977772776746754,46.52653503417969,1544.4745524079779,3.1899999194138218,64.73239836472203,0.0,286.15,337.15,14.612379550933838,afternoon/12/12 1
38.52139815193211,71.10466218970531,109.16581058035686,45.179145819099816,55.04935235821605,84.51635922374726,34.977772776746754,45.94842529296875,1600.6856347775,3.2099999189085797,64.81019836275664,0.0,286.15,337.15,14.623366832733154,afternoon/12/12 1
37.31335509464945,70.46393129638656,107.60808566413387,44.739785709356916,54.553297393226615,83.31036590137482,34.63761942043305,46.39572143554688,1644.1701567763987,3.139999920676928,64.88535836085794,0.0,286.15,337.15,14.556220054626465,afternoon/12/12 1
36.881204868821456,69.66369056625669,107.38738294337523,43.99154612497414,53.773780039870736,82.89290249361994,33.95731270780564,46.775474548339844,1658.6738846013852,3.099999921687413,64.95842835901203,0.0,286.15,336.15,14.618483543395994,afternoon/12/12 1
37.39782669649015,69.45170290284628,106.98677929222099,44.05163745498461,53.61014561437965,82.58367436566353,34.00369753088951,46.775474548339844,1674.7685446126825,3.1499999204243068,65.03084835718255,0.0,286.15,336.15,14.531803131103516,afternoon/12/12 1
37.559264229456595,69.1545865072021,107.30726377781905,43.41066848378853,53.38079985942839,82.8310580758095,33.50893011059761,46.03926086425781,1654.0824822695165,3.1799999196664435,65.1025783553705,0.0,286.15,336.15,14.424367904663086,afternoon/12/12 1
38.66806164768507,69.0193702545424,109.00604752236065,43.96092325124543,53.43491573798062,84.39267038812638,34.03462275924683,46.54770278930664,1565.1494074979198,3.259999917645473,65.17514835353721,0.0,286.15,337.15,14.402392864227295,afternoon/12/12 1
38.385161424042884,69.93803156353424,110.14438076104807,45.07929195780996,54.14614491113424,85.27396994891167,34.900465744757646,46.54770278930664,1548.3501001742475,3.2499999178980943,65.25181835160038,0.0,286.15,337.15,14.351117134094238,afternoon/12/12 1
38.69866834956328,70.84337668430348,109.50531292872546,45.298972012681396,54.84706466835143,84.77920252861976,35.07054242291451,45.94635391235352,1580.545273637139,3.2799999171402305,65.32949834963803,0.0,286.15,337.15,14.30594539642334,afternoon/12/12 1
38.43497093042936,70.40901030764759,107.82776181892088,44.79969880614772,54.51077746882439,83.48043956007956,34.684004243516924,46.397850036621094,1625.3333885510895,3.2299999184033372,65.40552834771734,0.0,286.15,337.15,14.47930669784546,afternoon/12/12 1
37.02230912418578,69.83984076324056,107.88767491571168,44.54007798677721,54.070125423842676,83.52682438316346,34.483005356454846,46.57707214355469,1646.1006039791296,3.139999920676928,65.47950834584843,0.0,286.15,337.15,14.442680835723875,afternoon/12/12 1
36.51775205794817,69.30728326128397,107.08884402539283,43.501590809210796,53.65781848540306,82.90836812725067,33.679006788754464,46.57707214355469,1656.2562740193757,3.099999921687413,65.55246834400532,0.0,286.15,337.15,14.474422931671144,afternoon/12/12 1
36.09951823438097,69.53182435021967,106.84656879665432,43.83130779386177,53.67199179353714,82.4754451247692,33.833623872184766,47.09606552124023,1666.9127162448713,3.0799999221926555,65.62499834217306,0.0,286.15,336.15,14.424367904663086,afternoon/12/12 1
35.56802694889727,68.90453811905482,106.56960238665188,43.701302431874936,53.346012500220525,82.50637035312654,33.833623872184766,47.8723258972168,1670.2771246690359,3.0499999229505192,65.69704834035292,0.0,286.15,337.15,14.386521816253662,afternoon/12/12 1
35.41107397047947,68.977765129019,106.44977619307028,43.72127086408224,53.402704977893826,82.41360070695876,33.849083466911324,47.37447738647461,1665.8553613893134,3.0499999229505192,65.76894833853657,0.0,286.15,337.15,14.32303762435913,afternoon/12/12 1
36.459870390341884,68.93116627040865,106.4897130574849,43.761211628581314,53.366628061020386,82.4445198964119,33.88000567581654,47.37447738647461,1625.9367938529394,3.1199999211821705,65.84103833671543,0.0,286.15,337.15,14.336466789245605,afternoon/12/12 1
35.383357722191725,69.25236389758021,107.86770648350435,44.38031102869657,53.615299819105864,83.51136478843691,34.35931350138188,47.46110153198242,1624.69624320427,3.0399999232031405,65.91485833485058,0.0,286.15,337.15,14.37065076828003,afternoon/12/12 1
36.05063307181838,69.77327119737362,107.62805409634122,44.10071787703434,54.018587150895605,83.32582549610139,34.14285200014115,45.90418243408203,1631.2660995731594,3.0799999221926555,65.98883833298169,0.0,286.15,337.15,14.404834747314453,afternoon/12/12 1
37.75844936709885,69.49201400969412,107.64802252854851,44.14065864153339,53.80083735009432,83.34128509082795,34.173774209046364,46.27132034301758,1628.8423754391558,3.1699999199190643,66.06244833112214,0.0,286.15,337.15,14.557441234588625,afternoon/12/12 1
37.46694826287921,69.53861351831854,108.22717726408028,44.28045716740672,53.83691477020978,83.78966768803596,34.28200646939277,46.27132034301758,1619.1197428120465,3.1499999204243068,66.13618832925931,0.0,286.15,337.15,14.558661937713625,afternoon/12/12 1
37.01873720818648,69.60018935109849,108.14729573508221,44.22054407061592,53.884586886370194,83.72782327022553,34.2356216463089,46.25859832763672,1606.3506791885345,3.1199999211821705,66.21034832738586,0.0,286.15,337.15,14.556220054626465,afternoon/12/12 1
38.12352486556744,69.71129282807458,107.84738463404304,44.52783289784998,54.1306822969556,83.74328286495209,34.575775002622606,47.19728088378906,1623.5399810031906,3.1999999191612005,66.28511832549702,0.0,286.15,338.15,14.528140544891356,afternoon/12/12 1
37.093064486311654,69.50221906026789,107.90712055178076,44.42827044258654,53.96833692588806,83.78966768803596,34.49846495118141,47.24590682983398,1621.538805703533,3.1499999204243068,66.35913832362712,0.0,286.15,338.15,14.41338062286377,afternoon/12/12 1
38.28265657289913,69.59348172784627,108.26553605820723,44.24906657792415,54.039202208453425,84.06797662653923,34.35931350138188,47.24590682983398,1622.9470470214478,3.2299999184033372,66.43318832175646,0.0,286.15,338.15,14.421926498413086,afternoon/12/12 1
38.53537084729809,69.81085269097078,109.65936376928558,44.52783289784998,54.20799033542872,85.1502811132908,34.575775002622606,46.7522087097168,1585.8789008227304,3.2499999178980943,66.50720831988656,0.0,286.15,338.15,14.407276153564453,afternoon/12/12 1
37.864028997030466,69.80089638063527,108.5642156468959,44.76677268025012,54.20025927996039,84.29990074195862,34.761311275506024,46.41050720214844,1602.3376989352844,3.1999999191612005,66.58288831797472,0.0,286.15,338.15,14.429251670837402,afternoon/12/12 1
37.97969099995368,69.88552129195936,107.44915036719256,44.88624451572559,54.26597035779954,83.4340547369957,34.85408092167378,46.41050720214844,1635.7631446339292,3.1899999194138218,66.65795831607831,0.0,286.15,338.15,14.529361248016356,afternoon/12/12 1
39.21192136605915,69.64823900434739,107.78765649340694,44.66721411353749,54.08172112637161,83.69690408077241,34.684004243516924,46.48015594482422,1636.1165783016622,3.2699999173928522,66.73139831422304,0.0,286.15,338.15,14.550116062164307,afternoon/12/12 1
38.72827031051697,69.29646384654242,106.61285529596584,44.587564927036894,53.80856840556263,82.78467325272561,34.622156806254395,46.29872512817383,1663.5984218232004,3.2699999173928522,66.80479831236879,0.0,286.15,338.15,14.37065076828003,afternoon/12/12 1
37.631839105124605,69.13219201703907,105.8362961424769,43.69153393807246,53.681011651808035,82.18167659153939,33.926390498900425,46.665733337402344,1706.9928693388056,3.1899999194138218,66.87704831054361,0.0,286.15,338.15,14.39628839492798,afternoon/12/12 1
36.00927598406063,68.76548223170792,104.20352476044756,43.23356375348423,53.39626222198606,80.91383281245233,33.570777547860146,46.665733337402344,1739.4169539148309,3.0899999219400343,66.9474383087654,0.0,286.15,338.15,14.330362319946287,afternoon/12/12 1
35.14512408869874,67.7333863128159,103.64599989769751,42.81541621787088,52.59484176313282,80.48091584887504,33.2460868057251,46.5750617980957,1749.0321529997982,3.0299999234557617,67.01649830702081,0.0,286.15,338.15,14.332804203033447,afternoon/12/12 1
34.349280347206395,67.53486974822731,103.09466617329224,42.82258221238916,52.28561288031341,79.81606873097421,33.15331715955734,46.72479248046875,1741.413197608936,2.999999924213625,67.08514830528657,0.0,286.15,337.15,14.183860301971436,afternoon/12/12 1
34.14096709604396,67.14377415814722,102.51551143776042,42.36325367043895,51.98282599853874,79.36768613376618,32.797704208517075,46.69952011108398,1724.3803923625585,2.9899999244662467,67.15409830354474,0.0,286.15,337.15,14.157001495361328,afternoon/12/12 1
34.24580077796048,67.46241830095607,104.07150500917076,42.857134006883776,51.91969126819969,80.09437766947747,32.98324048140049,46.38297653198242,1697.8063647516321,2.999999924213625,67.22371830178601,0.0,286.15,335.15,14.141130447387695,afternoon/12/12 1
33.749327966473366,67.44065379895093,104.33267510987423,42.93749615044688,51.9029411093235,80.29537655653955,33.04508791866303,46.58763122558594,1664.4343593963683,2.969999924971489,67.29442829999971,0.0,286.15,335.15,14.113050937652588,afternoon/12/12 1
33.90387914012659,67.19203607775377,103.65385247661672,41.74415427032368,52.02019046010971,80.24899173345567,32.31839638295174,47.00535583496094,1656.0533241453606,2.979999924718868,67.36654829817779,0.0,286.15,337.15,14.117934226989744,afternoon/12/12 1
34.663151291291086,67.55484110549794,104.61245422510063,42.82258221238916,52.30107473962904,80.99114286389351,33.15331715955734,47.00535583496094,1627.5144128939248,3.0299999234557617,67.43907829634554,0.0,286.15,337.15,14.136247158050535,afternoon/12/12 1
34.95652552917361,67.80447608372961,105.95050298653658,42.94240840597074,52.4943425712228,82.02706252756118,33.2460868057251,47.02434539794922,1592.7886943593362,3.0299999234557617,67.51282829448246,0.0,286.15,337.15,14.255890369415285,afternoon/12/12 1
36.65223988613783,69.1192247658463,110.10444389663341,44.580018751276285,53.51222327321171,85.24305075945855,34.51392756536007,46.30071640014648,1581.5529895964933,3.159999920171685,67.58821829257795,0.0,286.15,337.15,14.186302185058596,afternoon/12/12 1
44.37367496851075,71.00314429239819,115.91596748432751,45.97798060950306,54.970757026666405,89.74234236516952,35.59623205211163,46.30071640014648,1519.022526251841,3.659999907540623,67.66416829065929,0.0,286.15,337.15,14.362104892730713,afternoon/12/12 1
50.92283224422368,74.7343683779882,120.70897622674694,48.97360814845187,57.85947716244459,93.45309801735878,37.91545207014085,46.73120880126953,1499.5404741614848,4.109999896172667,67.74316828866358,0.0,286.15,337.15,14.364546298980713,afternoon/12/12 1
51.5013510535962,77.13087177417681,122.68609282050552,50.95072474221043,59.714854233676185,94.98378510131836,39.44613915410042,45.82614135742188,1571.0938270534614,4.0899998966779085,67.82338828663705,0.0,286.15,337.15,14.61115837097168,afternoon/12/12 1
54.4476076323378,77.93137092560434,122.90576897529252,52.96778600055247,60.33460206022261,95.15385876002311,41.007751466417325,45.57945251464844,1701.366419081757,4.1299998956674235,67.90003828470071,0.0,286.15,337.15,15.271639347076414,afternoon/12/12 1
53.81646353913042,77.78491820570413,122.945713639876,51.09052326808376,60.22121811136008,95.18478398838043,39.55437141444683,45.57945251464844,1842.1460229998395,4.0799998969305316,67.97088828291089,0.0,286.15,337.15,15.311927795410154,afternoon/12/12 1
53.78130482792503,77.43542774114745,121.98711189139212,50.85087088092058,59.95064198967221,94.44263285794258,39.36883212211132,45.12374877929688,1979.5555036244089,4.069999897183152,68.03621828126052,0.0,286.15,337.15,15.346111297607422,afternoon/12/12 1
51.162064298383065,77.14085729030863,121.40795715586032,48.47433884200262,59.72258503752353,93.99425026073456,37.52891691019536,45.054222106933594,2052.2984085335397,4.019999898446258,68.09697827972559,0.0,286.15,337.15,14.812599182128904,afternoon/12/12 1
48.052230025639275,76.48181907573651,120.96859704611744,49.07346590982615,59.212356512778996,93.65409690442085,37.99276212158203,45.054222106933594,2125.616876139219,3.859999902488198,68.1554882782475,0.0,286.15,337.15,14.596508502960205,afternoon/12/12 1
50.41539382570608,76.40859206577234,119.13127507814778,48.97360814845187,59.155664035105715,92.2316390613556,37.91545207014085,45.2376823425293,2228.671410990859,4.029999898193637,68.21201827681944,0.0,286.15,337.15,14.553778648376465,afternoon/12/12 1
46.7215270783548,75.86937939476772,118.93156735556806,48.21471802263211,58.738204653286935,92.07702499737742,37.327918023133286,45.59209442138672,2279.693212449719,3.7799999045091677,68.26592827545754,0.0,286.15,337.15,14.550116062164307,afternoon/12/12 1
48.51146586918746,75.43001928502483,117.97296560708418,47.815298677388284,58.39805129697323,91.33487386693956,37.018686875724796,45.65108108520508,2352.4862878319022,3.9299999007198494,68.31858827412725,0.0,286.15,337.15,14.425589084625244,afternoon/12/12 1
43.71744517688438,74.92409188446426,115.6763150971643,46.896641593487864,58.006361429059496,89.55680307283401,36.307460973644254,45.65108108520508,2419.0593039348,3.609999908803729,68.36964827283737,0.0,286.15,337.15,14.385300636291506,afternoon/12/12 1
40.701206620377505,74.3682352782095,115.35678118100306,46.9166100256952,57.57601628380417,89.30941936268809,36.32292056837082,45.9083137512207,2468.1485653252425,3.419999913603533,68.41927827158361,0.01,286.15,337.15,14.297399520874025,afternoon/12/12 1
45.23450536117353,73.33358323430268,113.96031096089456,45.642890400451705,56.94338370030524,88.48995818080904,35.441614968681336,49.77484893798828,2526.001456221937,3.7399999055196536,68.46791827035486,0.02,286.15,338.15,14.266878128051758,afternoon/12/12 1
43.58834410637878,73.22738723538166,113.18375180740559,47.25574851371819,56.86092271521093,87.8869615196228,36.69399613358975,52.09528350830078,2554.695173258392,3.6399999080458656,68.51544826915415,0.03,286.15,338.15,14.200952053070068,afternoon/12/12 1
37.98628181330197,72.57361620312808,112.52666448939213,44.4083610623745,56.353270789587505,87.37673450460434,34.483005356454846,52.47279739379883,2584.45911121088,3.259999917645473,68.56242826796733,0.03,286.15,338.15,14.148455619812012,afternoon/12/12 1
40.947127451000746,72.19529228862731,110.31645108729909,45.08536164915085,56.059503011220684,85.66050812830927,35.00869498565197,52.47279739379883,2646.841100603301,3.4699999123404273,68.60887826679391,0.03,286.15,338.15,14.13258457183838,afternoon/12/12 1
38.16894621408451,71.76718682244893,111.11292739810172,44.448183711349394,55.72707995551229,86.27897042312622,34.51392756536007,52.46457290649414,2614.4287886877955,3.2699999173928522,68.65423826564802,0.04,286.15,338.15,14.163105964660645,afternoon/12/12 1
37.89915403172251,71.33244651642937,110.89389310736277,44.507919629087134,55.389504959666716,86.10889072551727,34.56031238844395,52.46457290649414,2616.266871715638,3.2699999173928522,68.7001382644885,0.04,286.15,338.15,14.062995910644533,afternoon/12/12 1
35.818567627398906,71.45357649478483,111.03327432305029,44.01012290697319,55.483562150531995,86.21711996641159,34.173774209046364,52.38453674316406,2616.154788228941,3.099999921687413,68.74602826332921,0.04,286.15,338.15,14.19728946685791,afternoon/12/12 1
40.517006220469646,71.3025782335146,110.79433842920099,44.24906657792415,55.36631229650377,86.03158671298027,34.35931350138188,51.62303161621094,2576.3669232056727,3.419999913603533,68.79189826217043,0.04,286.15,338.15,14.232694149017336,afternoon/12/12 1
40.38060446016877,71.3938415491848,111.67045226085176,43.83091904231079,55.437178082311156,86.7118873867035,34.03462275924683,51.62303161621094,2546.9114478235238,3.3899999143613972,68.83847826099372,0.04,286.15,338.15,14.337687492370605,afternoon/12/12 1
37.63873814923174,71.81530763887937,111.05319148036398,44.906153895937635,55.76444567518831,86.23258560004234,34.86954051640034,50.8150749206543,2535.783922908335,3.1799999196664435,68.88559825980337,0.04,286.15,338.15,14.454889297485352,afternoon/12/12 1
36.53079491821532,71.5166316146956,112.0487771474902,44.746859411487264,55.5325243276,87.00565591993332,34.745848661327365,50.8150749206543,2508.487970559879,3.0899999219400343,68.93292825860772,0.04,286.15,338.15,14.537907600402832,afternoon/12/12 1
40.16836558427086,72.05424968960084,112.24790205801712,45.36412796907669,55.94998370941878,87.16027602281571,35.22515648689271,50.26253128051758,2474.914060663744,3.339999915624503,68.98076825739918,0.04,286.15,338.15,14.5232572555542,afternoon/12/12 1
41.3253275229724,72.0111078384529,113.00454405419241,44.945980433463326,55.916484146529434,87.7478070503712,34.900465744757646,50.26253128051758,2411.093513024813,3.4099999138561543,69.02925825617422,0.04,286.15,338.15,14.56842851638794,afternoon/12/12 1
43.931200939795396,72.562000453729,113.3032236428811,45.46368653578931,56.34425118293763,87.97973116579055,35.3024635188818,51.00741577148438,2422.409178093425,3.589999909308972,69.07902825491692,0.04,286.15,338.15,14.552557468414307,afternoon/12/12 1
40.262201807674735,72.77605286277226,111.43151636700244,45.32430143155098,56.51046245917082,86.52635413327219,35.19423125853539,51.00741577148438,2486.792198830848,3.2899999168876093,69.12859825366469,0.04,286.15,338.15,14.828470230102539,afternoon/12/12 1
38.122113759559284,71.8534724690202,111.09301024078805,45.36412796907669,55.79408059101701,86.26350478949547,35.22515648689271,51.00741577148438,2506.608617062873,3.159999920171685,69.17687825244502,0.04,286.15,338.15,14.755218982696533,afternoon/12/12 1
40.885800373410184,71.36397359031592,110.95362902510055,44.10968147368581,55.413985670769215,86.15527554860115,34.251081241035465,48.64462280273438,2517.4181894282237,3.3699999148666397,69.22475825123547,0.04,286.15,338.15,14.622146129608154,afternoon/12/12 1
39.01550698017855,71.44527962351287,109.93812620066059,44.68712349374953,55.47711964624525,85.36673959507942,34.69946383824349,48.64462280273438,2513.2928823687635,3.259999917645473,69.27243825003096,0.04,286.15,338.15,14.531803131103516,afternoon/12/12 1
37.206171946244666,69.05739831613006,107.07277162342072,43.16564730598174,53.781511850202094,83.38766991391181,33.617162370944015,48.45476150512695,2261.5736857406932,3.1499999204243068,70.30820822386522,0.04,286.15,339.15,14.45733118057251,afternoon/12/12 2
36.69331839917765,69.32210566501968,106.8940922728412,43.66197237356059,53.98766443874837,83.24851544466019,34.00369753088951,48.45476150512695,2263.275836240517,3.099999921687413,70.36128822252431,0.04,286.15,339.15,14.54401159286499,afternoon/12/12 2
38.2062744903459,69.0491249393087,107.31101075752676,43.22520708950826,53.77506859105231,83.57320920624733,33.663547194027906,48.45476150512695,2211.17252731169,3.1899999194138218,70.41431822118466,0.04,286.15,339.15,14.616042137145994,afternoon/12/12 2
39.307335423713006,69.4230249015731,107.3705705410533,44.13844676468743,54.066259770298025,83.61959402933121,34.37477309610844,47.57075881958008,2222.633648645055,3.2699999173928522,70.4685882198137,0.04,286.15,339.15,14.58552074432373,afternoon/12/12 2
37.70575472650234,69.35022971829306,106.51689064940062,43.40388256300254,54.00956729262472,82.95475295033455,33.80269864382744,47.57075881958008,2241.7666725649133,3.159999920171685,70.52261821844877,0.04,286.15,339.15,14.594066619873047,afternoon/12/12 2
37.93894413216356,68.91842548790153,105.62349389650292,42.55019879426462,53.67328059633969,82.25898060407637,33.13785454537869,47.57075881958008,2253.4534202706773,3.1699999199190643,70.57615821709624,0.04,286.15,339.15,14.627029418945312,afternoon/12/12 2
39.39413986117318,68.48331119598248,105.68305368002943,42.15313874020153,53.33441604282856,82.30536542716027,32.8286264174223,49.64675903320312,2255.1596561941105,3.299999916634988,70.62942821575051,0.04,286.15,339.15,14.454889297485352,afternoon/12/12 2
39.879912681245216,68.26327336164735,104.31319416726065,42.51049356427536,53.163051819974186,81.23852657403947,33.10693233647347,49.48214340209961,2259.7438194997385,3.299999916634988,70.68264821440606,0.04,286.15,339.15,14.633133888244627,afternoon/12/12 2
37.627184342429295,68.07963166504524,104.63084376134519,42.371523320770336,53.02003270366192,81.48591028418541,32.998703095579145,49.48214340209961,2249.572279693063,3.1499999204243068,70.73576821306416,0.04,286.15,339.15,14.620925426483154,afternoon/12/12 2
36.62896299082418,67.88606398403626,103.93598478964957,42.629613131328384,52.869283286744356,80.94475804080962,33.19970198264122,49.37454223632812,2258.3033360781474,3.0899999219400343,70.7891182117164,0.04,286.15,339.15,14.576974868774414,afternoon/12/12 2
38.45631514886426,67.48073023006135,103.598484519113,42.05387372668576,52.55361164801717,80.68191473593713,32.7513193854332,49.37454223632812,2235.9202582543357,3.219999918655958,70.8422782103735,0.04,286.15,339.15,14.54279088973999,afternoon/12/12 2
37.26044363205678,67.83974056953458,104.9484933554298,41.55754478202166,52.83320687311293,81.73329399433136,32.364781206035616,49.37454223632812,2141.0602016432545,3.1799999196664435,70.89594820901766,0.04,286.15,339.15,14.309607982635498,afternoon/12/12 2
38.48312392502621,67.70573202587126,105.58379254359892,41.45827976850588,52.72884177603723,82.22806141462327,32.287474174046515,47.05196762084961,2108.1932434664413,3.2499999178980943,70.95199820760172,0.04,286.15,339.15,14.387742519378662,afternoon/12/12 2
39.103345773859495,68.39397313614492,105.54408343652443,42.808292481907905,53.26484006630779,82.19713618626595,33.33885645189285,47.05196762084961,2130.4659812363016,3.2699999173928522,71.00894820616304,0.04,286.15,339.15,14.509827613830565,afternoon/12/12 2
38.23992812231477,68.30132501477979,104.9881947083338,42.58990790133914,53.19268623256087,81.76421318378449,33.16877977373601,45.54351425170898,2111.366067031013,3.2399999181507155,71.06529820473952,0.04,286.15,339.15,14.351117134094238,afternoon/12/12 2
39.1915042932748,68.04488813489765,104.80952311192476,42.84799771189717,52.99297463857531,81.62506475343704,33.369778660798076,45.54351425170898,2107.6770892347627,3.2899999168876093,71.12213820330362,0.04,286.15,339.15,14.43413496017456,afternoon/12/12 2
37.53701182990949,68.14911840224994,103.38009606145893,42.629613131328384,53.074148582214136,80.51183503832817,33.19970198264122,47.07526397705078,2118.168986732744,3.1799999196664435,71.17909820186469,0.04,286.15,339.15,14.41582202911377,afternoon/12/12 2
36.85913680053426,67.96713060559505,103.14185692735292,42.947262725412955,52.93241751384138,80.32629574599267,33.44708569278717,47.07526397705078,2120.0019456568184,3.1699999199190643,71.23576820043309,0.04,286.15,339.15,14.210719108581545,afternoon/12/12 2
37.01884331326024,67.42778733868549,102.90362554741738,42.23254920018006,52.51238002317547,80.14076249256134,32.89047083523274,46.98240280151367,2108.1984379473042,3.1799999196664435,71.29238819900273,0.04,286.15,339.15,14.2168231010437,afternoon/12/12 2
35.74851771517776,67.02080033094424,102.12935611574319,41.7362241326012,52.195420839750774,79.53776583137513,32.50393567528725,46.98240280151367,2124.014226276004,3.0899999219400343,71.34931819756456,0.04,286.15,339.15,14.226590156555176,afternoon/12/12 2
35.01963426660482,66.45333268767081,100.95801887583544,41.53769410556965,51.753480243587504,78.62553500332831,32.34932161130905,47.50762557983398,2124.9912747992707,3.0399999232031405,71.4058481961365,0.04,286.15,339.15,14.222927570343018,afternoon/12/12 2
32.82605016351449,66.32263259008282,99.34992022896064,41.02151060736831,51.651691745632895,77.37315685787202,31.947320817732813,47.50762557983398,2134.7504809543343,2.899999926739838,71.4623281947097,0.04,286.15,339.15,14.146013736724855,afternoon/12/12 2
32.79772023356672,65.31343343964923,97.99990363847336,40.92224559385253,50.86573314609527,76.32177156057358,31.87001378574372,45.6700439453125,2144.5003706579773,2.899999926739838,71.51856819328896,0.04,286.15,339.15,14.13380527496338,afternoon/12/12 2
31.86124431900141,64.72445798907222,95.9748942610834,40.48547643271494,50.407042391055825,74.74470569243431,31.529860429430013,45.6700439453125,2123.3361256711155,2.819999928760808,71.57453819187505,0.04,286.15,339.15,14.226590156555176,afternoon/12/12 2
31.534909785517286,63.90386352744422,96.92784304333712,39.790617461019295,49.76796805813314,75.48685682287217,30.98870818605423,46.33881759643555,2077.2879637901424,2.809999929013429,71.63105819044722,0.04,286.15,339.15,14.144793033599855,afternoon/12/12 2
31.078626545476762,63.763238091630186,96.70945458568308,39.631796541062265,49.65844976281523,75.3167771252632,30.865019350433354,46.33881759643555,2000.6678292828747,2.779999929771293,71.68882818898783,0.04,286.15,339.15,14.13258457183838,afternoon/12/12 2
32.101345732997714,63.77812609896921,98.65506125726498,39.790617461019295,49.67004445886017,76.83200461449623,30.98870818605423,46.60467910766602,1891.0030630653525,2.8299999285081867,71.74880818747259,0.04,286.15,339.15,14.269320011138914,afternoon/12/12 2
34.71293636028275,64.66986281320133,101.57346738755258,40.94210014738979,50.364523976379644,79.10484282889367,31.88547639992237,46.60467910766602,1788.914535719176,2.999999924213625,71.81226818586947,0.04,286.15,339.15,14.334024906158447,afternoon/12/12 2
36.87627406322106,66.26803676803104,103.69774565554351,42.17299329373878,51.60917282771468,80.75921874847413,32.844089031600944,46.56263732910156,1724.793497139339,3.1499999204243068,71.87934818417489,0.04,286.15,339.15,14.329141616821287,afternoon/12/12 2
37.97615708862565,67.83312367738392,106.0404123811885,42.86784838834919,52.82805367487074,82.58367436566353,33.38523825552464,46.56263732910156,1686.9751298634853,3.1999999191612005,71.94893818241691,0.04,286.15,339.15,14.471981525421144,afternoon/12/12 2
37.81993838832914,68.51805407994918,105.96100192121,44.71419004641533,53.36147360467314,82.52182994785309,34.82315871276856,46.62145614624023,1688.736788922251,3.1799999196664435,72.02009818061923,0.04,286.15,339.15,14.5244779586792,afternoon/12/12 2
39.270000373108616,69.06401520828075,106.02056170473652,44.03918175117168,53.78666504844429,82.56821477093699,34.29746606411934,46.62145614624023,1713.1316170105326,3.2799999171402305,72.0912381788221,0.04,286.15,339.15,14.517152786254885,afternoon/12/12 2
38.14595023363128,68.38404650555714,105.16687405891336,43.36417733301329,53.25710926246047,81.90336765303613,33.77177643492223,46.23542785644531,1756.8856102577813,3.1999999191612005,72.16135817705072,0.04,286.15,339.15,14.536686420440676,afternoon/12/12 2
38.48214145897717,68.23845678517796,103.45950652143749,43.12594207599248,53.1437248103559,80.57367945613862,33.586240162038806,46.23542785644531,1823.60748841587,3.219999918655958,72.2297581753228,0.04,286.15,339.15,14.552557468414307,afternoon/12/12 2
36.8528733400804,67.36326553222689,102.24846792862574,42.55019879426462,52.46213080465199,79.63052943863869,33.13785454537869,47.46329116821289,1852.6679648457898,3.109999921434792,72.29565817365801,0.04,286.15,339.15,14.548894882202148,afternoon/12/12 2
36.801399842875526,66.65682667617709,101.79184809103613,41.97445938962199,51.91196021273135,79.27491648759842,32.68947194817066,46.52654266357422,1826.7415397045638,3.1199999211821705,72.36045817202103,0.04,286.15,339.15,14.470760345458984,afternoon/12/12 2
36.54059548957088,65.95204139698414,102.9830360073959,42.01416461961127,51.363077417129276,80.20260691037178,32.720394157075894,46.52654266357422,1784.3075815002605,3.1199999211821705,72.4261581703613,0.04,286.15,339.15,14.368208885192873,afternoon/12/12 2
36.21458944160445,67.17797058185843,103.638185872017,42.60975857779113,52.317824143642206,80.71283392539023,33.184239368462556,47.04983139038086,1771.3262478330578,3.1199999211821705,72.49342816866192,0.04,286.15,339.15,14.24001932144165,afternoon/12/12 2
37.27315911156586,67.53863514436932,103.99554457317608,42.768583374833405,52.598707668298495,80.99114286389351,33.30793122353554,47.04983139038086,1776.1027031289188,3.1799999196664435,72.5612181669494,0.04,286.15,339.15,14.314491271972654,afternoon/12/12 2
35.99614696882664,67.69745994141161,103.598484519113,42.58990790133914,52.72239952337146,80.68191473593713,33.16877977373601,45.64056015014648,1782.8333850186982,3.0699999224452768,72.62882816524144,0.04,286.15,339.15,14.441460132598875,afternoon/12/12 2
35.894807737701285,67.28385410297703,102.92347622386936,44.15830131822469,52.400285631978505,80.1562220872879,34.39023571028709,45.64056015014648,1815.86637000588,3.0799999221926555,72.69617816354003,0.04,286.15,339.15,14.342571258544922,afternoon/12/12 2
35.80139226659267,67.30039794880588,102.28817703570023,42.39137399722233,52.41316988568902,79.66145466699601,33.01416269030571,46.24626541137695,1810.2883812494244,3.0699999224452768,72.76233816186868,0.04,286.15,339.15,14.363325595855713,afternoon/12/12 2
35.12528918672221,67.04561626123274,103.10215557444893,42.689172914854886,52.21474734612704,80.29537655653955,33.2460868057251,46.24626541137695,1790.6661481002966,3.0199999237083834,72.82863816019379,0.04,286.15,339.15,14.384079933166506,afternoon/12/12 2
35.634430404126064,67.17300694347409,103.53892473558649,42.7487326983814,52.313958490097534,80.63552991285323,33.29247162880897,46.44437789916992,1766.2243062401578,3.0499999229505192,72.89568815849998,0.04,286.15,339.15,14.41338062286377,afternoon/12/12 2
34.911437541000474,67.28550832601469,104.15436549313313,42.689172914854886,52.40157393153906,81.11483169951441,33.2460868057251,46.44437789916992,1771.153075289865,3.009999923961004,72.96364815678317,0.04,286.15,339.15,14.356000423431395,afternoon/12/12 2
36.072020628781736,67.73881907134808,104.80952311192476,42.96711340186496,52.754609780216214,81.62506475343704,33.46254528751373,46.31576538085938,1742.0029047787998,3.0799999221926555,73.03146815506989,0.04,286.15,339.15,14.41338062286377,afternoon/12/12 2
37.05047509984145,67.62301118127476,105.16687405891336,43.066382292465974,52.664419249379634,81.90336765303613,33.53985533895493,46.693382263183594,1728.5218726904766,3.139999920676928,73.10035815332958,0.04,286.15,339.15,14.453668594360352,afternoon/12/12 2
37.174753275549286,68.20205903199273,105.72276278710396,43.30461754948677,53.115378445708764,82.3362906555176,33.72539161183834,46.693382263183594,1762.3995344938342,3.1499999204243068,73.16984815157413,0.04,286.15,339.15,14.445122718811035,afternoon/12/12 2
36.88070572739229,67.89764451457124,103.91613411319756,44.336980668804244,52.87830213853121,80.92929844608305,34.52939017953873,45.78841018676758,1789.2764892112618,3.109999921434792,73.238018149852,0.04,286.15,339.15,14.559882640838625,afternoon/12/12 2
36.57374300065877,67.37650254743257,102.88376711679486,41.63695911908543,52.47243971734644,80.1252968589306,32.42662864329815,45.78841018676758,1804.403277511915,3.0899999219400343,73.3051381481564,0.04,286.15,339.15,14.554999351501465,afternoon/12/12 2
36.66867814234897,67.13330074421353,103.18156603442743,42.689172914854886,52.283035526329286,80.35722097434999,33.2460868057251,45.41063690185547,1824.8732255943798,3.099999921687413,73.3716881464752,0.04,286.15,339.15,14.534245014190676,afternoon/12/12 2
34.52883182874125,67.09855850642771,101.39478803697304,42.58990790133914,52.255978467726706,78.96568835964203,33.16877977373601,45.41063690185547,1875.1423585841947,2.969999924971489,73.4374981448127,0.04,286.15,339.15,14.43901824951172,afternoon/12/12 2
36.096463210063035,66.36895600458449,101.05728776643649,41.7362241326012,51.68776815926432,78.70284505476954,32.50393567528725,43.617530822753906,1887.5467119490768,3.0799999221926555,73.50156814319416,0.04,286.15,339.15,14.423147201538086,afternoon/12/12 2
34.872590585826856,66.06619667947199,100.1638987677093,41.04136516090556,51.451980906510364,78.00707874741555,31.96278343191147,43.77164840698242,1901.9829621325644,2.999999924213625,73.56515814158773,0.04,286.15,339.15,14.399950981140135,afternoon/12/12 2
34.87581030611251,65.43089846057417,100.08448055356028,41.22004451148509,50.95721424108147,77.9452282907009,32.101937901163105,43.77164840698242,1899.1543533624897,3.009999923961004,73.62829813999271,0.04,286.15,339.15,14.341350078582765,afternoon/12/12 2
35.13423306081574,65.62115672623649,100.81904863233042,41.081070390894816,51.10538630401492,78.51730576243399,31.993705640816692,43.223167419433594,1860.9921067028747,3.0199999237083834,73.69149813839613,0.04,286.15,339.15,14.387742519378662,afternoon/12/12 2
35.61966687291606,65.86270236787524,102.12935611574319,40.00900204158809,51.29350068574547,79.53776583137513,31.158784864211093,43.223167419433594,1813.4634082620125,3.059999922697898,73.75598813676697,0.04,286.15,339.15,14.34867525100708,afternoon/12/12 2
34.84206844778631,66.96124087050812,102.88376711679486,42.23254920018006,52.14903626828789,80.1252968589306,32.89047083523274,43.482582092285156,1789.8278040879486,3.0199999237083834,73.82216813509513,0.04,286.15,339.15,14.268098831176758,afternoon/12/12 2
34.9523758401346,66.88679146419045,102.94332690032135,41.954608713169975,52.09105549105406,80.17168168201447,32.6740123534441,44.67441940307617,1770.718283991952,3.0199999237083834,73.88924813340054,0.04,286.15,339.15,14.313270568847654,afternoon/12/12 2
35.19302204276537,67.46914873025506,105.0676129224828,42.31196353724381,52.544592041367295,81.8260636404991,32.95231827249527,44.67441940307617,1722.880160235592,3.0299999234557617,73.95703813168801,0.04,286.15,339.15,14.352337837219238,afternoon/12/12 2
35.565007806233176,68.14084567160944,105.16687405891336,43.00682250893946,53.06770582630637,81.90336765303613,33.49347051587105,46.53494644165039,1706.0926354587507,3.0499999229505192,74.02669812992826,0.04,286.15,339.15,14.385300636291506,afternoon/12/12 2
36.837667543202706,68.48000178063586,105.4051131930194,43.28476299594953,53.33183868884445,82.08890694537163,33.709928997659695,46.11090850830078,1733.9493140881232,3.139999920676928,74.09709812814981,0.04,286.15,339.15,14.37065076828003,afternoon/12/12 2
37.307096803829815,68.29636137639551,105.4051131930194,43.463442346529064,53.188820579016216,82.08890694537163,33.849083466911324,46.11090850830078,1734.0316987122367,3.139999920676928,74.1663881263994,0.04,286.15,339.15,14.553778648376465,afternoon/12/12 2
37.7245818534406,68.54783364862199,105.22643384243986,45.091395546941136,53.384665764594075,81.94975247612,35.11692422654629,46.66159057617188,1733.074269041108,3.1499999204243068,74.2356181246505,0.04,286.15,339.15,14.658771514892578,afternoon/12/12 2
37.77830195644788,68.38073805948181,106.000703274114,42.90755749542369,53.25453266333938,82.55274913730622,33.41616348388195,45.86845016479492,1724.558288099001,3.159999920171685,74.30491812289983,0.04,286.15,339.15,14.622146129608154,afternoon/12/12 2
37.784970509272966,68.54452520254667,105.50438208362041,43.503147576518316,53.38208916547299,82.1662169968128,33.88000567581654,45.86845016479492,1714.1049870079644,3.1799999196664435,74.37452812114135,0.04,286.15,339.15,14.511048793792725,afternoon/12/12 2
38.559622911170244,68.45022350432478,105.50438208362041,43.52300213005557,53.308647535407545,82.1662169968128,33.89546828999519,44.77777862548828,1735.6205582681387,3.219999918655958,74.44458811937147,0.04,286.15,339.15,14.581858158111572,afternoon/12/12 2
38.17544740651873,68.43698778148081,104.78966468130224,43.74138671062437,53.29833962919712,81.6095991198063,34.065544968152054,45.20593643188477,1726.1395898501855,3.219999918655958,74.51380811762283,0.04,286.15,339.15,14.43657684326172,afternoon/12/12 2
38.08505279926921,68.42209751250874,105.22643384243986,43.066382292465974,53.28674317180514,81.94975247612,33.53985533895493,45.20593643188477,1725.3034276031156,3.219999918655958,74.5833481158661,0.04,286.15,339.15,14.402392864227295,afternoon/12/12 2
37.80636269234403,68.32448607584976,105.56394186714694,42.689172914854886,53.21072393613458,82.2126018198967,33.2460868057251,45.49501037597656,1728.292643821456,3.1999999191612005,74.65296811410734,0.04,286.15,339.15,14.407276153564453,afternoon/12/12 2
36.6501002246791,67.55872971724335,105.15862520479969,43.83808999760835,54.47598859989048,84.79466816225052,35.34884834196568,46.25445175170898,1643.4662415397274,3.059999922697898,20.32653948650841,0.0,292.15,351.15,14.76376485824585,afternoon/80cht/80cht 1
34.92412469385708,67.16564960338906,103.29867889767084,41.4220830207626,54.159028409981744,83.29490026774407,33.400700869703286,45.91271591186523,1660.4941072485879,2.9899999244662467,20.399719484659727,0.0,292.15,351.15,14.48174810409546,afternoon/80cht/80cht 1
36.43738771965573,66.76458009057563,103.43290754044925,42.745133479737376,53.835625967407225,83.40313554754258,34.467542742276194,45.91271591186523,1664.0845880461698,3.0699999224452768,20.472029482833022,0.0,292.15,351.15,14.618483543395994,afternoon/80cht/80cht 1
36.557827970409505,66.57762852939179,104.23824195120056,42.34246627436174,53.6848775569737,84.05251703181267,34.14285200014115,45.68491744995117,1638.9187667874612,3.0799999221926555,20.544209481009602,0.0,292.15,351.15,14.60749578475952,afternoon/80cht/80cht 1
36.25914194590757,66.72623110039166,103.7013498476384,42.57256396005753,53.80470325525999,83.61959402933121,34.32839129247666,45.50767135620117,1653.8911003924454,3.059999922697898,20.617449479159404,0.0,292.15,351.15,14.60627508163452,afternoon/80cht/80cht 1
35.53490951318075,67.22157539610279,104.48751194764296,42.84100626724664,54.20412417864205,84.25351591887473,34.54484977426529,44.68072128295898,1628.1527324457174,3.009999923961004,20.690129477323357,0.0,292.15,351.15,14.612379550933838,afternoon/80cht/80cht 1
36.46477532250924,67.28389320726271,105.52294404409001,43.28202558329952,54.25437415202856,85.08843669548034,34.900465744757646,44.68072128295898,1589.1472671951287,3.0699999224452768,20.763839475461282,0.0,292.15,351.15,14.62947130203247,afternoon/80cht/80cht 1
36.98584989906642,67.42291024698791,106.55837614053705,42.99440347617982,54.3664705561936,85.92335747208595,34.668541629338264,45.23974227905273,1554.6690426197415,3.109999921434792,20.839409473552227,0.0,292.15,351.15,14.601391792297365,afternoon/80cht/80cht 1
39.40932896358464,67.86552569535637,107.93894727634384,40.214081404635685,54.72337356814146,87.03658114829064,32.42662864329815,44.86845016479492,1497.3504914205314,3.2699999173928522,20.916629471601482,0.0,292.15,351.15,14.623366832733154,afternoon/80cht/80cht 1
38.953483597345894,68.89136914003544,107.82389843349596,44.988567192311315,55.550562534415725,86.94381150212288,36.276535745286935,45.30930709838867,1530.282024711415,3.219999918655958,20.996799469576217,0.0,292.15,351.15,14.730802059173586,afternoon/80cht/80cht 1
37.54867819149496,68.4535473934523,106.59672076203043,44.29828162440793,55.19752492439151,85.95427666153908,35.7199239071846,45.30930709838867,1599.3258757051374,3.109999921434792,21.075499467588084,0.0,292.15,351.15,14.82358694076538,afternoon/80cht/80cht 1
36.77435862178909,68.17711225476144,104.25741426194723,44.06818393871217,54.974621422106026,84.06797662653923,35.534384614849095,45.85151672363281,1676.5319602491948,3.059999922697898,21.150679465688878,0.0,292.15,351.15,14.813819885253904,afternoon/80cht/80cht 1
35.57184942924471,66.82689852583425,103.778046579809,43.416246736894095,53.88587644403578,83.68143844714164,35.00869498565197,46.12580108642578,1687.5242416278186,2.9899999244662467,21.222429463876324,0.0,292.15,351.15,14.750335693359375,afternoon/80cht/80cht 1
35.49938039369323,66.95792335815635,102.9343675475644,42.64926069222813,53.991528330945975,83.00113777341844,34.39023571028709,45.60047149658203,1677.063471986658,2.999999924213625,21.29355946207943,0.0,292.15,351.15,14.658771514892578,afternoon/80cht/80cht 1
36.295510488226135,66.57602865248427,103.96979215482752,42.30411790827643,53.6835874960661,83.83605251111985,34.11192979123592,45.60047149658203,1633.643943369882,3.059999922697898,21.36517946027016,0.0,292.15,351.15,14.620925426483154,afternoon/80cht/80cht 1
36.39478557424577,67.0697771279291,106.13653287982277,43.0711039529424,54.08172162961364,85.58320411577225,34.7303890666008,45.42747116088867,1598.9430465460327,3.0699999224452768,21.4386394584144,0.0,292.15,351.15,14.601391792297365,afternoon/80cht/80cht 1
35.030115679665656,67.75047716455785,105.40789520124214,43.492947213656656,54.630604173594726,84.99566704931259,35.07054242291451,45.22698974609375,1618.649040212661,2.9899999244662467,21.51375945651671,0.0,292.15,351.15,14.5256986618042,afternoon/80cht/80cht 1
35.62059944964007,67.17523794310769,106.09818076914551,46.848509754848244,54.16675996869208,85.55227888741494,37.776300620341296,45.54563522338867,1648.8512311177328,2.999999924213625,21.587999454641253,0.0,292.15,351.15,14.708826541900635,afternoon/80cht/80cht 1
36.926534586483996,67.29188323032048,105.29284635839424,43.1094523190277,54.260816907936345,84.90289740314482,34.761311275506024,45.54563522338867,1583.7866800995807,3.0899999219400343,21.660869452800398,0.0,292.15,351.15,14.69539737701416,afternoon/80cht/80cht 1
38.85586408505305,67.85913211666353,108.36079053705808,43.66551673333653,54.718218105310214,87.37673450460434,35.20969387271405,45.06045913696289,1524.29573755993,3.2099999189085797,21.736639450886287,0.0,292.15,351.15,14.750335693359375,afternoon/80cht/80cht 1
39.677619928541155,69.16620533796676,108.36079053705808,44.950218826226006,55.77217673065663,87.37673450460434,36.245613536381725,44.73977661132812,1515.740404302435,3.259999917645473,21.81544944889538,0.0,292.15,351.15,14.778415203094482,afternoon/80cht/80cht 1
39.24821745898802,68.99523163855314,107.78555381200256,44.70094882978354,55.63431207069161,86.91289231266975,36.04461464931965,44.73977661132812,1566.2773790974484,3.2099999189085797,21.894699446893352,0.0,292.15,351.15,14.899279594421387,afternoon/80cht/80cht 1
37.87753793965656,68.59096486831928,106.59672076203043,43.512119524403346,55.308331519269935,85.95427666153908,35.08600201764107,45.142738342285156,1607.4224868827805,3.0899999219400343,21.97153944495221,0.0,292.15,351.15,15.073861598968506,afternoon/80cht/80cht 1
36.92632932862904,68.0333033855469,106.09818076914551,44.18323278156005,54.858661125743396,85.55227888741494,35.62715426101685,44.786155700683594,1630.0454197310737,3.0299999234557617,22.046279443064122,0.0,292.15,351.15,15.059211254119873,afternoon/80cht/80cht 1
35.771383931833704,67.65779913807435,105.33119846907148,43.30119789404621,54.55587323748468,84.93382263150215,34.91592533948422,45.0350227355957,1632.0658190040729,2.999999924213625,22.119989441202048,0.0,292.15,351.15,14.771090030670164,afternoon/80cht/80cht 1
36.52867972916745,67.34141887688398,105.33119846907148,42.99440347617982,54.30075998159648,84.93382263150215,34.668541629338264,45.0350227355957,1644.456555453694,3.0699999224452768,22.19355943934352,0.0,292.15,351.15,14.655109405517578,afternoon/80cht/80cht 1
35.37816249251053,67.24394714861516,105.56128866558338,42.82183395649995,54.222163643562794,85.11935588493347,34.52939017953873,45.52028274536133,1634.993078887529,2.999999924213625,22.26662943749761,0.0,292.15,351.15,14.60871696472168,afternoon/80cht/80cht 1
37.09408615560444,67.49960822735584,105.4462398227355,43.35872231547015,54.42831598048807,85.02658623876572,34.96231016256809,45.1531982421875,1615.0537752774703,3.109999921434792,22.340049435642868,0.0,292.15,351.15,14.644121646881105,afternoon/80cht/80cht 1
35.766484220772995,68.21226648391962,105.65716519768458,43.6079923119126,55.00296803837418,85.19666593637467,35.163309049630165,45.63211441040039,1633.7224164051388,3.009999923961004,22.41439943376463,0.0,292.15,351.15,14.707605838775635,afternoon/80cht/80cht 1
35.624103629365024,67.70733353644053,105.19696982629307,43.56964394582727,54.595815304660796,84.82558735170365,35.13238684072495,45.63211441040039,1644.5946361405497,3.0299999234557617,22.487959431906347,0.0,292.15,351.15,14.528140544891356,afternoon/80cht/80cht 1
35.73083648292685,67.18802041975344,104.92852751910395,43.05192789760377,54.17706712003945,84.60912886991501,34.71492645242215,45.47597122192383,1672.059314585381,2.9899999244662467,22.560979430061714,0.0,292.15,351.15,14.816261768341064,afternoon/80cht/80cht 1
35.469485588000666,66.93715210665015,103.394555429772,42.706785113652074,53.97477943017483,83.37221031918527,34.436620533370984,46.15531921386719,1680.5533076888894,2.979999924718868,22.632859428245865,0.0,292.15,351.15,14.769869327545164,afternoon/80cht/80cht 1
35.2606650411406,66.61597689547709,103.83557100123299,42.59173627080417,53.71579976587893,83.72782327022553,34.34385088720322,45.69322204589844,1695.2342348720263,2.9599999252241105,22.70429942644114,0.0,292.15,351.15,14.807715892791748,afternoon/80cht/80cht 1
35.336250460323654,66.39546879769729,103.01106427973501,43.18615279579028,53.53799303873778,83.06298219122887,34.82315871276856,45.69322204589844,1729.7754941866247,2.9599999252241105,22.77516942465081,0.0,292.15,351.15,14.839457988739015,afternoon/80cht/80cht 1
34.592662953917234,66.14779618176773,102.95353985831105,41.34538628859197,53.33828219961524,83.01659736814499,33.33885645189285,46.00970840454102,1697.3844862910944,2.9199999262345955,22.84461942289636,0.0,292.15,351.15,14.778415203094482,afternoon/80cht/80cht 1
35.745556846266034,65.77548763146898,102.99188447980444,42.265769542191116,53.03807116209864,83.04751655759813,34.081007582330706,46.024574279785156,1688.9678587370395,2.9899999244662467,22.915319421110325,0.0,292.15,351.15,14.822365760803224,afternoon/80cht/80cht 1
35.744774701782326,66.22289522137615,103.18363754400684,42.208245120767174,53.39883831786514,83.2021366604805,34.03462275924683,45.55205154418945,1691.683216244474,2.999999924213625,22.986459419313178,0.0,292.15,351.15,14.760102272033693,afternoon/80cht/80cht 1
35.766484220772995,66.10944750363309,103.43290754044925,41.6138285957811,53.30735973908901,83.40313554754258,33.55531493368149,45.55205154418945,1674.7608280337945,3.009999923961004,23.05742941752032,0.0,292.15,351.15,14.707605838775635,afternoon/80cht/80cht 1
36.13462960890581,66.3906754079613,103.79722637973957,42.150720699343246,53.53412788843514,83.69690408077241,33.988237936162946,44.5078010559082,1669.7862072424437,3.009999923961004,23.129119415709287,0.0,292.15,351.15,14.858991622924805,afternoon/80cht/80cht 1
35.713171126968994,66.40185894384756,102.62756564051412,43.05192789760377,53.543145733737965,82.75374802436829,34.71492645242215,44.70820617675781,1708.9314228415406,2.9899999244662467,23.20103941389243,0.0,292.15,351.15,14.808936595916748,afternoon/80cht/80cht 1
34.44406195557408,65.99280065617367,102.51252428685012,42.28494185293781,53.2133015417397,82.66098441710473,34.09646717705727,44.70820617675781,1721.925540831444,2.9199999262345955,23.271369412115746,0.0,292.15,351.15,14.714931011199953,afternoon/80cht/80cht 1
35.00370353355866,65.538999799623,101.59214103325097,42.227417431513885,52.84737917476296,81.91883328666688,34.050082353973394,43.99307632446289,1694.477443395484,2.949999925476732,23.341089410354467,0.0,292.15,351.15,14.76254415512085,afternoon/80cht/80cht 1
35.10300478299369,65.7243555405406,102.62756564051412,41.88227464756218,52.996840795362,82.75374802436829,33.77177643492223,44.3982048034668,1664.9135201237698,2.979999924718868,23.411929408564898,0.0,292.15,351.15,14.617262840270994,afternoon/80cht/80cht 1
34.42474771034053,65.98001630723194,102.80013890478594,42.07402022258067,53.20299288066626,82.89290249361994,33.926390498900425,44.3982048034668,1673.4279159556766,2.949999925476732,23.48403940674325,0.0,292.15,351.15,14.51837396621704,afternoon/80cht/80cht 1
34.86165434312943,66.1477955576691,102.3207787118316,41.86309859222354,53.33828169637322,82.50637035312654,33.756313820743564,43.30327606201172,1697.739813336501,2.969999924971489,23.555829404929682,0.0,292.15,351.15,14.578195571899414,afternoon/80cht/80cht 1
33.66305356451942,65.47188984692437,102.0523289154586,41.72887743862898,52.79326505755783,82.2899058324337,33.64808457984925,46.532676696777344,1701.644966413146,2.8799999272450805,23.62657940314239,0.0,292.15,351.15,14.634354591369627,afternoon/80cht/80cht 1
35.324536745711825,65.50065080943901,102.68509006193804,42.131544644004606,52.816456462615726,82.80013284745215,33.972775321984294,50.73876571655273,1668.9253582168133,2.9899999244662467,23.69713940135989,0.0,292.15,351.15,14.647784233093262,afternoon/80cht/80cht 1
34.934641856665856,65.84579421748936,103.20280985475351,41.99732349041005,53.0947628849089,83.21759625520706,33.864546081089976,49.901466369628906,1641.683447069893,2.969999924971489,23.76905939954304,0.0,292.15,351.15,14.60871696472168,afternoon/80cht/80cht 1
34.91420562654463,66.10145654442735,102.99188447980444,41.901450702900796,53.300916228318215,83.04751655759813,33.78723904910088,48.44822311401367,1645.7960575729285,2.969999924971489,23.84219939769537,0.0,292.15,351.15,14.600171089172365,afternoon/80cht/80cht 1
35.239154958541235,66.01197515126564,102.70426986186862,42.36164232970039,53.22876289781332,82.81559848108293,34.15831461431981,46.973731994628906,1643.1607868710141,2.9899999244662467,23.915189395851485,0.0,292.15,351.15,14.612379550933838,afternoon/80cht/80cht 1
34.04475445908506,66.28361658817117,103.24115447624685,41.92062301364748,53.44780099817515,83.24851544466019,33.80269864382744,46.973731994628906,1627.1728942439574,2.9099999264872167,23.98825939400558,0.0,292.15,351.15,14.60749578475952,afternoon/80cht/80cht 1
35.49938039369323,66.1190330349078,102.97271216905773,42.99440347617982,53.315089033210285,83.03205696287155,34.668541629338264,45.47400665283203,1618.4740859718665,2.999999924213625,24.06204939214149,0.0,292.15,351.15,14.658771514892578,afternoon/80cht/80cht 1
35.53490951318075,66.35072716496848,103.27950658692413,42.64926069222813,53.50191561862231,83.2794406730175,34.39023571028709,44.42353057861328,1623.0951722291568,3.009999923961004,24.13624939026704,0.0,292.15,351.15,14.612379550933838,afternoon/80cht/80cht 1
33.67990348230361,66.5728332673598,103.01106427973501,42.476687427956314,53.681010896945,83.06298219122887,34.251081241035465,44.42353057861328,1644.875146632902,2.8799999272450805,24.21025938839739,0.0,292.15,351.15,14.641679763793945,afternoon/80cht/80cht 1
35.44016726101367,65.93527685884838,102.2632542904077,42.01649580115674,53.16691722189784,82.45998553004266,33.88000567581654,43.60072708129883,1637.7754999005447,2.979999924718868,24.28330938655199,0.0,292.15,351.15,14.757660865783693,afternoon/80cht/80cht 1
35.255785547881295,66.01836779381054,103.26033427617745,42.150720699343246,53.23391760578156,83.26398107829094,33.988237936162946,42.43004608154297,1608.66269152805,2.969999924971489,24.356609384700278,0.0,292.15,351.15,14.74301052093506,afternoon/80cht/80cht 1
35.98091320998206,65.65724496374331,103.41372774051872,42.764309535075995,52.94272617491485,83.38766991391181,34.483005356454846,42.43004608154297,1601.104721576276,3.0199999237083834,24.431239382814965,0.0,292.15,351.15,14.734464645385742,afternoon/80cht/80cht 1
35.45723099401885,67.0330248941594,102.8384910154632,42.764309535075995,54.052086462163935,82.92382772197723,34.483005356454846,42.42582321166992,1628.0537905735227,2.969999924971489,24.5062593809198,0.0,292.15,351.15,14.827249526977539,afternoon/80cht/80cht 1
35.78677639348053,66.90040049697905,103.1069333226523,43.01357953151845,53.94514476596712,83.14028620376588,34.684004243516924,42.21898651123047,1639.5757515811042,2.9899999244662467,24.580079379054947,0.0,292.15,351.15,14.839457988739015,afternoon/80cht/80cht 1
35.2781068694075,66.07908728830958,103.394555429772,42.476687427956314,53.28287877636553,83.37221031918527,34.251081241035465,42.21898651123047,1628.8177114476266,2.9599999252241105,24.653319377204753,0.0,292.15,351.15,14.815040588378904,afternoon/80cht/80cht 1
35.551240230606716,66.22449416213571,103.29867889767084,41.8055741707996,53.40012762390973,83.29490026774407,33.709928997659695,43.90668106079102,1627.8044134056659,2.9899999244662467,24.727039375342432,0.0,292.15,351.15,14.74178981781006,afternoon/80cht/80cht 1
35.81277645239056,66.20532029114236,102.9343675475644,42.30411790827643,53.384666771078116,83.00113777341844,34.11192979123592,43.92127990722656,1642.159655358053,2.999999924213625,24.800829373478336,0.0,292.15,351.15,14.788182258605955,afternoon/80cht/80cht 1
35.63367702515865,66.13501245692467,102.55086890834349,41.97814743507142,53.32797404178382,82.69190360655784,33.849083466911324,44.18077087402344,1653.3907217797073,2.9899999244662467,24.873979371630412,0.0,292.15,351.15,14.775973320007324,afternoon/80cht/80cht 1
35.32159175309316,65.94646133088261,102.14820544755979,41.86309859222354,53.175935822063686,82.36721588387489,33.756313820743564,46.191062927246094,1657.5402598156961,2.9899999244662467,24.94661936979537,0.0,292.15,351.15,14.646563053131105,afternoon/80cht/80cht 1
35.24410786499594,65.88574339663019,101.34287103680849,41.92062301364748,53.12697590958477,81.7178343996048,33.80269864382744,46.191062927246094,1671.529890907244,2.969999924971489,25.01906936796513,0.0,292.15,351.15,14.7381272315979,afternoon/80cht/80cht 1
35.14111872258809,65.60611224871624,102.3782956440717,41.74805349396761,52.90149530493617,82.55274913730622,33.663547194027906,46.66563415527344,1665.7599054730713,2.979999924718868,25.09093936614954,0.0,292.15,351.15,14.633133888244627,afternoon/80cht/80cht 1
34.934641856665856,65.63327489457005,102.85766332620987,41.652180706458346,52.92339790719154,82.9392873167038,33.586240162038806,46.58547592163086,1634.5809840615855,2.969999924971489,25.1630093643289,0.0,292.15,351.15,14.60871696472168,afternoon/80cht/80cht 1
35.13905165809291,66.95632597764347,102.8384910154632,42.28494185293781,53.990240283006436,82.92382772197723,34.09646717705727,46.75011825561523,1638.1183897373535,2.9899999244662467,25.23644936247365,0.0,292.15,351.15,14.570870399475098,afternoon/80cht/80cht 1
35.23920394986279,66.20372135038282,103.26033427617745,41.8055741707996,53.38337746503354,83.26398107829094,33.709928997659695,45.3916130065918,1628.5808125023113,2.999999924213625,25.30978936062093,0.0,292.15,351.15,14.551336765289307,afternoon/80cht/80cht 1
34.9622761263883,66.22768985930946,103.778046579809,41.86309859222354,53.40270447465182,83.68143844714164,33.756313820743564,45.3916130065918,1623.7689627674933,2.979999924718868,25.38349935875885,0.0,292.15,351.15,14.558661937713625,afternoon/80cht/80cht 1
34.201155533070605,66.36031363239113,102.91518774763382,42.36164232970039,53.5096456676066,82.98567213978768,34.15831461431981,44.929725646972656,1637.6160475423685,2.9199999262345955,25.457479356889962,0.0,292.15,351.15,14.61115837097168,afternoon/80cht/80cht 1
35.58951478520256,66.31717125247116,102.60839332976744,43.09027626368907,53.47485780515671,82.73828842964173,34.745848661327365,44.61961364746094,1622.4988075027609,2.9899999244662467,25.530829355036982,0.0,292.15,351.15,14.757660865783693,afternoon/80cht/80cht 1
34.928439344378475,65.56296955674696,103.26033427617745,42.208245120767174,52.866707190865284,83.26398107829094,34.03462275924683,44.61961364746094,1619.9407574284955,2.949999925476732,25.60481935316784,0.0,292.15,351.15,14.730802059173586,afternoon/80cht/80cht 1
35.650696866976865,66.22129752881389,104.27658657269392,42.41916300653237,53.39755001830458,84.0834362212658,34.20469641795159,44.29685592651367,1576.3961328952973,3.009999923961004,25.678969351294647,0.0,292.15,351.15,14.659992694854735,afternoon/80cht/80cht 1
36.440324579295385,66.88122662598575,104.87100309767996,43.14780068511301,53.92968391313554,84.56274404683113,34.79223348441124,44.00156784057617,1574.9763831597422,3.0499999229505192,25.75509934937145,0.0,292.15,351.15,14.7393479347229,afternoon/80cht/80cht 1
35.51562054873305,67.21198861663078,104.14236541909935,42.64926069222813,54.196393878036744,83.97520698037148,34.39023571028709,44.00156784057617,1613.016760911481,2.969999924971489,25.83142934744319,0.0,292.15,351.15,14.851666450500488,afternoon/80cht/80cht 1
35.67911152999027,66.94833657868435,103.29867889767084,42.95605511009451,53.98379803034067,83.29490026774407,34.63761942043305,43.1051025390625,1652.687847182842,2.969999924971489,25.905929345561162,0.0,292.15,351.15,14.920033931732178,afternoon/80cht/80cht 1
35.445552170846135,66.31397617939605,102.78096659403927,41.99732349041005,53.47228145765664,82.87744289889335,33.864546081089976,42.57558059692383,1638.1540882296445,2.969999924971489,25.978639343724357,0.0,292.15,351.15,14.822365760803224,afternoon/80cht/80cht 1
35.43971389954712,66.16377404353797,102.41664775474892,42.59173627080417,53.351165950083725,82.58367436566353,34.34385088720322,42.189537048339844,1645.7708928146935,2.969999924971489,26.051909341873397,0.0,292.15,351.15,14.819924354553224,afternoon/80cht/80cht 1
34.26100223747592,65.87136166717558,101.82223122976283,41.99732349041005,53.11537920057179,82.1043665400982,33.864546081089976,42.189537048339844,1654.4945352498848,2.9099999264872167,26.124929340028764,0.0,292.15,351.15,14.700280666351318,afternoon/80cht/80cht 1
33.90175927065258,65.39678862297067,101.41956776897915,41.901450702900796,52.73270717796088,81.77967881741525,33.78723904910088,42.94255447387695,1648.2114856448866,2.8799999272450805,26.197499338195485,0.0,292.15,351.15,14.7381272315979,afternoon/80cht/80cht 1
34.36058997166466,65.62049272997359,100.3266112511082,41.97814743507142,52.91309100746514,80.89837321772576,33.849083466911324,43.77154159545898,1670.0563389861456,2.9099999264872167,26.27035933635489,0.0,292.15,351.15,14.74301052093506,afternoon/80cht/80cht 1
33.397524482539694,65.30730785390763,101.36204334755524,41.46043138684791,52.66055435069799,81.73329399433136,33.43162307860852,44.88529968261719,1682.4135527273602,2.8699999274977017,26.342309334537283,0.0,292.15,351.15,14.583078861236572,afternoon/80cht/80cht 1
33.98475016287157,65.35524393561293,100.86350335467036,45.16114045658314,52.699207615071536,81.33129622020722,36.41569021453858,46.01588821411133,1691.6207623080911,2.899999926739838,26.413679332734322,0.0,292.15,351.15,14.645342350006105,afternoon/80cht/80cht 1
33.65743765649606,65.09958129662562,100.17321029758304,41.172813024320156,52.49305402004123,80.77467834320068,33.19970198264122,46.01588821411133,1671.167806565376,2.8799999272450805,26.484679330940708,0.0,292.15,351.15,14.631913185119627,afternoon/80cht/80cht 1
34.30053700202137,64.94458577103156,100.99772450826491,41.36455859933865,52.368073362165696,81.43952546110155,33.35431604661942,46.51161575317383,1661.806361994812,2.8799999272450805,26.556499329126385,0.0,292.15,351.15,14.91148805618286,afternoon/80cht/80cht 1
34.925544915759595,65.28333809678368,101.53461661182705,41.46043138684791,52.64122633459568,81.872448463583,33.43162307860852,46.77322006225586,1645.2918707668218,2.949999925476732,26.628779327300435,0.0,292.15,351.15,14.729581356048586,afternoon/80cht/80cht 1
35.1616414369677,65.31689338518231,102.4549998654262,41.134464658234855,52.66828364481927,82.61459959402085,33.16877977373601,46.83446502685547,1622.8553890717212,2.979999924718868,26.70173932545731,0.0,292.15,351.15,14.641679763793945,afternoon/80cht/80cht 1
35.35103362971007,65.71796383414372,102.57004870827406,41.4220830207626,52.9916868422568,82.70736924018858,33.400700869703286,45.89787292480469,1606.1958830295075,2.9899999244662467,26.77572932358817,0.0,292.15,351.15,14.658771514892578,afternoon/80cht/80cht 1
35.419644546634046,66.00877882999323,102.97271216905773,42.2465934868525,53.22618554382921,83.03205696287155,34.065544968152054,45.89787292480469,1596.3169611159656,2.979999924718868,26.850489321699573,0.0,292.15,351.15,14.749114990234375,afternoon/80cht/80cht 1
35.892602987780535,66.29639875276763,102.99188447980444,42.054847911833996,53.458107897901534,83.04751655759813,33.91093090417385,45.29460525512695,1612.9520380683014,2.999999924213625,26.925719319799104,0.0,292.15,351.15,14.821145057678224,afternoon/80cht/80cht 1
35.483505495439076,66.3683039674982,103.60547331553721,42.45751511720962,53.516088675135364,83.54228397789001,34.2356216463089,43.7547607421875,1651.9537824850436,2.969999924971489,27.00021931791707,0.0,292.15,351.15,14.838236808776855,afternoon/80cht/80cht 1
33.83449734980076,65.8857421484329,101.74553449759222,41.74805349396761,53.126974903100745,82.04252212228775,33.663547194027906,43.7547607421875,1661.6781482991644,2.8599999277503234,27.0729593160795,0.0,292.15,351.15,14.839457988739015,afternoon/80cht/80cht 1
34.508548510002065,65.30570922519739,101.266166815454,42.265769542191116,52.65926529627443,81.65598394289017,34.081007582330706,43.23791122436523,1653.3058566768054,2.9099999264872167,27.145219314254064,0.0,292.15,351.15,14.80649471282959,afternoon/80cht/80cht 1
34.124424868702825,65.37282042609336,101.7263621868455,40.770145818944506,52.7133804199636,82.02706252756118,32.875011240506176,42.986900329589844,1640.9337537417505,2.9099999264872167,27.217849312419283,0.0,292.15,351.15,14.641679763793945,afternoon/80cht/80cht 1
33.556893367398864,65.55338184112696,101.76470680833891,41.901450702900796,52.85897613539696,82.05798171701431,33.78723904910088,42.986900329589844,1638.530651253263,2.8699999274977017,27.29101931057085,0.0,292.15,351.15,14.65266752243042,afternoon/80cht/80cht 1
35.62190050449959,65.74512679204682,101.7263621868455,42.208245120767174,53.01358969613314,82.02706252756118,34.03462275924683,42.69781494140625,1651.7322709166822,2.9899999244662467,27.36431930871913,0.0,292.15,351.15,14.771090030670164,afternoon/80cht/80cht 1
34.29912592227524,65.23380369841749,102.49334448691955,41.23033744574408,52.601284267419565,82.64551878347397,33.2460868057251,44.21245574951172,1645.312445735971,2.8899999269924592,27.43703930688207,0.0,292.15,351.15,14.845561981201172,afternoon/80cht/80cht 1
35.38132434483293,65.7227572238797,101.99480449403464,42.150720699343246,52.995551992559434,82.24352100934982,33.988237936162946,44.3157958984375,1642.202074097841,2.969999924971489,27.51000930503869,0.0,292.15,351.15,14.795507431030273,afternoon/80cht/80cht 1
34.506023972133434,65.49106434201636,101.93728007261076,41.99732349041005,52.80872641363146,82.19713618626595,33.864546081089976,44.3157958984375,1654.4958835649002,2.899999926739838,27.583149303191018,0.0,292.15,351.15,14.86997938156128,afternoon/80cht/80cht 1
35.624845497118265,65.53740241911011,101.24699450470732,41.26868581182941,52.846091126823424,81.64052434816361,33.27700901463032,44.49303436279297,1675.334285523556,2.9899999244662467,27.655749301356988,0.0,292.15,351.15,14.772311210632324,afternoon/80cht/80cht 1
33.74981273430883,65.12994182399848,101.266166815454,41.93979906898611,52.51753523438574,81.65598394289017,33.8181612580061,44.250328063964844,1656.8981611493155,2.8699999274977017,27.727449299545693,0.0,292.15,351.15,14.736906051635742,afternoon/80cht/80cht 1
34.862387063900684,65.20823780897796,102.28242660115437,41.019415815386964,52.58066920986175,82.4754451247692,33.07601012756825,44.583717346191406,1621.6754202414165,2.9599999252241105,27.799889297715712,0.0,292.15,351.15,14.640459060668945,afternoon/80cht/80cht 1
35.336313266370894,65.8473931582489,102.359123333325,41.59465628503441,53.09605219095349,82.53728954257966,33.53985533895493,44.583717346191406,1627.1219121066697,2.9899999244662467,27.873919295845557,0.0,292.15,351.15,14.65266752243042,afternoon/80cht/80cht 1
33.81115322924277,65.95924474367638,101.59214103325097,41.38373465467728,53.18624372827411,81.91883328666688,33.369778660798076,44.61954116821289,1656.0776526406814,2.8899999269924592,27.947759293980198,0.0,292.15,351.15,14.634354591369627,afternoon/80cht/80cht 1
35.22075135893785,65.12195211299003,102.12902564762922,42.07402022258067,52.511092730098966,82.35175025024414,33.926390498900425,45.02670288085938,1633.8328805579615,2.969999924971489,28.02030929214743,0.0,292.15,351.15,14.728360176086426,afternoon/80cht/80cht 1
35.463902575055535,65.57735003800427,102.62756564051412,41.84392628147686,52.87830289339422,82.75374802436829,33.740854226017,44.70808410644531,1598.5851297626755,2.999999924213625,28.093769290291675,0.0,292.15,351.15,14.644121646881105,afternoon/80cht/80cht 1
35.088345046943715,66.4082503381951,103.3753831190253,42.764309535075995,53.548299435222155,83.35675072445868,34.483005356454846,44.70808410644531,1604.3287503219922,2.979999924718868,28.168879288394237,0.0,292.15,351.15,14.61115837097168,afternoon/80cht/80cht 1
35.36929274916008,66.11104426004735,102.742614483362,41.690529072543676,53.308647283786534,82.84651767053604,33.617162370944015,44.57306671142578,1626.854120100975,2.999999924213625,28.24376928650236,0.0,292.15,351.15,14.60505437850952,afternoon/80cht/80cht 1
35.446163088354616,66.06630325141717,102.72344217261532,41.63300465111973,53.27257036691308,82.8310580758095,33.570777547860146,45.11956024169922,1628.8401443755945,2.999999924213625,28.317609284636998,0.0,292.15,351.15,14.636796474456787,afternoon/80cht/80cht 1
35.08623653931567,65.91130866197108,101.0552489296888,42.09319627791931,53.14759046390056,81.48591028418541,33.94185311307908,44.74187850952148,1657.4400436622846,2.9599999252241105,28.39132928277468,0.0,292.15,351.15,14.734464645385742,afternoon/80cht/80cht 1
33.8169158824733,65.99759467000833,100.30743894036152,43.492947213656656,53.21716719528437,80.8829136229992,35.07054242291451,44.74187850952148,1700.8506608978812,2.8699999274977017,28.463849280942675,0.0,292.15,351.15,14.766206741333008,afternoon/80cht/80cht 1
34.15287834828049,65.00850127475371,99.78971914754604,41.34538628859197,52.41961163511277,80.46545021524429,33.33885645189285,44.63233947753906,1693.9498895101542,2.9099999264872167,28.534489279158148,0.0,292.15,351.15,14.65388822555542,afternoon/80cht/80cht 1
34.0476005849765,64.6186171701225,99.69385010462871,41.172813024320156,52.10522854756713,80.3881462027073,33.19970198264122,44.33691024780273,1673.8694006674689,2.9099999264872167,28.605349277368077,0.0,292.15,351.15,14.60871696472168,afternoon/80cht/80cht 1
33.66586261538815,64.5547010423017,100.0198168332418,41.6138285957811,52.05368977137805,80.65098950757981,33.55531493368149,43.82014465332031,1674.0606972368093,2.8799999272450805,28.677079275556025,0.0,292.15,351.15,14.635575771331787,afternoon/80cht/80cht 1
33.53106436997175,64.75124156730283,99.38705568676235,40.73179745285921,52.212170243763936,80.14076249256134,32.844089031600944,43.82014465332031,1681.5468206527707,2.8799999272450805,28.74881927374372,0.0,292.15,351.15,14.576974868774414,afternoon/80cht/80cht 1
33.92242387438321,64.7192836594171,101.22782219396065,40.885190917200454,52.18640098147989,81.62506475343704,32.967777867221834,43.45939254760742,1628.0148834276722,2.899999926739838,28.820239271939503,0.0,292.15,351.15,14.618483543395994,afternoon/80cht/80cht 1
34.087435234118466,64.98613201863594,101.63048565474436,41.326210233253335,52.401574183160065,81.94975247612,33.3233938377142,43.88129043579102,1612.5145204794794,2.9099999264872167,28.893949270077428,0.0,292.15,351.15,14.625808715820312,afternoon/80cht/80cht 1
34.83622261830768,66.02315931125054,102.57004870827406,41.15363696898152,53.23778124635815,82.70736924018858,33.184239368462556,44.0584831237793,1579.4615248839941,2.9599999252241105,28.968479268194642,0.0,292.15,351.15,14.62947130203247,afternoon/80cht/80cht 1
35.20561950000468,65.94166794114662,103.14528543332958,42.28494185293781,53.17207067176105,83.17121143212319,34.09646717705727,44.0584831237793,1568.1011313916754,2.979999924718868,29.044459266275226,0.0,292.15,351.15,14.659992694854735,afternoon/80cht/80cht 1
34.850758799902174,65.70997505928328,101.20864239403005,41.82475022613823,52.98524509283304,81.6095991198063,33.72539161183834,45.36837768554688,1635.5633886638914,2.9599999252241105,30.33771923360473,0.0,292.15,351.15,14.635575771331787,afternoon/80cht/80cht 2
33.85696127160569,65.80744491525608,101.70718987609884,41.72887743862898,53.06383992114068,82.01160293283462,33.64808457984925,44.52666854858398,1626.55080294585,2.9099999264872167,30.411159231749483,0.0,292.15,351.15,14.526919841766356,afternoon/80cht/80cht 2
33.696753400087786,65.30251352802364,101.68801007616828,41.92062301364748,52.656688445532325,81.99613729920387,33.80269864382744,44.123817443847656,1608.6219957302594,2.8799999272450805,30.48496922988488,0.0,292.15,351.15,14.649004936218262,afternoon/80cht/80cht 2
34.731594454935205,65.548587515243,102.41664775474892,41.901450702900796,52.8551102302313,82.58367436566353,33.78723904910088,44.123817443847656,1619.4119710797142,2.949999925476732,30.559619227999068,0.0,292.15,351.15,14.647784233093262,afternoon/80cht/80cht 2
33.92525653542552,65.58214342774028,101.0744212404355,41.901450702900796,52.88216804369688,81.50136987891197,33.78723904910088,44.02681350708008,1637.7701372190577,2.899999926739838,30.633809226124875,0.0,292.15,351.15,14.619704246520994,afternoon/80cht/80cht 2
33.713603317871964,65.44153025569952,100.5375291368734,41.70970138329035,52.768784598076365,81.06844687643051,33.63262196567059,43.63020706176758,1664.292112737352,2.8799999272450805,30.707149224272147,0.0,292.15,351.15,14.656330108642578,afternoon/80cht/80cht 2
33.49258691176222,64.91742218902979,100.24991451893754,41.0769402368109,52.346170005047334,80.83652879991531,33.12239495065212,44.02899932861328,1666.0008632961192,2.8699999274977017,30.779339222448467,0.0,292.15,351.15,14.624588012695312,afternoon/80cht/80cht 2
33.996081913549034,64.76881868188191,100.3266112511082,41.05776418147227,52.22634355189801,80.89837321772576,33.10693233647347,44.02899932861328,1667.894551339056,2.899999926739838,30.851399220628082,0.0,292.15,351.15,14.650225639343262,afternoon/80cht/80cht 2
33.656017586653235,64.89505137266535,100.36496336178543,41.40290696542397,52.328131294989575,80.92929844608305,33.38523825552464,43.9571647644043,1664.7969285260242,2.8899999269924592,30.92340921880896,0.0,292.15,351.15,14.56720781326294,afternoon/80cht/80cht 2
33.38355589137078,64.81995139690898,100.65257797972126,44.54755162085036,52.26757442187667,81.16121652259827,35.92092279424668,44.53313446044922,1646.4317643487964,2.8599999277503234,30.99552921698705,0.0,292.15,351.15,14.641679763793945,afternoon/80cht/80cht 2
34.68238238459725,65.0356651688048,101.18947008328337,41.72887743862898,52.44151524385214,81.59413952507974,33.64808457984925,44.53313446044922,1635.9968448198342,2.949999925476732,31.068449215144934,0.0,292.15,351.15,14.627029418945312,afternoon/80cht/80cht 2
33.740636727606805,65.09798391611272,101.61131334399765,41.38373465467728,52.49176597210169,81.93429288139345,33.369778660798076,44.507728576660156,1616.6392773227585,2.8899999269924592,31.141849213290698,0.0,292.15,351.15,14.603833198547365,afternoon/80cht/80cht 2
34.042447090204895,65.19385732772064,101.89893545111734,40.96189139396302,52.56907350733281,82.1662169968128,33.02962530448437,44.60905075073242,1623.7999126792165,2.8899999269924592,31.21610921141473,0.0,292.15,351.15,14.734464645385742,afternoon/80cht/80cht 2
34.25955147922228,65.49905342892613,101.22782219396065,41.09611254755758,52.8151684146762,81.62506475343704,33.13785454537869,44.55835723876953,1637.1881959960647,2.899999926739838,31.290099209545588,0.0,292.15,351.15,14.76376485824585,afternoon/80cht/80cht 2
34.23989285411253,64.30702998661879,99.36787588683175,41.6138285957811,51.853980190360545,80.1252968589306,33.55531493368149,45.63210678100586,1645.0906818992962,2.8899999269924592,31.36345920769236,0.0,292.15,351.15,14.819924354553224,afternoon/80cht/80cht 2
36.03755735776925,64.97494598635508,101.43874007972583,41.46043138684791,52.392554324889204,81.79513841214181,33.43162307860852,45.63210678100586,1638.8229492780652,3.0199999237083834,31.43646920584797,0.0,292.15,351.15,14.757660865783693,afternoon/80cht/80cht 2
34.343281008872964,65.28493610139523,102.0523289154586,41.6138285957811,52.64251488577725,82.2899058324337,33.55531493368149,45.9189567565918,1596.07392495747,2.9299999259819742,31.509729203997267,0.0,292.15,351.15,14.60871696472168,afternoon/80cht/80cht 2
36.23404874268796,65.34725391255516,102.70426986186862,42.30411790827643,52.69276485916377,82.81559848108293,34.11192979123592,45.918922424316406,1589.646288664198,3.0399999232031405,31.584929202097555,0.0,292.15,351.15,14.716151714324953,afternoon/80cht/80cht 2
36.30964360848654,66.44979564965148,102.87684312614046,45.79390160306258,53.581799501353494,82.95475295033455,36.92591722955704,46.18265151977539,1589.1048437371066,3.0299999234557617,31.660519200187988,0.0,292.15,351.15,14.807715892791748,afternoon/80cht/80cht 2
36.68343844971035,65.85218686003428,102.53169659759679,41.59465628503441,53.09991759287716,82.6764440118313,33.53985533895493,46.18265151977539,1601.1787469271985,3.059999922697898,31.736079198279185,0.0,292.15,351.15,14.777194499969482,afternoon/80cht/80cht 2
36.69645249232261,66.04553075171363,101.2853466153846,42.41916300653237,53.255820459657905,81.67144957652094,34.20469641795159,44.70597839355469,1620.0648959639095,3.0899999219400343,31.811129196383266,0.0,292.15,351.15,14.603833198547365,afternoon/80cht/80cht 2
36.85040394627559,65.61090563845224,101.32369123687796,41.958975124324745,52.90536045523882,81.70236876597404,33.833623872184766,44.80095291137695,1634.6331774811124,3.099999921687413,31.885269194510325,0.0,292.15,351.15,14.60627508163452,afternoon/80cht/80cht 2
35.96651655598024,65.12514687401581,100.19239009751364,41.40290696542397,52.51366882597805,80.79014397683143,33.38523825552464,44.30944061279297,1673.6062697722848,3.0399999232031405,31.958759192653808,0.0,292.15,351.15,14.60749578475952,afternoon/80cht/80cht 2
35.7981824224749,64.74165447578149,99.88559567964724,37.721373951027374,52.204439691537615,80.54276026668549,30.416633733773235,44.30944061279297,1692.815897429692,3.0399999232031405,32.030559190839995,0.0,292.15,351.15,14.539128303527832,afternoon/80cht/80cht 2
34.21125700103856,64.55310334973943,99.61714588327423,41.09611254755758,52.0524014718175,80.32629574599267,33.13785454537869,43.69560623168945,1699.581160891878,2.9299999259819742,32.101489189048145,0.0,292.15,351.15,14.552557468414307,afternoon/80cht/80cht 2
34.80046835209064,64.75443664037795,99.15695800106657,40.693445342181946,52.21474659126401,79.95522320022583,32.81316380324364,44.48471450805664,1714.530515695812,2.9899999244662467,32.17214918726313,0.0,292.15,351.15,14.430472373962402,afternoon/80cht/80cht 2
34.48145350259813,64.16162061639805,97.39288822603892,40.559224188587386,51.73672932984831,78.53276535716056,32.70493456234932,43.80318069458008,1723.753285687305,2.979999924718868,32.24219918549352,0.0,292.15,351.15,14.358442306518555,afternoon/80cht/80cht 2
32.54569635272201,63.7046253108709,98.14069821536629,40.578396499334076,51.368231118613494,79.1357620183468,32.720394157075894,43.80318069458008,1708.0049267262061,2.8599999277503234,32.311859183733766,0.0,292.15,351.15,14.274203300476074,afternoon/80cht/80cht 2
33.21390907688219,64.09291172293989,98.04482917244893,40.42500303499282,51.681325906598566,79.05845800580978,32.596705321455005,43.813697814941406,1714.9076687113654,2.9099999264872167,32.382139181958344,0.0,292.15,351.15,14.251007080078125,afternoon/80cht/80cht 2
30.738447749689822,63.57839293213679,97.14361822959648,40.38665092431556,51.266443627142905,78.3317664700985,32.56578009309769,44.20185089111328,1708.7612897753643,2.739999930781778,32.45217918018898,0.0,292.15,351.15,14.24001932144165,afternoon/80cht/80cht 2
36.29947208252028,63.34510204566189,97.603813600988,39.29369815103654,51.078329497033366,78.70284505476954,31.684477512860305,44.20185089111328,1669.2948614589038,3.1299999209295493,32.522429178414306,0.0,292.15,351.15,14.2168231010437,afternoon/80cht/80cht 2
50.174656209487,63.08944003077323,101.36204334755524,39.14030094210335,50.87217640524508,81.73329399433136,31.560785657787324,45.17021560668945,1485.8276829966812,4.059999897435773,32.59432917659797,0.0,292.15,351.15,14.358442306518555,afternoon/80cht/80cht 2
49.164251068859755,66.82050775558534,111.52461124782312,46.139048131606216,53.88072324579358,89.92788165750505,37.204226168060295,44.93385314941406,1166.9196868571644,3.9299999007198494,32.675279174553,0.0,292.15,351.15,14.619704246520994,afternoon/80cht/80cht 2
50.3970529419033,72.69593946009101,113.5762956407866,49.49461067279781,58.618378200137606,91.5822575770855,39.909984365487105,45.06884002685547,1184.7751954172704,3.519999911077321,32.778599171942915,0.0,292.15,351.15,17.095592498779293,afternoon/80cht/80cht 2
47.33399501910244,72.18621249877728,108.53336380132991,47.327873692394505,58.20735981287956,87.515888973856,38.16283578028679,45.78816223144531,1470.7051593472281,3.2299999184033372,32.88240916932045,0.0,292.15,351.15,17.831766605377194,afternoon/80cht/80cht 2
44.75537106476518,69.1006924537317,106.13653287982277,44.758473251207505,55.71935040977002,85.58320411577225,36.09099947240353,45.78816223144531,1593.3137782869214,3.139999920676928,32.96474916724037,0.0,292.15,351.15,17.45940637588501,afternoon/80cht/80cht 2
38.98806411126991,67.14807467315524,102.33995102257829,42.39999069578569,54.14485686319468,82.52182994785309,34.18923682322502,45.796653747558594,1652.119421700199,3.0899999219400343,33.04024916533308,0.0,292.15,351.15,15.515810012817385,afternoon/80cht/80cht 2
36.165751333889254,66.32995466526492,100.38413567253212,42.34246627436174,53.48516571136713,80.94475804080962,34.14285200014115,45.59000778198242,1714.9892496859106,3.0199999237083834,33.1130291634945,0.0,292.15,351.15,14.810157299041748,afternoon/80cht/80cht 2
34.19396316391753,65.17468189648065,99.67467030469817,41.15363696898152,52.55361139639616,80.37268056907655,33.184239368462556,45.15327453613281,1741.5917805413446,2.9899999244662467,33.183099161724385,0.0,292.15,351.15,14.178977012634276,afternoon/80cht/80cht 2
32.384101375265395,64.66655387592645,97.43124033671616,41.05776418147227,52.14388231518269,78.56369058551789,33.10693233647347,45.15327453613281,1771.186224999772,2.899999926739838,33.252049159982555,0.0,292.15,351.15,13.95556092262268,afternoon/80cht/80cht 2
30.982636736508926,63.530454978135516,96.56838150454095,40.578396499334076,51.22778885304333,77.86792427816391,32.720394157075894,44.88752746582031,1809.6079540037479,2.7999999292660505,33.319869158269285,0.0,292.15,351.15,13.960444450378418,afternoon/80cht/80cht 2
29.626729354990513,62.49822076320757,94.53586942232417,37.01191232778535,50.39544668852688,76.22900795331002,29.844559281492234,44.216651916503906,1823.8876533658402,2.6999999317922634,33.386239156592644,0.0,292.15,351.15,13.987303018569946,afternoon/80cht/80cht 2
29.894169044863162,61.927774931493424,93.42373310452265,38.73762999213577,49.93546763392687,75.33223671998978,31.236091896200186,44.216651916503906,1826.2983528237241,2.7199999312870204,33.452059154929884,0.0,292.15,351.15,13.979978084564207,afternoon/80cht/80cht 2
29.02754908355391,61.1464068453235,92.75262733654979,39.197825363527286,49.30541139792801,74.79109051551819,31.607170480871204,44.199867248535156,1814.286343830349,2.659999932802748,33.517799153269145,0.0,292.15,351.15,13.971431970596313,afternoon/80cht/80cht 2
30.286828732539714,60.90193023861705,93.78805194381292,38.08569279031769,49.10827766116858,75.62600525321959,30.710402267003058,43.90025329589844,1770.0501700285113,2.7499999305291567,33.58395915159781,0.0,292.15,351.15,13.965327739715574,afternoon/80cht/80cht 2
31.25456338836184,61.12563496971862,94.57421404381752,38.85267883498366,49.28866199391485,76.25992714276316,31.32886154236794,43.594444274902344,1691.1022142714253,2.809999929013429,33.65175914988504,0.0,292.15,351.15,14.019045352935793,afternoon/80cht/80cht 2
31.78000222911286,61.998081205464494,96.99022476525523,39.562140458225656,49.99215910511614,78.20807763447762,31.900935994648933,43.594444274902344,1628.882701473179,2.8299999285081867,33.722719148092445,0.0,292.15,351.15,14.126480102539062,afternoon/80cht/80cht 2
31.852371972166143,62.81140657542152,98.19822263679018,39.58131651356429,50.64798410015703,79.18214684143068,31.916398608827592,43.24634552001953,1608.0324510452433,2.7999999292660505,33.79640914623087,0.0,292.15,351.15,14.352337837219238,afternoon/80cht/80cht 2
33.3218267038709,63.66148293095094,98.8885156938775,40.75096976360589,51.333443256163605,79.73876471843721,32.859548626327516,43.183006286621094,1584.386331678621,2.899999926739838,33.871089144344296,0.0,292.15,351.15,14.359663009643555,afternoon/80cht/80cht 2
35.485560211584286,63.99384323825686,100.88267566541704,41.019415815386964,51.60144202386738,81.3467558149338,33.07601012756825,43.183006286621094,1509.2701570466952,3.0399999232031405,33.946859142430185,0.0,292.15,351.15,14.412159442901613,afternoon/80cht/80cht 2
37.864443187423326,64.98613139453728,103.33703100834808,42.18906906542856,52.40157367991805,83.32582549610139,34.01916014506817,43.64075469970703,1427.7292266767922,3.1799999196664435,34.02636914042159,0.0,292.15,351.15,14.541569709777832,afternoon/80cht/80cht 2
36.52699245501394,66.63675001927928,104.64090541198424,43.28202558329952,53.7325501763761,84.37720475449562,34.900465744757646,44.81357192993164,1415.108358624058,3.099999921687413,34.110449138297554,0.0,292.15,351.15,14.4780855178833,afternoon/80cht/80cht 2
38.10604350621987,67.2407514514414,105.19696982629307,44.49002719942644,54.2195867928207,84.82558735170365,35.874537971162795,45.30302810668945,1451.3249660410447,3.1799999196664435,34.19541913615103,0.0,292.15,351.15,14.634354591369627,afternoon/80cht/80cht 2
37.25697780810907,67.63862495503174,103.85474331197966,43.30119789404621,54.540412133032106,83.74328286495209,34.91592533948422,45.665794372558594,1515.0713927550896,3.099999921687413,34.2782991340573,0.0,292.15,351.15,14.767427444458008,afternoon/80cht/80cht 2
35.90340041078178,66.67989208714994,102.57004870827406,42.89853068867057,53.76733778720498,82.70736924018858,34.59123459734917,46.21845626831055,1582.493141689997,3.0199999237083834,34.35771913205099,0.0,292.15,351.15,14.702722549438475,afternoon/80cht/80cht 2
35.46959330241607,66.02795488533185,101.01689681901159,42.265769542191116,53.24164815800787,81.45498505582809,34.081007582330706,46.21845626831055,1644.376324135947,3.009999923961004,34.43370913013132,0.0,292.15,351.15,14.58552074432373,afternoon/80cht/80cht 2
36.089761839369174,65.32168708696766,100.19239009751364,41.38373465467728,52.67214904674292,80.79014397683143,33.369778660798076,45.805030822753906,1658.9464554407348,3.0399999232031405,34.506819128284405,0.0,292.15,351.15,14.657550811767578,afternoon/80cht/80cht 2
34.88146032917731,64.98133738070261,100.13486567608969,41.59465628503441,52.39770802637339,80.74375915374756,33.53985533895493,45.288185119628906,1657.756989628455,2.999999924213625,34.579189126456185,0.0,292.15,351.15,14.403613567352295,afternoon/80cht/80cht 2
34.050109691067966,64.69691440329932,99.29117915466114,40.96189139396302,52.168363529527205,80.06345244112016,33.02962530448437,45.42969131469727,1678.991042741528,2.939999925729353,34.6516291246262,0.0,292.15,351.15,14.421926498413086,afternoon/80cht/80cht 2
34.04263564592949,64.20955919449797,98.92686031537085,41.15363696898152,51.77538460718989,79.76968390789033,33.184239368462556,45.42969131469727,1705.8940064766207,2.949999925476732,34.72317912281869,0.0,292.15,351.15,14.357221126556395,afternoon/80cht/80cht 2
