air_wt_real_ug,air_wt_SMAP_ug,air_wt_PreMAP_ug,air_wt_PostMAP_ug,SMAP,PreMAP,PostMAP,RPM,CHT_K,MAT_K,TPS
55.88330421627617,72.88902543038823,108.03179660044603,55.69267121885744,64.60712576820852,95.75685542120934,49.36467997148037,3548.1964231654365,386.0,316.0,0.21
55.419069926295705,72.86140543469078,107.83120076094916,55.49207197284902,64.582644050622,95.5790519651413,49.186873495960235,3550.2959476761853,386.0,316.0,0.21
55.452229121966795,72.96606709574264,107.86608343928435,55.082149404736775,64.67541369678973,95.60997115459442,48.823527728104594,3510.8251325762158,386.0,316.0,0.21
55.42380827581661,72.94208156399966,108.1364582614979,56.08514904129051,64.6541534829676,95.84962506737709,49.71256312515736,3474.2328613623354,386.0,316.0,0.21
55.954360957139265,72.8279713753948,108.34578158360172,55.631619718747686,64.55300888317227,96.03516435971261,49.31056535103321,3500.5835190039397,386.0,316.0,0.21
55.91172691262141,72.95371167832842,107.65676693020367,55.68395054927363,64.66446214404105,95.4244379011631,49.35695017411709,3516.998916513923,386.0,316.0,0.21
55.90225206377465,72.97915008725012,107.97074510033627,55.3699689726295,64.68701015418172,95.70274080076219,49.07864425506592,3510.8251325762158,386.0,316.0,0.21
55.85961801925679,73.12233059384748,108.09284810055577,56.10259378696967,64.81392200329303,95.8109700416565,49.72802573933602,3468.208180099857,386.0,316.0,0.21
55.93541125944574,72.93336089441588,108.36322292276931,55.954325371487194,64.64642368560435,96.05062395443916,49.59660408689976,3486.345236242157,386.0,316.0,0.21
56.21489987337721,73.19719265955789,107.82248009136535,56.041542286859915,64.88027798577546,95.57132216777802,49.67391111888886,3480.278510193012,386.0,316.0,0.21
56.24332256972245,72.9057417503463,107.80503193917461,55.84094304085149,64.62194272288083,95.55585653414727,49.496104643368724,3510.8251325762158,386.0,316.0,0.21
56.622288770667204,72.87884876099012,108.39811241412767,55.34380355736653,64.59810540669561,96.08154918279648,49.05545184352398,3519.061672476688,386.0,316.0,0.21
56.19595202587874,72.96969985644137,108.14517893108172,55.74500204938339,64.6786336908281,95.85735486474037,49.41106479456425,3523.1944518923974,386.0,316.0,0.21
55.906988563100505,72.5612327203915,104.35122437655441,55.35252422695034,64.31657798388004,92.49448236622811,49.063181640887265,3531.489200454828,386.0,316.0,0.21
55.89751556444879,72.0103095292019,107.4561642776837,55.2740279811614,63.82825256463291,95.24662840619088,48.99360440626145,3539.8230982730106,386.0,316.0,0.21
55.86909286810355,71.96088672404106,103.98491537589588,54.576289251668015,63.78444534715414,92.16979464354516,48.37514513089657,3544.004814868726,386.0,316.0,0.21
55.89751556444879,72.06554810121699,107.81375260875842,55.431020472739256,63.8772147417009,95.56358633151055,49.132758875513076,3514.938577371267,386.0,316.0,0.21
55.87382936742941,72.9682466953867,108.04924475263674,55.90199454096123,64.67734564288855,95.77232105484009,49.55021926381588,3494.4671820458666,386.0,316.0,0.21
55.854881519930935,72.79599303203717,108.1015755831627,55.5880129643171,64.52466402825117,95.81870587792397,49.27191334476471,3529.411853866325,386.0,316.0,0.21
56.186477177031975,72.90646847281164,108.49405340559575,55.8583843800191,64.62258687266113,96.16658903160095,49.51156423809529,3521.1268495145264,386.0,316.0,0.21
56.1675293295335,73.0816290260224,108.01435526127838,55.954325371487194,64.77784508641959,95.74139582648277,49.59660408689976,3506.721304250586,386.0,316.0,0.21
56.14857963183997,73.00313391573732,107.787590600007,56.36424453308787,64.7082688582778,95.5403969394207,49.959946835303306,3484.3206455126324,386.0,316.0,0.21
56.12489528501565,72.93481405547054,107.96202443075248,55.56184754905413,64.64771173354387,95.6950110033989,49.24872093322277,3490.4014843355167,386.0,316.0,0.21
56.162790980012595,73.07581467854793,108.35450225318552,55.84094304085149,64.77269138493538,96.04289415707589,49.496104643368724,3498.542362433092,386.0,316.0,0.21
56.17226582885936,73.27423460878829,108.1277375919141,56.02409754118075,64.94856616597771,95.84189527001381,49.6584485047102,3486.345236242157,386.0,316.0,0.21
56.186477177031975,73.09398472731263,108.25856126171742,56.111314456553494,64.7887968907893,95.95785430827141,49.7357555366993,3488.3721811469495,386.0,316.0,0.21
56.9586209270941,73.08817009596217,108.31089209224339,56.02409754118075,64.78364293768406,96.00423913135529,49.6584485047102,3468.208180099857,386.0,316.0,0.21
56.60807742249459,73.01621577174092,108.09284810055577,56.111314456553494,64.71986430918575,95.8109700416565,49.7357555366993,3496.5035848326065,386.0,316.0,0.21
56.63176176931891,73.01403560434495,108.34578158360172,55.66650580359448,64.71793185984491,96.03516435971261,49.341487559938436,3512.8806508037196,386.0,316.0,0.21
56.153317981360885,73.06564028015754,107.59571543009393,55.954325371487194,64.76367303639056,95.37032328071595,49.59660408689976,3529.411853866325,386.0,316.0,0.21
56.186477177031975,72.9587981678337,108.08412743097198,56.1810900327586,64.66897068926096,95.80324024429322,49.79760297396183,3480.278510193012,386.0,316.0,0.21
56.186477177031975,72.99586583945624,108.19750976160768,55.50951671852818,64.70182660561203,95.90373968782426,49.202336110138894,3494.4671820458666,386.0,316.0,0.21
56.2006885252046,73.11651624637301,108.0230759308622,56.23342086328456,64.80876830180883,95.74912562384606,49.84398779704571,3484.3206455126324,386.0,316.0,0.21
56.191213676357826,73.00095403221734,107.90969360022652,55.89327046486588,64.706336660558,95.64862618031502,49.542486447000506,3512.8806508037196,386.0,316.0,0.21
55.878567716950315,73.01258244329028,108.22367858338221,55.59673363390091,64.71664381190537,95.92693511881829,49.279643142127995,3496.5035848326065,386.0,316.0,0.21
55.86435636877769,73.00749481828116,107.20323079463775,55.7362813797996,64.71213426020147,95.02243408813477,49.40333499720097,3506.721304250586,386.0,316.0,0.21
56.186477177031975,73.17175425063621,108.83420039750288,55.72756071021578,64.85772997563483,96.46808736219407,49.39560519983769,3546.0993803621473,386.0,316.0,0.21
56.1675293295335,73.06709457671604,107.93586242200105,55.48335130326521,64.76496209081411,95.67182161130906,49.17914369859696,3550.2959476761853,386.0,316.0,0.21
56.17226582885936,72.81634353207377,108.14517893108172,55.30019339642439,64.5427022350669,95.85735486474037,49.01679681780339,3541.912722297965,386.0,316.0,0.21
56.641236618165685,73.08526377385282,108.33706091401791,55.81477762558851,64.78106684180497,96.02743456234933,49.47291223182678,3527.3369497782205,386.0,316.0,0.21
56.186477177031975,72.92463880545226,108.18878909202388,55.80605354949315,64.63869263013602,95.89600989046097,49.465179415011406,3550.2959476761853,386.0,316.0,0.21
56.20542502453045,72.73857429262613,108.08412743097198,55.265307311577594,64.47376940184236,95.80324024429322,48.985874608898165,3575.685430019519,386.0,316.0,0.21
56.15805448068674,72.88611768889905,108.46788458382123,55.49207197284902,64.60454841422437,96.14339360060693,49.186873495960235,3567.182016392838,386.0,316.0,0.21
56.186477177031975,72.89411248764546,107.74398043906484,55.823498295172314,64.61163481667043,95.5017419137001,49.480642029190065,3552.3979583023997,386.0,316.0,0.21
55.9448861082925,72.84468996636059,108.29345075307577,55.50951671852818,64.56782785081268,95.98877953662873,49.202336110138894,3512.8806508037196,386.0,316.0,0.21
55.85961801925679,72.92681897284821,107.84864210011676,56.25086220245216,64.64062507947683,95.59451155986787,49.85944739177227,3510.8251325762158,386.0,316.0,0.21
55.906988563100505,72.91664315507799,108.57254624487314,55.649064464426864,64.63160547282696,96.23616324677468,49.32602796521187,3527.3369497782205,386.0,316.0,0.21
56.17226582885936,73.04601593483433,108.08412743097198,55.62289904916388,64.74627847611309,95.80324024429322,49.30283555366993,3550.2959476761853,386.0,316.0,0.21
56.20542502453045,72.81852313171778,108.232399252966,55.29147272684058,64.5446341811657,95.93466491618157,49.009067020440106,3548.1964231654365,386.0,316.0,0.21
56.23384772087569,73.08017586496773,107.89225226105889,55.89327046486588,64.77655703848005,95.63316658558846,49.542486447000506,3516.998916513923,386.0,316.0,0.21
55.90225206377465,73.04456192215177,107.80503193917461,55.657785134010666,64.74498967331051,95.55585653414727,49.33375776257515,3508.772018463598,386.0,316.0,0.21
55.89277906512293,72.8141627969259,107.89225226105889,55.80605354949315,64.54076928248406,95.63316658558846,49.465179415011406,3531.489200454828,386.0,316.0,0.21
55.88804071560203,72.7872720785774,108.3283402444341,55.74500204938339,64.51693397926688,96.01970476498605,49.41106479456425,3548.1964231654365,386.0,316.0,0.21
55.92593826079403,72.91809716776055,108.1190169223303,55.64034038833149,64.63289427562954,95.83416547265053,49.318295148396494,3523.1944518923974,386.0,316.0,0.21
55.86909286810355,72.96315850262562,107.63059810842913,56.00665620201314,64.6728355879426,95.40124247016907,49.642988909983636,3504.672985731748,386.0,316.0,0.21
55.90225206377465,72.72985419079424,108.1015755831627,54.73328174324587,64.4660401077211,95.81870587792397,48.514299600148206,3512.8806508037196,386.0,316.0,0.21
55.86909286810355,73.04674294117561,108.58126691445693,56.093873117385876,64.74692287751436,96.24389304413796,49.720295941972736,3476.2457425102857,386.0,316.0,0.21
56.19595202587874,73.11360935651176,107.94458309158486,55.94560129539183,64.80619170268774,95.67955140867234,49.58887127008438,3504.672985731748,386.0,316.0,0.21
56.66018446566415,73.03729498137457,108.31961276182719,55.70139529495281,64.73854842712879,96.01196892871857,49.37241278829575,3510.8251325762158,386.0,316.0,0.21
56.641236618165685,73.01621662336882,107.99691392211079,55.59673363390091,64.71986506404879,95.72593623175621,49.279643142127995,3525.264483885284,386.0,316.0,0.21
56.66492096499001,73.01185600470096,108.03179660044603,55.90199454096123,64.71599991374613,95.75685542120934,49.55021926381588,3535.6512384046864,386.0,316.0,0.21
56.186477177031975,72.98641759577926,107.73525976948106,55.2740279811614,64.69345190360546,95.49401211633683,48.99360440626145,3537.735938427331,386.0,316.0,0.21
55.447492622640944,72.78581721426696,108.04924475263674,55.265307311577594,64.5156444216013,95.77232105484009,48.985874608898165,3556.6094555855084,386.0,316.0,0.21
55.452229121966795,72.82361132447886,108.45044324465363,55.12575956567891,64.54914423611164,96.12793400588036,48.86218275382519,3562.9454581785944,386.0,316.0,0.21
55.447492622640944,73.04456277377967,108.16262708327244,55.75372612547876,64.74499042817355,95.87282049837113,49.418797611379624,3519.061672476688,386.0,316.0,0.21
55.12063531506081,73.21608971466385,107.96202443075248,56.826497931726045,64.89702789303064,95.6950110033989,50.36967742624283,3496.5035848326065,386.0,316.0,0.21
55.38591073062461,72.79744676084378,107.94458309158486,55.535682133791155,64.52595257943274,95.67955140867234,49.225528521680836,3490.4014843355167,386.0,316.0,0.21
55.89751556444879,73.00894939871566,107.88353159147508,55.84094304085149,64.71342356624605,95.62543678822517,49.496104643368724,3464.2033207694876,386.0,316.0,0.21
56.15805448068674,73.20373401337362,107.97074510033627,55.997932125917785,64.88607608866094,95.70274080076219,49.63525609316826,3458.213343845967,386.0,316.0,0.21
56.65071146701244,73.28368342021723,108.08412743097198,56.46018552455595,64.9569413712263,95.80324024429322,50.04498668410778,3460.2076998689463,386.0,316.0,0.21
56.645973117491536,73.04310790946921,108.16262708327244,56.10259378696967,64.74370087050796,95.87282049837113,49.72802573933602,3496.5035848326065,386.0,316.0,0.21
56.6554479663383,72.957345290655,108.07540676138817,55.657785134010666,64.66768289294242,95.79551044692994,49.33375776257515,3502.6270587114727,386.0,316.0,0.21
56.645973117491536,72.9885971954233,107.7963112695908,55.83221896475612,64.69538384970429,95.54812673678398,49.48837182655335,3486.345236242157,386.0,316.0,0.21
56.2006885252046,72.89556564870011,109.25284022868735,56.13747987181645,64.61292286460996,96.83915990796089,49.758947948241236,3514.938577371267,386.0,316.0,0.21
56.17226582885936,73.1848369582677,108.9650240673062,55.526958057695786,64.86932618140578,96.58404640045167,49.21779570486546,3519.061672476688,386.0,316.0,0.21
56.186477177031975,73.17974961713452,108.17134775285626,56.076428371706704,64.86481688132287,95.88055029573441,49.70483332779408,3521.1268495145264,386.0,316.0,0.21
55.90225206377465,72.90137999617458,107.69164960853891,55.431020472739256,64.61807656609416,95.45535709061623,49.132758875513076,3539.8230982730106,386.0,316.0,0.21
55.91172691262141,73.0133100173835,107.88353159147508,56.093873117385876,64.71728871654868,95.62543678822517,49.720295941972736,3510.8251325762158,386.0,316.0,0.21
55.906988563100505,73.02711859585243,108.1190169223303,55.68395054927363,64.72952831723691,95.83416547265053,49.35695017411709,3512.8806508037196,386.0,316.0,0.21
55.91172691262141,72.96025246439223,108.50277407517956,55.78861221032554,64.67025974368453,96.17431882896423,49.44971982028485,3531.489200454828,386.0,316.0,0.21
55.38591073062461,72.93844823554907,107.82248009136535,55.86710845611447,64.65093298568728,95.57132216777802,49.519297054910666,3502.6270587114727,386.0,316.0,0.21
55.452229121966795,72.75892592816656,107.42127478632537,55.76244679506256,64.4918086151421,95.21570317783356,49.426527408742906,3539.8230982730106,386.0,316.0,0.21
55.41433342696985,72.86867464647567,108.21495791379839,55.431020472739256,64.58908730977177,95.91920532145501,49.132758875513076,3494.4671820458666,386.0,316.0,0.21
55.43801962398923,72.71458932863506,107.73525976948106,55.59673363390091,64.45250969126225,95.49401211633683,49.279643142127995,3523.1944518923974,386.0,316.0,0.21
55.43328127446832,73.01912379710605,108.18006842244006,56.17236595666325,64.72244191479088,95.88828009309769,49.78987015714646,3498.542362433092,386.0,316.0,0.21
55.86909286810355,72.9551648393831,107.82248009136535,55.48335130326521,64.6657501919806,95.57132216777802,49.17914369859696,3498.542362433092,386.0,316.0,0.21
55.89751556444879,72.95007806600182,108.01435526127838,56.076428371706704,64.6612413951397,95.74139582648277,49.70483332779408,3521.1268495145264,386.0,316.0,0.21
55.88804071560203,72.98060296442881,107.95330376116866,55.66650580359448,64.68829795050024,95.68728120603562,49.341487559938436,3531.489200454828,386.0,316.0,0.21
55.878567716950315,72.70514108495806,108.16262708327244,55.64034038833149,64.44413498925567,95.87282049837113,49.318295148396494,3521.1268495145264,386.0,316.0,0.21
55.89277906512293,72.98714516987248,108.35450225318552,56.128759202232644,64.69409680824877,96.04289415707589,49.75121815087795,3480.278510193012,386.0,316.0,0.21
55.88804071560203,73.15649137560874,108.17134775285626,56.02409754118075,64.84420132052301,95.88055029573441,49.6584485047102,3492.433149925933,386.0,316.0,0.21
55.86435636877769,73.15939911709793,107.988193252527,55.88454979528207,64.84677867450715,95.71820643439294,49.534756649637224,3504.672985731748,386.0,316.0,0.21
56.65071146701244,72.92245863805631,108.14517893108172,55.78861221032554,64.6367601807952,95.85735486474037,49.44971982028485,3525.264483885284,386.0,316.0,0.21
56.66018446566415,72.91737016141926,108.07540676138817,55.50951671852818,64.63224987422824,95.79551044692994,49.202336110138894,3527.3369497782205,386.0,316.0,0.21
56.191213676357826,73.15067646038239,107.12473795536037,56.1810900327586,64.83904711579682,94.95285987296104,49.79760297396183,3514.938577371267,386.0,316.0,0.21
56.2006885252046,73.02711887972838,108.18006842244006,56.111314456553494,64.7295285688579,95.88828009309769,49.7357555366993,3510.8251325762158,386.0,316.0,0.21
55.906988563100505,72.92899942412012,108.64231841456667,55.91071521054504,64.64255778043868,96.29800766458511,49.557949061179166,3510.8251325762158,386.0,316.0,0.21
55.442756123315085,73.07872213616113,108.15390641368863,55.94560129539183,64.7752684872985,95.86509070100784,49.58887127008438,3516.998916513923,386.0,316.0,0.21
55.42380827581661,73.14340980348112,107.61315676926154,55.75372612547876,64.83260612123608,95.38578287544252,49.418797611379624,3492.433149925933,386.0,316.0,0.21
55.419069926295705,72.87521628416737,108.39811241412767,55.50951671852818,64.59488566427827,96.08154918279648,49.202336110138894,3506.721304250586,386.0,316.0,0.21
55.43801962398923,72.97333403651987,108.24111992254981,56.13747987181645,64.68185494297147,95.94239471354484,49.758947948241236,3496.5035848326065,386.0,316.0,0.21
55.878567716950315,73.14994973791704,108.04051727002984,56.01537687159695,64.83840296601652,95.76458521857262,49.65071870734692,3508.772018463598,386.0,316.0,0.21
55.87382936742941,72.96170619319882,108.09284810055577,55.46590655758603,64.67154829486607,95.8109700416565,49.1636810844183,3498.542362433092,386.0,316.0,0.21
56.17226582885936,72.78218303418845,107.81375260875842,56.15492461749563,64.51242316945792,95.56358633151055,49.774410562419895,3521.1268495145264,386.0,316.0,0.21
56.669659314510916,72.86867436259972,108.232399252966,55.50951671852818,64.58908705815077,95.93466491618157,49.202336110138894,3531.489200454828,386.0,316.0,0.21
56.19595202587874,72.88902457876033,107.89225226105889,55.51823738811199,64.60712501334548,95.63316658558846,49.21006590750218,3550.2959476761853,386.0,316.0,0.21
56.21489987337721,72.94498930548885,107.5521052691518,56.15492461749563,64.65673083695174,95.33166825499535,49.774410562419895,3519.061672476688,386.0,316.0,0.21
55.90225206377465,72.8468695660046,107.49105376904203,56.25086220245216,64.56975979691147,95.2775536345482,49.85944739177227,3525.264483885284,386.0,316.0,0.21
55.89277906512293,72.61138309964552,107.80503193917461,54.750726488925025,64.36103010600209,95.55585653414727,48.52976221432686,3512.8806508037196,386.0,316.0,0.21
55.86435636877769,72.7974464769678,107.83120076094916,55.50951671852818,64.52595232781172,95.5790519651413,49.202336110138894,3525.264483885284,386.0,316.0,0.21
55.91172691262141,72.90283372498118,107.90969360022652,55.69267121885744,64.61936511727572,95.64862618031502,49.36467997148037,3531.489200454828,386.0,316.0,0.21
55.91646341194727,72.91228338803799,107.99691392211079,55.28275205725677,64.62774107738733,95.72593623175621,49.001337223076824,3506.721304250586,386.0,316.0,0.21
55.42854477514247,72.97478890083032,107.72653909989724,55.76244679506256,64.68314450063706,95.48628231897355,49.426527408742906,3519.061672476688,386.0,316.0,0.21
55.442756123315085,72.85268362960309,107.60443609967773,55.631619718747686,64.57491324677467,95.37805307807923,49.31056535103321,3523.1944518923974,386.0,316.0,0.21
55.40959692764399,72.7712813455808,107.94458309158486,55.823498295172314,64.5027601678908,95.67955140867234,49.480642029190065,3533.568993859101,386.0,316.0,0.21
55.41433342696985,72.82143144095888,108.1277375919141,55.49207197284902,64.54721203839183,95.84189527001381,49.186873495960235,3512.8806508037196,386.0,316.0,0.21
55.447492622640944,73.13323370183497,107.74398043906484,56.05026295644374,64.82358626296521,95.5017419137001,49.68164091625214,3492.433149925933,386.0,316.0,0.21
56.2006885252046,73.00749510215711,107.97074510033627,56.02409754118075,64.71213451182246,95.70274080076219,49.6584485047102,3516.998916513923,386.0,316.0,0.21
56.63650011883983,73.08526292222494,108.37194359235312,55.74500204938339,64.78106608694196,96.05835375180244,49.41106479456425,3537.735938427331,386.0,316.0,0.21
56.57491637662844,73.04674152179581,108.37194359235312,55.33507948127116,64.74692161940933,96.05835375180244,49.047719026708606,3548.1964231654365,386.0,316.0,0.21
56.707555009507864,72.8577709707363,107.99691392211079,55.526958057695786,64.5794225468576,95.72593623175621,49.21779570486546,3546.0993803621473,386.0,316.0,0.21
56.20542502453045,72.7850907756776,108.24111992254981,55.34380355736653,64.51500052344203,95.94239471354484,49.05545184352398,3571.4286616504482,386.0,316.0,0.21
55.85961801925679,72.86940080118907,108.08412743097198,54.74200241282967,64.58973095631004,95.80324024429322,48.52202939751149,3565.0624786528538,386.0,316.0,0.21
55.906988563100505,72.96752025679734,107.88353159147508,56.15492461749563,64.67670174472929,95.62543678822517,49.774410562419895,3531.489200454828,386.0,316.0,0.21
55.40959692764399,73.03438638825752,107.92713493939414,55.823498295172314,64.73597031828166,95.66408577504158,49.480642029190065,3539.8230982730106,386.0,316.0,0.21
55.40012207879723,72.99295838184308,108.72081806686717,55.614174973068515,64.69924950324894,96.36758791866303,49.29510273685455,3539.8230982730106,386.0,316.0,0.21
55.39538557947137,73.04746881201307,108.21495791379839,55.60545430348473,64.74756627243163,95.91920532145501,49.28737293949128,3550.2959476761853,386.0,316.0,0.21
55.37169938245199,72.9617064770748,107.5608259387356,55.431020472739256,64.67154854648709,95.33939805235863,49.132758875513076,3554.5024594625315,386.0,316.0,0.21
55.419069926295705,72.8054412757142,108.58998758404076,55.11703889609512,64.53303873025776,96.25162284150124,48.85445295646191,3562.9454581785944,386.0,316.0,0.21
55.447492622640944,72.93626806815311,107.988193252527,55.59673363390091,64.64900053634643,95.71820643439294,49.279643142127995,3550.2959476761853,386.0,316.0,0.21
55.35275153495351,73.07726954285837,108.16262708327244,55.76244679506256,64.77398094260096,95.87282049837113,49.426527408742906,3531.489200454828,386.0,316.0,0.21
55.831195322911555,72.98496358309669,108.66848723634124,55.997932125917785,64.6921631008029,96.32120309557915,49.63525609316826,3527.3369497782205,386.0,316.0,0.21
55.92119991127313,73.24152698808169,108.93013457594786,56.19853137192621,64.91957489668727,96.55312117209435,49.813062568688395,3512.8806508037196,386.0,316.0,0.21
56.162790980012595,73.2219034943864,108.11029625274652,55.980490786750174,64.90218109127284,95.82643567528726,49.6197964984417,3498.542362433092,386.0,316.0,0.21
56.191213676357826,73.17902261079323,108.24111992254981,56.15492461749563,64.86417247992158,95.94239471354484,49.774410562419895,3492.433149925933,386.0,316.0,0.21
56.191213676357826,73.11070218277455,107.86608343928435,56.41657536361382,64.80361485194565,95.60997115459442,50.00633165838719,3486.345236242157,386.0,316.0,0.21
55.89751556444879,73.04892339244753,108.26728874432433,56.05026295644374,64.7488555784762,95.96559014453888,49.68164091625214,3506.721304250586,386.0,316.0,0.21
55.89277906512293,72.97260788180648,107.88353159147508,55.70139529495281,64.68121129643322,95.62543678822517,49.37241278829575,3488.3721811469495,386.0,316.0,0.21
55.91172691262141,73.06418626747497,107.92713493939414,55.83221896475612,64.76238423358798,95.66408577504158,49.48837182655335,3474.2328613623354,386.0,316.0,0.21
55.854881519930935,73.03438723988539,108.05796542222055,55.84094304085149,64.73597107314467,95.78005085220337,49.496104643368724,3478.2609574334797,386.0,316.0,0.21
55.831195322911555,73.19719237568195,108.46788458382123,56.00665620201314,64.88027773415448,96.14339360060693,49.642988909983636,3480.278510193012,386.0,316.0,0.21
55.89277906512293,72.91736930979135,108.00563459169459,55.56184754905413,64.63224911936521,95.73366602911949,49.24872093322277,3510.8251325762158,386.0,316.0,0.21
56.20542502453045,73.04528892849306,108.21495791379839,55.86710845611447,64.7456340747118,95.91920532145501,49.519297054910666,3519.061672476688,386.0,316.0,0.21
55.84540667108417,72.67970352766426,108.11029625274652,55.60545430348473,64.42158773397804,95.82643567528726,49.28737293949128,3541.912722297965,386.0,316.0,0.21
55.878567716950315,72.92899914024414,107.99691392211079,55.38741031179711,64.64255752881766,95.72593623175621,49.09410384979248,3535.6512384046864,386.0,316.0,0.21
55.98752015281036,72.99368567206034,108.16262708327244,55.42229980315546,64.69989415627124,95.87282049837113,49.1250290781498,3537.735938427331,386.0,316.0,0.21
56.19595202587874,73.07508909158646,107.97946576992008,55.614174973068515,64.77204824163914,95.71047059812547,49.29510273685455,3496.5035848326065,386.0,316.0,0.21
56.2006885252046,73.00458736066797,108.4329950924629,56.42529943970919,64.70955715783835,96.11246837224961,50.01406447520257,3486.345236242157,386.0,316.0,0.21
56.21016152385631,73.01258244329028,108.11029625274652,55.81477762558851,64.71664381190537,95.82643567528726,49.47291223182678,3510.8251325762158,386.0,316.0,0.21
56.186477177031975,73.1993739624577,108.03179660044603,56.4514614484606,64.88221144160032,95.75685542120934,50.03725386729241,3486.345236242157,386.0,316.0,0.21
56.20542502453045,72.92245750255243,108.05796542222055,56.32935844824108,64.63675917431117,95.78005085220337,49.92902462639809,3512.8806508037196,386.0,316.0,0.21
56.21489987337721,72.76837417184355,108.1277375919141,55.80605354949315,64.50018331714868,95.84189527001381,49.465179415011406,3504.672985731748,386.0,316.0,0.21
56.63176176931891,73.03147893064433,108.31961276182719,55.797332879909355,64.73339321591855,96.01196892871857,49.45744961764813,3506.721304250586,386.0,316.0,0.21
56.65071146701244,73.33383351559529,108.31089209224339,56.599733270454635,65.00139324172734,96.00423913135529,50.16867853918076,3482.298404859404,386.0,316.0,0.21
56.622288770667204,73.2328063184979,108.16262708327244,56.12003853264884,64.911845099324,95.87282049837113,49.74348835351467,3474.2328613623354,386.0,316.0,0.21
56.69334366133525,73.07363593053176,108.18006842244006,56.277027617715135,64.77076019369959,95.88828009309769,49.88263980331421,3500.5835190039397,386.0,316.0,0.21
56.641236618165685,73.01185657245287,108.26728874432433,55.34380355736653,64.71600041698814,95.96559014453888,49.05545184352398,3510.8251325762158,386.0,316.0,0.21
56.94914607824734,72.84832414643908,108.22367858338221,55.797332879909355,64.57104910295605,95.92693511881829,49.45744961764813,3546.0993803621473,386.0,316.0,0.21
56.645973117491536,72.87594272275678,108.64231841456667,55.38741031179711,64.59552956243756,96.29800766458511,49.09410384979248,3523.1944518923974,386.0,316.0,0.21
56.66018446566415,73.10634128023071,104.63031986835175,55.75372612547876,64.79974945002199,92.74186607637405,49.418797611379624,3527.3369497782205,386.0,316.0,0.21
56.22437287202892,72.56268559757021,107.58698794748702,55.265307311577594,64.31786578019857,95.36258744444848,48.985874608898165,3523.1944518923974,386.0,316.0,0.21
56.62702526999306,72.4696551863509,108.07540676138817,53.10231554689229,64.2354058015883,95.79551044692994,47.068649345541004,3506.721304250586,386.0,316.0,0.21
56.622288770667204,72.17093591698227,105.14490750402743,55.1519249809419,63.97062803440689,93.19798450984955,48.88537516536713,3525.264483885284,386.0,316.0,0.21
56.17226582885936,72.52634578391682,108.33706091401791,55.68395054927363,64.2856550201118,96.02743456234933,49.35695017411709,3500.5835190039397,386.0,316.0,0.21
56.162790980012595,73.13323398571092,108.14517893108172,56.32063777865727,64.82358651458621,95.85735486474037,49.92129482903481,3458.213343845967,386.0,316.0,0.21
56.115420436168876,73.05037683737815,108.06668609180436,56.00665620201314,64.75014387803674,95.78778064956666,49.642988909983636,3490.4014843355167,386.0,316.0,0.21
56.120156935494734,73.38543677202807,108.18006842244006,56.43402010929299,65.04713316016795,95.88828009309769,50.02179427256584,3488.3721811469495,386.0,316.0,0.21
56.63650011883983,73.23789394350703,108.24984059213362,56.15492461749563,64.91635465102792,95.95012451090813,49.774410562419895,3488.3721811469495,386.0,316.0,0.21
56.68860716200939,73.23353247321127,107.96202443075248,56.29447236339432,64.91248874586223,95.6950110033989,49.89810241749287,3498.542362433092,386.0,316.0,0.21
56.65071146701244,72.97333488814778,108.81675224531214,56.03282161727611,64.68185569783451,96.45262172856332,49.66618132152558,3508.772018463598,386.0,316.0,0.21
56.17226582885936,73.30694024236318,108.40683308371148,55.431020472739256,64.97755567392112,96.08927898015976,49.132758875513076,3535.6512384046864,386.0,316.0,0.21
55.82172232425984,72.93045286905077,108.0230759308622,55.50079264243282,64.64384607999922,95.74912562384606,49.19460329332352,3560.8309504882805,386.0,316.0,0.21
55.47591531898618,72.75819892182528,107.83120076094916,55.239141896314635,64.49116421374083,95.5790519651413,48.96268219735623,3562.9454581785944,386.0,316.0,0.21
55.452229121966795,72.96025161276432,108.79931090614454,55.431020472739256,64.67025898882149,96.43716213383675,49.132758875513076,3508.772018463598,386.0,316.0,0.21
55.85961801925679,73.02203040309135,108.25856126171742,55.8583843800191,64.72501826229096,95.95785430827141,49.51156423809529,3535.6512384046864,386.0,316.0,0.21
55.84067017175831,72.87739588381142,107.5695466083194,55.649064464426864,64.59681761037707,95.34712784972191,49.32602796521187,3537.735938427331,386.0,316.0,0.21
55.86435636877769,72.85413764228566,108.0230759308622,55.431020472739256,64.57620204957723,95.74912562384606,49.132758875513076,3548.1964231654365,386.0,316.0,0.21
55.92119991127313,72.9122828202861,108.03179660044603,56.093873117385876,64.62774057414534,95.75685542120934,49.720295941972736,3525.264483885284,386.0,316.0,0.21
56.143843132514114,72.99659284579755,108.3283402444341,55.212976481051655,64.70247100701333,96.01970476498605,48.93948978581429,3544.004814868726,386.0,316.0,0.21
55.90225206377465,73.57804207091799,108.39811241412767,56.40785469403001,65.21785398810506,96.08154918279648,49.99860186102391,3486.345236242157,386.0,316.0,0.21
55.87382936742941,72.9755159071716,108.0230759308622,55.4746306336814,64.68378890203833,95.74912562384606,49.17141390123368,3508.772018463598,386.0,316.0,0.21
55.878567716950315,73.20227914906322,107.99691392211079,56.14620394791182,64.88478653099538,95.72593623175621,49.76668076505661,3476.2457425102857,386.0,316.0,0.21
56.1675293295335,73.20664090323491,107.89225226105889,56.058983626027526,64.88865268778206,95.63316658558846,49.68937071361542,3484.3206455126324,386.0,316.0,0.21
56.18174067770612,72.98133025464608,107.96202443075248,55.239141896314635,64.68894260352256,95.6950110033989,48.96268219735623,3510.8251325762158,386.0,316.0,0.21
56.14857963183997,72.9282727016548,108.4329950924629,55.60545430348473,64.6419136306584,96.11246837224961,49.28737293949128,3516.998916513923,386.0,316.0,0.21
56.18174067770612,73.01040170814241,108.33706091401791,55.84094304085149,64.71471085932255,96.02743456234933,49.496104643368724,3539.8230982730106,386.0,316.0,0.21
55.92593826079403,72.99659256192157,108.05796542222055,55.797332879909355,64.70247075539231,95.78005085220337,49.45744961764813,3508.772018463598,386.0,316.0,0.21
55.87382936742941,72.99150550466435,107.02007629430847,55.963046041070996,64.6979617069304,94.86009022679329,49.60433388426304,3504.672985731748,386.0,316.0,0.21
56.13910663318826,72.86504018252121,108.39811241412767,55.34380355736653,64.58586580600739,96.08154918279648,49.05545184352398,3504.672985731748,386.0,316.0,0.21
55.87382936742941,73.09107897295517,107.99691392211079,55.797332879909355,64.7862212981522,95.72593623175621,49.45744961764813,3510.8251325762158,386.0,316.0,0.21
55.91646341194727,73.0314797822722,108.30217142265958,55.74500204938339,64.73339397078156,95.99650933399201,49.41106479456425,3521.1268495145264,386.0,316.0,0.21
55.906988563100505,72.97260759793052,108.53765675351478,55.87582912569827,64.6812110448122,96.20523801841736,49.52702685227394,3512.8806508037196,386.0,316.0,0.21
56.162790980012595,73.00022759362798,108.1015755831627,56.20725544802158,64.70569276239873,95.81870587792397,49.82079538550377,3476.2457425102857,386.0,316.0,0.21
56.20542502453045,73.07072875679457,108.04051727002984,56.0677077021229,64.7681833429575,95.76458521857262,49.697103530430795,3486.345236242157,386.0,316.0,0.21
56.2006885252046,72.87303441351565,107.87480410886816,55.56184754905413,64.5929517052114,95.6177009519577,49.24872093322277,3512.8806508037196,386.0,316.0,0.21
56.641236618165685,73.00240634164412,108.00563459169459,55.75372612547876,64.70762395363451,95.73366602911949,49.418797611379624,3496.5035848326065,386.0,316.0,0.21
56.96335742641996,72.91228282028607,107.72653909989724,55.439741142323065,64.6277405741453,95.48628231897355,49.14048867287636,3506.721304250586,386.0,316.0,0.21
56.68860716200939,73.14122679732554,107.70909776072965,56.05026295644374,64.83067115568518,95.47082272424699,49.68164091625214,3490.4014843355167,386.0,316.0,0.21
56.68387066268354,72.9224580703044,108.04051727002984,55.86710845611447,64.6367596775532,95.76458521857262,49.519297054910666,3488.3721811469495,386.0,316.0,0.21
56.219636372703064,73.01912322935411,108.52893608393097,55.44846521841842,64.72244141154884,96.19750822105408,49.148221489691736,3484.3206455126324,386.0,316.0,0.21
